1 "36862089393979904" 03 52 24.76 +12 22 43.4 2015.0 0.0 0.0 V=9.8258 Type=Tau 
2 "37150917354592128" 03 47 24.75 +12 30 29.4 2015.0 0.0 0.0 V=10.60868 Type=Tau 
3 "39078533037540992" 03 50 24.97 +13 04 13.8 2015.0 0.0 0.0 V=11.44896 Type=Tau 
4 "41367544447437056" 04 02 18.69 +14 31 05.6 2015.0 0.0 0.0 V=9.6565 Type=Tau 
5 "43542103568958720" 03 41 25.83 +14 53 19.0 2015.0 0.0 0.0 V=10.7038 Type=Tau 
6 "44700748306450176" 03 53 50.88 +16 52 45.2 2015.0 0.0 0.0 V=8.93168 Type=Tau 
7 "45567816304191232" 03 46 55.58 +18 17 02.2 2015.0 0.0 0.0 V=7.60216 Type=Tau 
8 "46408392943634432" 04 07 54.66 +16 31 50.0 2015.0 0.0 0.0 V=11.39604 Type=Tau 
9 "46431654486502144" 04 04 44.03 +17 00 03.3 2015.0 0.0 0.0 V=9.7091 Type=Tau 
10 "47245808487404288" 04 03 22.37 +17 16 26.9 2015.0 0.0 0.0 V=10.47996 Type=Tau 
11 "47401870419081088" 04 05 56.48 +18 57 41.3 2015.0 0.0 0.0 V=9.68964 Type=Tau 
12 "48470561361474560" 04 18 38.61 +17 50 29.6 2015.0 0.0 0.0 V=8.1301 Type=Tau 
13 "49411262278418816" 04 14 14.98 +18 53 38.3 2015.0 0.0 0.0 V=8.621 Type=Tau 
14 "49771489775333632" 04 19 33.71 +21 03 54.3 2015.0 0.0 0.0 V=10.6016 Type=Tau 
15 "50546267515806976" 03 57 30.77 +18 13 40.2 2015.0 0.0 0.0 V=9.3786 Type=Tau 
16 "50625707230894464" 04 01 30.39 +19 48 38.9 2015.0 0.0 0.0 V=9.3411 Type=Tau 
17 "53693104154665088" 04 00 39.98 +20 18 11.6 2015.0 0.0 0.0 V=7.4914 Type=Tau 
18 "64637608537378304" 04 08 53.52 +23 05 54.6 2015.0 0.0 0.0 V=10.18428 Type=Tau 
19 "65090676047968000" 03 51 36.64 +22 01 52.4 2015.0 0.0 0.0 V=9.5522 Type=Tau 
20 "66623395256627712" 03 41 04.42 +22 31 54.2 2015.0 0.0 0.0 V=9.6955 Type=Tau 
21 "67300694420059008" 03 43 042.9 +23 35 40.5 2015.0 0.0 0.0 V=7.83304 Type=Tau 
22 "67362816826292224" 03 54 12.85 +24 34 10.7 2015.0 0.0 0.0 V=10.33292 Type=Tau 
23 "68601141797171968" 03 53 32.01 +25 43 47.4 2015.0 0.0 0.0 V=6.10164 Type=Tau 
24 "71098098344920320" 03 51 45.53 +25 53 05.5 2015.0 0.0 0.0 V=11.1245 Type=Tau 
25 "71863083559772928" 03 40 46.32 +25 19 45.9 2015.0 0.0 0.0 V=6.86364 Type=Tau 
26 "145259985838802560" 03 41 13.65 +27 02 15.9 2015.0 0.0 0.0 V=5.98616 Type=Tau 
27 "146483811000001920" 03 41 018.4 +28 42 09.7 2015.0 0.0 0.0 V=7.00076 Type=Tau 
28 "146488552643892096" 04 23 32.38 +20 58 54.8 2015.0 0.0 0.0 V=8.96472 Type=Tau 
29 "146515937356158720" 04 42 12.19 +22 56 32.3 2015.0 0.0 0.0 V=6.91604 Type=Tau 
30 "146953061948009344" 04 42 05.85 +23 03 36.4 2015.0 0.0 0.0 V=6.32934 Type=Tau 
31 "148081607556182912" 04 43 054.0 +22 56 39.7 2015.0 0.0 0.0 V=9.82064 Type=Tau 
32 "148478428173042944" 04 45 42.48 +23 37 40.5 2015.0 0.0 0.0 V=8.46964 Type=Tau 
33 "151893580007473024" 04 41 08.06 +25 59 33.8 2015.0 0.0 0.0 V=10.5603 Type=Tau 
34 "153132970131175552" 04 41 55.15 +26 58 49.1 2015.0 0.0 0.0 V=8.6468 Type=Tau 
35 "153669016409787776" 04 37 24.22 +27 45 34.8 2015.0 0.0 0.0 V=10.3738 Type=Tau 
36 "155520731429831040" 04 53 18.41 +24 54 09.5 2015.0 0.0 0.0 V=9.94396 Type=Tau 
37 "156249501480484736" 04 51 45.11 +26 51 43.8 2015.0 0.0 0.0 V=8.3573 Type=Tau 
38 "156630001221898240" 05 05 59.66 +28 07 16.4 2015.0 0.0 0.0 V=9.92836 Type=Tau 
39 "156901168277114752" 05 06 012.9 +29 45 53.3 2015.0 0.0 0.0 V=7.599 Type=Tau 
40 "157614132850512000" 04 55 48.24 +30 20 16.1 2015.0 0.0 0.0 V=10.4184 Type=Tau 
41 "158401829850320768" 04 55 59.39 +30 34 01.1 2015.0 0.0 0.0 V=7.39472 Type=Tau 
42 "158774701731104512" 05 02 35.16 +32 26 56.2 2015.0 0.0 0.0 V=5.87784 Type=Tau 
43 "159815698725633792" 04 48 22.75 +29 46 22.4 2015.0 0.0 0.0 V=9.4454 Type=Tau 
44 "160347312597855360" 04 34 37.99 +28 57 39.8 2015.0 0.0 0.0 V=11.11168 Type=Tau 
45 "162271045628667008" 04 39 53.86 +32 01 25.2 2015.0 0.0 0.0 V=9.1113 Type=Tau 
46 "162502389746844672" 04 54 50.62 +32 04 11.6 2015.0 0.0 0.0 V=8.17652 Type=Tau 
47 "163515624072087168" 04 02 41.85 +25 55 16.8 2015.0 0.0 0.0 V=7.931 Type=Tau 
48 "163570840171446784" 04 14 12.93 +28 12 11.9 2015.0 0.0 0.0 V=7.4354 Type=Tau 
49 "166063673549272960" 04 21 57.42 +28 26 35.2 2015.0 0.0 0.0 V=11.30396 Type=Tau 
50 "167174352092674432" 04 19 15.84 +29 06 26.5 2015.0 0.0 0.0 V=12.0832 Type=Tau 
51 "167727406441746432" 04 13 29.16 +31 08 58.5 2015.0 0.0 0.0 V=8.91928 Type=Tau 
52 "169155019211661952" 03 56 40.18 +29 36 39.1 2015.0 0.0 0.0 V=11.0289 Type=Tau 
53 "169518132925337344" 04 02 06.66 +30 52 07.5 2015.0 0.0 0.0 V=10.0122 Type=Tau 
54 "171678535834964224" 04 09 13.33 +31 46 22.6 2015.0 0.0 0.0 V=6.16934 Type=Tau 
55 "172015914106004864" 04 05 33.45 +31 29 49.7 2015.0 0.0 0.0 V=8.7996 Type=Tau 
56 "172150260682996224" 04 14 26.32 +32 25 00.8 2015.0 0.0 0.0 V=8.2757 Type=Tau 
57 "173356046981554176" 04 30 38.42 +32 27 27.7 2015.0 0.0 0.0 V=9.5726 Type=Tau 
58 "175469651928077696" 04 32 45.29 +32 43 29.5 2015.0 0.0 0.0 V=8.41812 Type=Tau 
59 "175885507840968192" 04 35 30.54 +33 16 20.3 2015.0 0.0 0.0 V=8.80948 Type=Tau 
60 "176857613558875904" 04 30 24.87 +35 07 04.0 2015.0 0.0 0.0 V=11.16858 Type=Tau 
61 "177057449798086144" 04 40 44.54 +36 50 59.9 2015.0 0.0 0.0 V=9.2152 Type=Tau 
62 "180294721270420224" 04 38 20.07 +37 21 44.1 2015.0 0.0 0.0 V=8.9321 Type=Tau 
63 "187019884139230720" 04 20 17.85 +34 31 21.5 2015.0 0.0 0.0 V=10.22968 Type=Tau 
64 "198534347861525248" 04 11 09.48 +34 55 39.2 2015.0 0.0 0.0 V=10.0468 Type=Tau 
65 "216795071335913600" 04 11 04.86 +35 13 32.6 2015.0 0.0 0.0 V=9.3271 Type=Tau 
66 "220080309000189696" 05 18 19.74 +30 55 59.3 2015.0 0.0 0.0 V=10.69844 Type=Tau 
67 "223336993723299456" 05 15 20.89 +36 49 10.7 2015.0 0.0 0.0 V=7.77692 Type=Tau 
68 "223338952228386816" 05 48 51.82 +39 32 00.6 2015.0 0.0 0.0 V=5.54306 Type=Tau 
69 "3295922306262340608" 04 47 09.02 +37 14 17.3 2015.0 0.0 0.0 V=9.5997 Type=Tau 
70 "3296098915316684288" 03 50 58.88 +32 10 10.0 2015.0 0.0 0.0 V=7.24688 Type=Tau 
71 "3305099002106043904" 03 50 30.11 +34 03 07.9 2015.0 0.0 0.0 V=7.69272 Type=Tau 
72 "3306968171873196032" 03 50 38.67 +36 34 14.8 2015.0 0.0 0.0 V=11.4529 Type=Tau 
73 "3307718313681094144" 03 41 43.38 +37 35 13.3 2015.0 0.0 0.0 V=10.69316 Type=Tau 
74 "3308639566986768384" 03 41 07.89 +37 34 48.3 2015.0 0.0 0.0 V=10.80136 Type=Tau 
75 "3309233749941921280" 04 43 21.72 +12 26 45.4 2015.0 0.0 0.0 V=9.0884 Type=Tau 
76 "3310861886144126976" 04 52 41.09 +12 23 04.8 2015.0 0.0 0.0 V=11.00268 Type=Tau 
77 "3340458265263400448" 04 24 14.49 +12 09 28.4 2015.0 0.0 0.0 V=9.31004 Type=Tau 
78 "3347802590620037120" 04 27 08.6 +13 17 31.9 2015.0 0.0 0.0 V=8.4627 Type=Tau 
79 "3348274555985694720" 04 51 14.57 +14 21 22.7 2015.0 0.0 0.0 V=6.99648 Type=Tau 
80 "3389236140124177920" 04 37 31.73 +14 18 07.0 2015.0 0.0 0.0 V=6.34016 Type=Tau 
81 "3391529755739644928" 04 27 57.08 +14 10 42.2 2015.0 0.0 0.0 V=9.5552 Type=Tau 
82 "3391860983618079744" 04 27 05.98 +18 12 36.9 2015.0 0.0 0.0 V=8.90744 Type=Tau 
83 "3394889382237952000" 04 30 04.01 +18 13 49.2 2015.0 0.0 0.0 V=10.35008 Type=Tau 
84 "3400229607134201856" 05 43 40.11 +12 33 15.2 2015.0 0.0 0.0 V=9.10692 Type=Tau 
85 "3401700444454534656" 05 42 40.41 +15 01 32.4 2015.0 0.0 0.0 V=9.2966 Type=Tau 
86 "3402512193273468416" 05 44 53.25 +16 05 09.7 2015.0 0.0 0.0 V=9.2408 Type=Both 
87 "3402593454056273408" 05 28 34.78 +13 40 44.1 2015.0 0.0 0.0 V=9.37508 Type=Tau 
88 "3402654339513237504" 05 02 36.78 +13 03 50.0 2015.0 0.0 0.0 V=7.9508 Type=Both 
89 "3406437174906884608" 05 08 39.26 +13 57 58.5 2015.0 0.0 0.0 V=9.254 Type=Tau 
90 "3406460333370531840" 05 05 52.63 +16 37 25.1 2015.0 0.0 0.0 V=9.55396 Type=Tau 
91 "3407205870974880256" 05 27 22.54 +17 16 10.2 2015.0 0.0 0.0 V=7.6336 Type=Both 
92 "3408129220222799872" 05 16 17.54 +19 17 42.5 2015.0 0.0 0.0 V=10.56036 Type=Tau 
93 "3411254272788218880" 05 38 55.72 +20 01 49.4 2015.0 0.0 0.0 V=9.92448 Type=Tau 
94 "3412648075575445504" 05 37 04.7 +20 21 33.9 2015.0 0.0 0.0 V=7.02016 Type=Tau 
95 "3412897595993933824" 05 42 24.62 +20 36 45.1 2015.0 0.0 0.0 V=8.265 Type=Tau 
96 "3413777823771402240" 04 52 36.81 +17 20 00.2 2015.0 0.0 0.0 V=7.6318 Type=Tau 
97 "3414155677814254592" 04 54 20.65 +17 36 32.5 2015.0 0.0 0.0 V=9.58912 Type=Tau 
98 "3416331680045076992" 05 04 50.05 +18 15 13.9 2015.0 0.0 0.0 V=9.66092 Type=Both 
99 "3417062649119133696" 05 08 50.44 +19 51 35.3 2015.0 0.0 0.0 V=8.2691 Type=Both 
100 "3417561277643044352" 04 58 19.25 +18 42 42.8 2015.0 0.0 0.0 V=8.37096 Type=Tau 
101 "3420409184558056960" 04 38 52.15 +20 46 50.4 2015.0 0.0 0.0 V=7.5242 Type=Tau 
102 "3420794322865015296" 04 48 43.85 +21 18 56.5 2015.0 0.0 0.0 V=10.7154 Type=Tau 
103 "3424924294699344896" 04 44 22.78 +21 39 27.0 2015.0 0.0 0.0 V=9.8036 Type=Tau 
104 "3429156589829886976" 05 16 49.38 +20 07 05.6 2015.0 0.0 0.0 V=7.61244 Type=Both 
105 "3444023327069908480" 05 14 49.65 +20 52 48.4 2015.0 0.0 0.0 V=9.37416 Type=Tau 
106 "3445514058676898816" 05 24 48.65 +23 35 13.8 2015.0 0.0 0.0 V=10.91208 Type=Tau 
107 "3448501775366837760" 05 30 27.53 +25 19 56.7 2015.0 0.0 0.0 V=7.7534 Type=Tau 
108 "3456884452016278528" 05 20 17.98 +25 10 15.6 2015.0 0.0 0.0 V=9.55612 Type=Tau 
109 "3457725269174611968" 05 04 50.15 +26 43 14.3 2015.0 0.0 0.0 V=9.31832 Type=Tau 
110 "3350600916431548928" 06 01 20.86 +18 57 40.4 2015.0 0.0 0.0 V=7.2756 Type=Clu 
111 "3375054914027033088" 06 14 33.37 +20 34 13.3 2015.0 0.0 0.0 V=-99.99 Type=Clu 
112 "3394392437342983168" 05 16 42.47 +17 01 11.8 2015.0 0.0 0.0 V=8.128 Type=Clu 
113 "3395590595778919424" 05 15 49.31 +18 38 17.4 2015.0 0.0 0.0 V=9.2438 Type=Clu 
114 "3400574029151619584" 05 21 37.74 +17 59 22.9 2015.0 0.0 0.0 V=10.17612 Type=Clu 
115 "3401902479716131328" 05 20 12.68 +20 32 46.4 2015.0 0.0 0.0 V=10.70876 Type=Clu 
116 "3402186806552667648" 05 29 15.61 +21 18 56.8 2015.0 0.0 0.0 V=8.15684 Type=Clu 
119 "3403213750412158976" 05 47 10.18 +21 52 30.9 2015.0 0.0 0.0 V=8.06312 Type=Clu 
120 "3403339266536803840" 05 39 27.12 +21 45 46.1 2015.0 0.0 0.0 V=6.41866 Type=Clu 
121 "3407015586742831616" 05 39 30.94 +23 06 32.2 2015.0 0.0 0.0 V=9.91128 Type=Clu 
124 "3416449533949332480" 05 31 04.39 +23 12 34.2 2015.0 0.0 0.0 V=8.87276 Type=Clu 
125 "3416747570320423424" 05 24 48.65 +23 35 13.8 2015.0 0.0 0.0 V=10.58252 Type=Clu 
127 "3417213900688568832" 05 35 58.47 +24 44 53.7 2015.0 0.0 0.0 V=8.836 Type=Clu 
128 "3417759602053168640" 05 30 27.53 +25 19 56.7 2015.0 0.0 0.0 V=11.35208 Type=Clu 
129 "3418944566349274112" 05 20 35.04 +24 06 32.5 2015.0 0.0 0.0 V=8.0116 Type=Clu 
130 "3420695229378863616" 05 24 23.62 +25 14 00.8 2015.0 0.0 0.0 V=10.84986 Type=Clu 
131 "3424731914521566208" 05 12 11.58 +24 16 44.8 2015.0 0.0 0.0 V=11.8881 Type=Clu 
132 "3425982780796843008" 05 16 27.14 +25 39 24.1 2015.0 0.0 0.0 V=-99.99 Type=Clu 
133 "3427509315255340544" 05 56 33.21 +23 05 45.2 2015.0 0.0 0.0 V=10.17388 Type=Clu 
134 "3427592637619956736" 06 17 026.0 +24 51 54.2 2015.0 0.0 0.0 V=9.2547 Type=Clu 
136 "3440763034573718528" 05 44 14.25 +23 04 55.8 2015.0 0.0 0.0 V=9.5474 Type=Clu 
137 "3440770937313544192" 05 50 47.77 +26 03 15.0 2015.0 0.0 0.0 V=9.7738 Type=Clu 
