%!PS-Adobe-3.0 EPSF-3.0
%%BoundingBox: 0 0 504 360
%%Title: Graphics produced by IDL
%%For: aaron@Aarons-MacBook-Pro-2.local, 
%%      /Users/aaron/python/BAFGKM/clustering
%%Creator: IDL Version 7.1, Mac OS X (darwin x86_64 m64)
%%CreationDate: Sat Mar 12 18:08:10 2016
%%DocumentData: Clean7bit
%%Requirements: color
%%LanguageLevel: 1
%%PageOrder: Ascend
%%Pages: (atend)
%%DocumentNeededResources: (atend)
%%EndComments
%%BeginProlog
%+ prolog.ps -- Prolog for IDL generated PostScript files
%+ Copyright (c) 1988-2009 ITT Visual Information Solutions. All Rights Reserved.
%v 5
/$IDL_DICT 40 dict def $IDL_DICT begin /bdef { bind def } bind def /C
{currentpoint newpath moveto} bdef /CP {currentpoint} bdef /D {currentpoint
stroke moveto} bdef /F {closepath fill} bdef /K { setgray } bdef /M {moveto}
bdef /N {rmoveto} bdef /P {lineto} bdef /R {rlineto} bdef /S {gsave show
grestore} bdef /X {currentpoint pop} bdef /Z {gsave currentpoint lineto 20
setlinewidth 1 setlinecap stroke grestore} bdef /L0 {[] 0 setdash} bdef /L1
{[40 100] 0 setdash} bdef /L2 {[200 200] 0 setdash} bdef /L3 {[200 100 50
100] 0 setdash} bdef /L4 {[300 100 50 100 50 100 50 100] 0 setdash} bdef /L5
{[400 200] 0 setdash} bdef /STDFONT { findfont exch scalefont setfont } bdef
/ISOFONT { findfont dup length dict begin { 1 index /FID ne {def} {pop pop}
ifelse } forall /Encoding ISOLatin1Encoding def currentdict end /idltmpfont
exch definefont exch scalefont setfont } bdef /ISOBULLET { gsave /Helvetica
findfont exch scalefont setfont (\267) show currentpoint grestore moveto}
bdef /MITERLIMIT { 2.5 setmiterlimit } bdef end
%%EndProlog
%%Page: 0 1
%%PageRequirements: color
%%PageResources: (atend)
%%PageOrientation: Portrait
%%PageBoundingBox: 0 0 504 360
%%BeginPageSetup
$IDL_DICT begin 0.0283465 dup scale MITERLIMIT
%%IncludeResource: font Helvetica
423.333 /Helvetica STDFONT
%%EndPageSetup
50 setlinewidth L0 0.000 0.000 0.000 setrgbcolor 2664 1690 M 14317 0 R D
2664 1690 M 0 203 R D gsave 2664 1056 translate 0 0 M 1.2 dup scale
-117.687 0 N
(0) show grestore 6243 1690 M 0 203 R D gsave 6243 1056 translate 0 0 M
1.2 dup scale -353.06 0 N
(100) show grestore 9822 1690 M 0 203 R D gsave 9822 1056 translate 0 0 M
1.2 dup scale -353.06 0 N
(200) show grestore 13402 1690 M 0 203 R D gsave 13402 1056 translate 0 0 M
1.2 dup scale -353.06 0 N
(300) show grestore 16981 1690 M 0 203 R D gsave 16981 1056 translate 0 0 M
1.2 dup scale -353.06 0 N
(400) show grestore 3022 1690 M 0 101 R D 3380 1690 M 0 101 R D 3738 1690 M
0 101 R D 4096 1690 M 0 101 R D 4454 1690 M 0 101 R D 4812 1690 M 0 101 R D
5170 1690 M 0 101 R D 5527 1690 M 0 101 R D 5885 1690 M 0 101 R D
6601 1690 M 0 101 R D 6959 1690 M 0 101 R D 7317 1690 M 0 101 R D
7675 1690 M 0 101 R D 8033 1690 M 0 101 R D 8391 1690 M 0 101 R D
8749 1690 M 0 101 R D 9107 1690 M 0 101 R D 9465 1690 M 0 101 R D
10180 1690 M 0 101 R D 10538 1690 M 0 101 R D 10896 1690 M 0 101 R D
11254 1690 M 0 101 R D 11612 1690 M 0 101 R D 11970 1690 M 0 101 R D
12328 1690 M 0 101 R D 12686 1690 M 0 101 R D 13044 1690 M 0 101 R D
13760 1690 M 0 101 R D 14118 1690 M 0 101 R D 14475 1690 M 0 101 R D
14833 1690 M 0 101 R D 15191 1690 M 0 101 R D 15549 1690 M 0 101 R D
15907 1690 M 0 101 R D 16265 1690 M 0 101 R D 16623 1690 M 0 101 R D
gsave 9822 507 translate 0 0 M 1.2 dup scale -1376.26 0 N
(R.A. \(degrees\)) show grestore 2664 11855 M 14317 0 R D 2664 11855 M
0 -203 R D 6243 11855 M 0 -203 R D 9822 11855 M 0 -203 R D 13402 11855 M
0 -203 R D 16981 11855 M 0 -203 R D 3022 11855 M 0 -101 R D 3380 11855 M
0 -101 R D 3738 11855 M 0 -101 R D 4096 11855 M 0 -101 R D 4454 11855 M
0 -101 R D 4812 11855 M 0 -101 R D 5170 11855 M 0 -101 R D 5527 11855 M
0 -101 R D 5885 11855 M 0 -101 R D 6601 11855 M 0 -101 R D 6959 11855 M
0 -101 R D 7317 11855 M 0 -101 R D 7675 11855 M 0 -101 R D 8033 11855 M
0 -101 R D 8391 11855 M 0 -101 R D 8749 11855 M 0 -101 R D 9107 11855 M
0 -101 R D 9465 11855 M 0 -101 R D 10180 11855 M 0 -101 R D 10538 11855 M
0 -101 R D 10896 11855 M 0 -101 R D 11254 11855 M 0 -101 R D 11612 11855 M
0 -101 R D 11970 11855 M 0 -101 R D 12328 11855 M 0 -101 R D 12686 11855 M
0 -101 R D 13044 11855 M 0 -101 R D 13760 11855 M 0 -101 R D 14118 11855 M
0 -101 R D 14475 11855 M 0 -101 R D 14833 11855 M 0 -101 R D 15191 11855 M
0 -101 R D 15549 11855 M 0 -101 R D 15907 11855 M 0 -101 R D 16265 11855 M
0 -101 R D 16623 11855 M 0 -101 R D 2664 1690 M 0 10165 R D 2664 1690 M
286 0 R D gsave 2531 1690 translate 0 0 M 1.2 dup scale -847.09 0 N
(-100) show grestore 2664 5078 M 286 0 R D gsave 2531 4909 translate 0 0 M
1.2 dup scale -611.717 0 N
(-50) show grestore 2664 8467 M 286 0 R D gsave 2531 8298 translate 0 0 M
1.2 dup scale -235.373 0 N
(0) show grestore 2664 11855 M 286 0 R D gsave 2531 11560 translate 0 0 M
1.2 dup scale -470.747 0 N
(50) show grestore 2664 2367 M 143 0 R D 2664 3045 M 143 0 R D 2664 3723 M
143 0 R D 2664 4400 M 143 0 R D 2664 5756 M 143 0 R D 2664 6434 M 143 0 R D
2664 7111 M 143 0 R D 2664 7789 M 143 0 R D 2664 9144 M 143 0 R D
2664 9822 M 143 0 R D 2664 10500 M 143 0 R D 2664 11178 M 143 0 R D
gsave 1115 6772 translate 0 0 M 90 rotate 1.2 dup scale -1446.74 0 N
(Decl. \(degrees\)) show grestore 16981 1690 M 0 10165 R D 16981 1690 M
-286 0 R D 16981 5078 M -286 0 R D 16981 8467 M -286 0 R D 16981 11855 M
-286 0 R D 16981 2367 M -143 0 R D 16981 3045 M -143 0 R D 16981 3723 M
-143 0 R D 16981 4400 M -143 0 R D 16981 5756 M -143 0 R D 16981 6434 M
-143 0 R D 16981 7111 M -143 0 R D 16981 7789 M -143 0 R D 16981 9144 M
-143 0 R D 16981 9822 M -143 0 R D 16981 10500 M -143 0 R D 16981 11178 M
-143 0 R D 2892 6901 M -2 21 R -4 22 R -7 20 R -10 20 R -12 18 R -14 16 R
-16 15 R -19 12 R -19 10 R -21 7 R -21 4 R -22 1 R -21 -1 R -22 -4 R
-18 -7 R 0 -309 R 18 -6 R 22 -4 R 21 -2 R 22 2 R 21 4 R 21 7 R 19 10 R
19 12 R 16 14 R 14 16 R 12 18 R 10 20 R 7 21 R 4 21 R 2 22 R F
4060 10415 M -1 21 R -5 22 R -7 20 R -9 20 R -12 18 R -15 16 R -16 15 R
-18 12 R -20 9 R -20 7 R -22 5 R -21 1 R -22 -1 R -21 -5 R -21 -7 R -20 -9 R
-18 -12 R -16 -15 R -14 -16 R -13 -18 R -9 -20 R -7 -20 R -4 -22 R -2 -21 R
2 -22 R 4 -22 R 7 -20 R 9 -20 R 13 -18 R 14 -16 R 16 -15 R 18 -12 R 20 -9 R
21 -7 R 21 -4 R 22 -2 R 21 2 R 22 4 R 20 7 R 20 9 R 18 12 R 16 15 R 15 16 R
12 18 R 9 20 R 7 20 R 5 22 R 1 22 R F
4060 10415 M -1 22 R -4 21 R -7 21 R -10 19 R -12 18 R -15 17 R -16 14 R
-18 12 R -20 10 R -20 7 R -22 4 R -21 1 R -22 -1 R -21 -4 R -21 -7 R
-20 -10 R -18 -12 R -16 -14 R -14 -17 R -12 -18 R -10 -19 R -7 -21 R
-4 -21 R -2 -22 R 2 -22 R 4 -21 R 7 -21 R 10 -19 R 12 -19 R 14 -16 R
16 -14 R 18 -12 R 20 -10 R 21 -7 R 21 -4 R 22 -2 R 21 2 R 22 4 R 20 7 R
20 10 R 18 12 R 16 14 R 15 16 R 12 19 R 10 19 R 7 21 R 4 21 R 1 22 R F
4150 10566 M -1 22 R -4 21 R -7 21 R -10 19 R -12 18 R -14 17 R -17 14 R
-18 12 R -19 10 R -21 7 R -21 4 R -22 1 R -22 -1 R -21 -4 R -21 -7 R
-19 -10 R -19 -12 R -16 -14 R -14 -17 R -12 -18 R -10 -19 R -7 -21 R
-4 -21 R -2 -22 R 2 -22 R 4 -21 R 7 -21 R 10 -19 R 12 -19 R 14 -16 R
16 -14 R 19 -12 R 19 -10 R 21 -7 R 21 -4 R 22 -2 R 22 2 R 21 4 R 21 7 R
19 10 R 18 12 R 17 14 R 14 16 R 12 19 R 10 19 R 7 21 R 4 21 R 1 22 R F
4275 8873 M -1 21 R -5 22 R -7 20 R -9 20 R -12 18 R -15 16 R -16 15 R
-18 12 R -20 9 R -20 7 R -22 5 R -21 1 R -22 -1 R -22 -5 R -20 -7 R -20 -9 R
-18 -12 R -16 -15 R -15 -16 R -12 -18 R -9 -20 R -7 -20 R -5 -22 R -1 -21 R
1 -22 R 5 -22 R 7 -20 R 9 -20 R 12 -18 R 15 -16 R 16 -15 R 18 -12 R 20 -9 R
20 -7 R 22 -4 R 22 -2 R 21 2 R 22 4 R 20 7 R 20 9 R 18 12 R 16 15 R 15 16 R
12 18 R 9 20 R 7 20 R 5 22 R 1 22 R F
5315 8299 M -2 22 R -4 21 R -7 21 R -10 19 R -12 18 R -14 17 R -17 14 R
-18 12 R -19 10 R -21 7 R -21 4 R -22 2 R -22 -2 R -21 -4 R -21 -7 R
-19 -10 R -18 -12 R -17 -14 R -14 -17 R -12 -18 R -10 -19 R -7 -21 R
-4 -21 R -1 -22 R 1 -22 R 4 -21 R 7 -21 R 10 -19 R 12 -18 R 14 -17 R
17 -14 R 18 -12 R 19 -10 R 21 -7 R 21 -4 R 22 -1 R 22 1 R 21 4 R 21 7 R
19 10 R 18 12 R 17 14 R 14 17 R 12 18 R 10 19 R 7 21 R 4 21 R 2 22 R F
5522 4586 M -1 22 R -5 21 R -7 21 R -9 20 R -12 18 R -15 16 R -16 14 R
-18 13 R -20 9 R -20 7 R -22 4 R -21 2 R -22 -2 R -22 -4 R -20 -7 R -20 -9 R
-18 -13 R -16 -14 R -15 -16 R -12 -18 R -9 -20 R -7 -21 R -5 -21 R -1 -22 R
1 -21 R 5 -22 R 7 -20 R 9 -20 R 12 -18 R 15 -16 R 16 -15 R 18 -12 R 20 -9 R
20 -7 R 22 -5 R 22 -1 R 21 1 R 22 5 R 20 7 R 20 9 R 18 12 R 16 15 R 15 16 R
12 18 R 9 20 R 7 20 R 5 22 R 1 21 R F
5533 9143 M -2 22 R -4 21 R -7 21 R -10 20 R -12 18 R -14 16 R -16 14 R
-19 12 R -19 10 R -21 7 R -21 4 R -22 2 R -22 -2 R -21 -4 R -21 -7 R
-19 -10 R -18 -12 R -17 -14 R -14 -16 R -12 -18 R -10 -20 R -7 -21 R
-4 -21 R -1 -22 R 1 -21 R 4 -22 R 7 -20 R 10 -20 R 12 -18 R 14 -16 R
17 -15 R 18 -12 R 19 -10 R 21 -7 R 21 -4 R 22 -1 R 22 1 R 21 4 R 21 7 R
19 10 R 19 12 R 16 15 R 14 16 R 12 18 R 10 20 R 7 20 R 4 22 R 2 21 R F
5938 5006 M -1 22 R -5 21 R -7 21 R -9 19 R -12 18 R -15 17 R -16 14 R
-18 12 R -20 10 R -20 7 R -22 4 R -21 1 R -22 -1 R -22 -4 R -20 -7 R
-20 -10 R -18 -12 R -16 -14 R -15 -17 R -12 -18 R -9 -19 R -7 -21 R -4 -21 R
-2 -22 R 2 -22 R 4 -21 R 7 -21 R 9 -19 R 12 -18 R 15 -17 R 16 -14 R 18 -12 R
20 -10 R 21 -7 R 21 -4 R 22 -2 R 21 2 R 22 4 R 20 7 R 20 10 R 18 12 R
16 14 R 15 17 R 12 18 R 9 19 R 7 21 R 5 21 R 1 22 R F
6217 3584 M -1 22 R -5 21 R -7 21 R -9 19 R -12 19 R -15 16 R -16 14 R
-18 12 R -20 10 R -20 7 R -22 4 R -21 2 R -22 -2 R -21 -4 R -21 -7 R
-20 -10 R -18 -12 R -16 -14 R -14 -16 R -13 -19 R -9 -19 R -7 -21 R -4 -21 R
-2 -22 R 2 -22 R 4 -21 R 7 -21 R 9 -19 R 13 -18 R 14 -17 R 16 -14 R 18 -12 R
20 -10 R 21 -7 R 21 -4 R 22 -1 R 21 1 R 22 4 R 20 7 R 20 10 R 18 12 R
16 14 R 15 17 R 12 18 R 9 19 R 7 21 R 5 21 R 1 22 R F
11232 4556 M -1 22 R -4 21 R -7 21 R -10 19 R -12 18 R -14 17 R -17 14 R
-18 12 R -19 10 R -21 7 R -21 4 R -22 1 R -22 -1 R -21 -4 R -21 -7 R
-19 -10 R -18 -12 R -17 -14 R -14 -17 R -12 -18 R -10 -19 R -7 -21 R
-4 -21 R -2 -22 R 2 -22 R 4 -21 R 7 -21 R 10 -19 R 12 -18 R 14 -17 R
17 -14 R 18 -12 R 19 -10 R 21 -7 R 21 -4 R 22 -2 R 22 2 R 21 4 R 21 7 R
19 10 R 18 12 R 17 14 R 14 17 R 12 18 R 10 19 R 7 21 R 4 21 R 1 22 R F
11584 6528 M -1 21 R -4 22 R -7 20 R -10 20 R -12 18 R -14 16 R -17 15 R
-18 12 R -19 9 R -21 7 R -21 5 R -22 1 R -22 -1 R -21 -5 R -21 -7 R -19 -9 R
-18 -12 R -17 -15 R -14 -16 R -12 -18 R -10 -20 R -7 -20 R -4 -22 R -2 -21 R
2 -22 R 4 -22 R 7 -20 R 10 -20 R 12 -18 R 14 -16 R 17 -15 R 18 -12 R 19 -9 R
21 -7 R 21 -5 R 22 -1 R 22 1 R 21 5 R 21 7 R 19 9 R 18 12 R 17 15 R 14 16 R
12 18 R 10 20 R 7 20 R 4 22 R 1 22 R F
12113 3929 M -1 22 R -4 22 R -7 20 R -10 20 R -12 18 R -14 16 R -17 15 R
-18 12 R -19 9 R -21 7 R -21 5 R -22 1 R -22 -1 R -21 -5 R -21 -7 R -19 -9 R
-18 -12 R -17 -15 R -14 -16 R -12 -18 R -10 -20 R -7 -20 R -4 -22 R -2 -22 R
2 -21 R 4 -22 R 7 -20 R 10 -20 R 12 -18 R 14 -16 R 17 -15 R 18 -12 R 19 -9 R
21 -7 R 21 -5 R 22 -1 R 22 1 R 21 5 R 21 7 R 19 9 R 18 12 R 17 15 R 14 16 R
12 18 R 10 20 R 7 20 R 4 22 R 1 21 R F
12522 4966 M -2 22 R -4 22 R -7 20 R -10 20 R -12 18 R -14 16 R -16 15 R
-18 12 R -20 9 R -21 7 R -21 5 R -22 1 R -21 -1 R -22 -5 R -20 -7 R -20 -9 R
-18 -12 R -16 -15 R -15 -16 R -12 -18 R -10 -20 R -7 -20 R -4 -22 R -1 -22 R
1 -21 R 4 -22 R 7 -20 R 10 -20 R 12 -18 R 15 -16 R 16 -15 R 18 -12 R 20 -9 R
20 -7 R 22 -5 R 21 -1 R 22 1 R 21 5 R 21 7 R 20 9 R 18 12 R 16 15 R 14 16 R
12 18 R 10 20 R 7 20 R 4 22 R 2 21 R F
12901 4070 M -1 22 R -5 21 R -7 21 R -9 20 R -12 18 R -15 16 R -16 14 R
-18 13 R -20 9 R -20 7 R -22 4 R -21 2 R -22 -2 R -21 -4 R -21 -7 R -20 -9 R
-18 -13 R -16 -14 R -14 -16 R -13 -18 R -9 -20 R -7 -21 R -4 -21 R -2 -22 R
2 -21 R 4 -22 R 7 -20 R 9 -20 R 13 -18 R 14 -16 R 16 -15 R 18 -12 R 20 -9 R
21 -7 R 21 -5 R 22 -1 R 21 1 R 22 5 R 20 7 R 20 9 R 18 12 R 16 15 R 15 16 R
12 18 R 9 20 R 7 20 R 5 22 R 1 21 R F
12970 5066 M -2 22 R -4 21 R -7 21 R -10 19 R -12 18 R -14 17 R -17 14 R
-18 12 R -19 10 R -21 7 R -21 4 R -22 1 R -22 -1 R -21 -4 R -21 -7 R
-19 -10 R -18 -12 R -17 -14 R -14 -17 R -12 -18 R -10 -19 R -7 -21 R
-4 -21 R -1 -22 R 1 -22 R 4 -21 R 7 -21 R 10 -19 R 12 -18 R 14 -17 R
17 -14 R 18 -12 R 19 -10 R 21 -7 R 21 -4 R 22 -2 R 22 2 R 21 4 R 21 7 R
19 10 R 18 12 R 17 14 R 14 17 R 12 18 R 10 19 R 7 21 R 4 21 R 2 22 R F
13236 4778 M -2 22 R -4 21 R -7 21 R -10 20 R -12 18 R -14 16 R -16 14 R
-18 13 R -20 9 R -21 7 R -21 4 R -22 2 R -21 -2 R -22 -4 R -20 -7 R -20 -9 R
-18 -13 R -16 -14 R -15 -16 R -12 -18 R -10 -20 R -7 -21 R -4 -21 R -1 -22 R
1 -21 R 4 -22 R 7 -20 R 10 -20 R 12 -18 R 15 -16 R 16 -15 R 18 -12 R 20 -9 R
20 -7 R 22 -5 R 21 -1 R 22 1 R 21 5 R 21 7 R 20 9 R 18 12 R 16 15 R 14 16 R
12 18 R 10 20 R 7 20 R 4 22 R 2 21 R F
13237 4771 M -1 21 R -5 22 R -7 20 R -9 20 R -12 18 R -15 16 R -16 15 R
-18 12 R -20 9 R -20 7 R -22 5 R -22 1 R -21 -1 R -22 -5 R -20 -7 R -20 -9 R
-18 -12 R -16 -15 R -15 -16 R -12 -18 R -9 -20 R -7 -20 R -5 -22 R -1 -21 R
1 -22 R 5 -21 R 7 -21 R 9 -20 R 12 -18 R 15 -16 R 16 -14 R 18 -13 R 20 -9 R
20 -7 R 22 -4 R 21 -2 R 22 2 R 22 4 R 20 7 R 20 9 R 18 13 R 16 14 R 15 16 R
12 18 R 9 20 R 7 21 R 5 21 R 1 22 R F
13943 6269 M -2 21 R -4 22 R -7 20 R -10 20 R -12 18 R -14 16 R -16 15 R
-19 12 R -19 9 R -21 7 R -21 5 R -22 1 R -22 -1 R -21 -5 R -21 -7 R -19 -9 R
-18 -12 R -17 -15 R -14 -16 R -12 -18 R -10 -20 R -7 -20 R -4 -22 R -1 -21 R
1 -22 R 4 -21 R 7 -21 R 10 -20 R 12 -18 R 14 -16 R 17 -14 R 18 -13 R 19 -9 R
21 -7 R 21 -4 R 22 -2 R 22 2 R 21 4 R 21 7 R 19 9 R 19 13 R 16 14 R 14 16 R
12 18 R 10 20 R 7 21 R 4 21 R 2 22 R F
13972 6343 M -1 22 R -4 21 R -7 21 R -10 19 R -12 18 R -15 17 R -16 14 R
-18 12 R -20 10 R -20 7 R -22 4 R -21 1 R -22 -1 R -21 -4 R -21 -7 R
-20 -10 R -18 -12 R -16 -14 R -14 -17 R -12 -18 R -10 -19 R -7 -21 R
-4 -21 R -2 -22 R 2 -22 R 4 -21 R 7 -21 R 10 -19 R 12 -19 R 14 -16 R
16 -14 R 18 -12 R 20 -10 R 21 -7 R 21 -4 R 22 -2 R 21 2 R 22 4 R 20 7 R
20 10 R 18 12 R 16 14 R 15 16 R 12 19 R 10 19 R 7 21 R 4 21 R 1 22 R F
14067 7307 M -1 22 R -4 21 R -7 21 R -10 19 R -12 18 R -14 17 R -17 14 R
-18 12 R -19 10 R -21 7 R -21 4 R -22 1 R -22 -1 R -21 -4 R -21 -7 R
-19 -10 R -18 -12 R -17 -14 R -14 -17 R -12 -18 R -10 -19 R -7 -21 R
-4 -21 R -2 -22 R 2 -22 R 4 -21 R 7 -21 R 10 -19 R 12 -18 R 14 -17 R
17 -14 R 18 -12 R 19 -10 R 21 -7 R 21 -4 R 22 -2 R 22 2 R 21 4 R 21 7 R
19 10 R 18 12 R 17 14 R 14 17 R 12 18 R 10 19 R 7 21 R 4 21 R 1 22 R F
15044 6213 M -1 22 R -4 21 R -7 21 R -10 20 R -12 18 R -14 16 R -17 14 R
-18 13 R -19 9 R -21 7 R -21 4 R -22 2 R -22 -2 R -21 -4 R -21 -7 R -19 -9 R
-19 -13 R -16 -14 R -14 -16 R -12 -18 R -10 -20 R -7 -21 R -4 -21 R -2 -22 R
2 -21 R 4 -22 R 7 -20 R 10 -20 R 12 -18 R 14 -16 R 16 -15 R 19 -12 R 19 -9 R
21 -7 R 21 -5 R 22 -1 R 22 1 R 21 5 R 21 7 R 19 9 R 18 12 R 17 15 R 14 16 R
12 18 R 10 20 R 7 20 R 4 22 R 1 21 R F
2725 6901 M 216 -198 R D 2821 6610 M 202 222 R 91 -286 R -293 64 R F
3894 10415 M 248 -323 R D 4007 10021 M 238 183 R 39 -297 R -277 114 R F
3894 10415 M 242 -351 R D 3998 10000 M 247 170 R 24 -299 R -271 129 R F
3984 10566 M 198 -328 R D 4041 10182 M 256 156 R 7 -300 R -263 144 R F
4109 8873 M 179 -261 R D 4149 8548 M 248 170 R 23 -299 R -271 129 R F
5148 8299 M 96 -265 R D 5094 8007 M 282 103 R -52 -296 R -230 193 R F
5356 4586 M 84 334 R D 5579 4858 M -291 73 R 209 216 R 82 -289 R F
5366 9143 M 28 -327 R D 5243 8829 M 299 26 R -128 -272 R -171 246 R F
5772 5006 M 11 392 R D 5932 5368 M -300 8 R 158 256 R 142 -264 R F
6051 3584 M -15 342 R D 6187 3907 M -300 -14 R 138 266 R 162 -252 R F
11066 4556 M -154 -573 R D 10774 4048 M 290 -78 R -213 -212 R -77 290 R F
11418 6528 M -86 -530 R D 11188 6048 M 296 -48 R -190 -232 R -106 280 R F
11947 3929 M -67 -798 R D 11732 3170 M 299 -25 R -171 -247 R -128 272 R F
12355 4966 M 11 -417 R D 12215 4571 M 300 8 R -144 -264 R -156 256 R F
12735 4070 M 102 -893 R D 12685 3186 M 298 34 R -120 -275 R -178 241 R F
12803 5066 M 44 -397 R D 12695 4678 M 299 33 R -121 -275 R -178 242 R F
13069 4778 M 64 -392 R D 12981 4388 M 296 48 R -106 -280 R -190 232 R F
13070 4771 M 60 -385 R D 12978 4388 M 296 46 R -108 -279 R -188 233 R F
13776 6269 M 991 -2536 R D 14617 3703 M 280 109 R -45 -296 R -235 187 R F
13806 6343 M 1024 -2499 R D 14682 3811 M 277 114 R -40 -298 R -237 184 R F
13901 7307 M 130 -264 R D 13885 7000 M 269 133 R -19 -299 R -250 166 R F
14878 6213 M 568 -740 R D 15311 5402 M 238 183 R 39 -298 R -277 115 R F
13402 9822 M 0 -519 R D 13252 9329 M 300 0 R -150 -260 R -150 260 R F
gsave 13455 9619 translate 0 0 M 1.2 dup scale
(100 mas) show grestore
%%PageTrailer
end
%%PageResources: font Helvetica
%%Trailer
%%Pages: 1
%%DocumentNeededResources: font Helvetica
%%EOF
