ra dec
0.9261666667	-28.37805556
1.708333333	-23.1075
1.927666667	60.38175
2.970958333	22.98466667
3.238208333	50.98813889
3.992	-16.61608333
4.060666667	19.86072222
4.34804	-66.75344
5.490875	49.21055556
6.95929	-32.55167
6.95979	-32.55661
7.05975	-32.46544
7.224666667	50.37583333
8.53475	25.397361
8.53475	25.397361
8.53512	25.39717
8.770333333	59.88555556
12.63829	24.81692
13.700125	27.51766667
15.92542	40.85439
15.92545833	40.85438889
15.92545833	40.85438889
18.146	17.06547
18.36737	-38.35067
20.518167	-33.617556
20.51837	-33.61767
20.71221	-24.66403
21.11533333	-33.91905556
21.11579167	-33.91866667
21.12754167	-33.91708333
22.302375	48.32652778
23.80804	-7.21436
23.80804167	-7.214388889
24.22983	-6.79386
24.229875	-6.793861111
24.3465	26.953667
24.34675	26.95331
24.413958	18.592528
27.17029	-48.51442
27.613	-18.86
28.07625	-59.838
28.4615	-14.99731
28.51112	-40.67889
29.55670833	48.73880556
29.801625	3.519222222
29.80254167	3.519833333
29.84791667	58.52116667
30.05321	-8.681
31.22154	-53.77117
31.78275	-18.16881
32.22333333	49.44905556
33.063895	23.958569
33.9955	-9.48669
34.35291667	28.74194444
34.355	28.74527778
34.48337	12.42406
34.65229167	12.31611111
34.75954167	23.88197222
35.68408	-60.37989
35.860708	22.735528
36.866867	30.977925
36.86708333	30.97805556
36.87189361	30.97350374
36.87208333	30.97361111
36.90525	47.16791667
37.634792	-43.706444
37.63496	-43.70644
37.913625	44.94411111
38.49933	-18.19792
39.183875	22.67402778
39.21546	-52.051
39.82229167	7.471388889
40.3575	5.988611111
40.35786794	5.9884503
40.44512	-52.99786
40.44708	-52.99183
40.587083	38.622823
40.588569	38.618918
40.63754	-57.66019
42.21917	-34.0735
42.74829	-34.15139
44.19617	-63.71742
45.90283	-25.59247
46.29067	-37.41828
47.801248	22.423307
47.807544	22.416156
48.907625	37.40397222
49.786	-35.11672
49.86970833	61.93461111
50.63191667	28.97477778
51.06267	-59.02014
51.169	-39.07297
52.98183	-43.98708
53.14908	28.73206
53.305983	46.257787
53.75870833	23.70988889
55.632625	12.27294444
56.41908	-75.15336
56.84720833	-1.972083333
57.43020833	24.31797222
57.43896	-67.50972
61.672974	1.684138
61.79783	-29.3095
62.11187	-78.74642
62.30887	-40.13386
63.35733333	-1.661583333
63.57208	-9.11511
63.57208333	-9.115111111
65.41267	-72.56561
66.00392	-55.20619
66.92208333	59.58797222
69.13725	-78.85058
69.23908	-16.21847
69.40041667	-2.473611111
69.40608333	-2.491194444
69.406113	-2.491236
69.40625	-2.491111111
69.55233333	28.21669444
70.096875	-5.502305556
70.98692	37.38425
70.986958	37.38425
71.00412	-66.401
71.03395833	14.02302778
71.27341667	43.4095
71.70708	-60.56969
71.715625	-11.27988889
71.846375	-27.84327778
72.00275	-50.69042
72.37279167	48.47941667
72.75575	31.45663889
72.97096	-46.79192
73.101417	-16.822278
73.10170833	-16.82275
73.10171	-16.82275
73.377083	-55.858889
73.3795	-55.860472
73.91808	-19.29869
74.322	-6.36567
74.895	1.783888889
74.89513118	1.7835214
75.19625	-57.25722222
75.495	9.983333333
77.11371	-21.029
77.26483	-42.15553
77.29154167	15.45902778
77.51779	-23.67797
77.52033	-23.67078
77.79575	-49.06658
78.614	-15.24761
78.61992	-15.2485
79.19108	-54.17133
79.98729	-11.41222
81.04129	-42.38483
81.05487	-21.07853
81.07975	-16.02092
81.42358	-9.15342
81.423625	-9.153416667
81.76958333	-11.90083333
82.57742	-53.98008
83.29708	-29.23886
83.35658	-51.28697
83.43670833	1.945388889
83.49921	-2.35903
84.85437	-42.75586
84.97892	-13.13328
85.73279	-7.31061
85.8615	-30.42025
86.77708	-32.17814
86.82125	-51.06666667
88.30412	-45.08664
88.69058333	10.93252778
89.462375	-13.99730556
89.98204167	58.571
90.096	-44.02269
91.37233333	60.82311111
92.33	-35.82516667
92.87487	-72.22744
93.30542	-27.7015
93.43912	-23.86881
94.6175	-72.045
95.91767	-75.07575
97.75483333	50.04683333
100.93883	-64.411
102.9959167	3.215361111
104.4876667	62.32213889
106.7405	-53.89619
110.931625	20.41630556
112.2140833	-30.24697222
112.9889583	36.22994444
114.623	24.00244444
118.0995833	16.20436111
118.1385	-64.60856
118.52992	-63.33747
119.3631667	12.02425
120.7924167	20.37097222
122.16362	-36.08381
124.41429	-82.72494
125.69767	-57.44806
130.1239583	18.40255556
130.35533	-57.60058
131.82942	-57.29853
132.151875	-13.88566667
135.85142	-63.80917
139.436375	46.20686111
142.99333	-62.15717
143.30946	-48.80919
145.65929	-62.48411
146.22592	-12.34844
147.2091667	15.64580556
147.7691667	35.96938889
149.8283333	43.84044444
151.0895417	50.38711111
153.03783	-31.41253
153.53362	-76.60908
153.5799583	21.07494444
153.633125	6.111388889
154.61958	-31.83414
154.9014583	19.87005556
155.183625	8.239833333
156.33717	-42.69831
156.35679	-49.31081
159.1868333	15.36097222
160.62546	-33.67117
160.625466	-33.671169
162.8358333	36.12377778
165.7916667	36.65236111
165.8385417	13.63252778
167.31692	-73.87958
167.61617	-37.53111
167.9656667	33.53644444
168.2525	10.41830556
168.35925	-45.39519
168.9751667	55.33072222
170.27292	-38.75453
170.321746	-34.779297
170.32179	-34.77928
170.322692	-34.780508
170.32271	-34.78047
171.018125	38.13636111
171.44808	-44.17408
172.98025	-34.60756
173.07629	-30.33106
173.1715	-26.86917
173.17187	-26.86553
177.098883	-37.480139
177.100929	-37.480314
177.147875	7.694555556
177.38267	-78.85031
181.86408	-32.78342
181.86408	-32.78339
182.37492	-75.09444
183.0473333	48.81755556
183.826875	-2.624278
183.878	-39.81183
184.26937	-57.73217
187.2620833	41.73047222
187.3630417	22.99630556
187.90862	-45.98314
188.73454	-45.63542
188.76767	-41.61069
189.002312	-39.871025
189.65471	-27.05967
190.447375	56.75383333
194.4139583	35.22208333
194.4179167	35.22516667
195.5244583	12.37266667
195.5244583	12.37266667
197.395625	28.98516667
201.8319583	-31.17761111
202.3503333	-14.37008333
205.36117	-43.69783
208.72458	-71.36322
215.4793333	-31.43158333
216.37137	-41.22564
221.1170833	-4.402166667
227.2837083	59.07386111
230.4705	20.97763889
231.20204	-49.49647
233.4609167	25.16961111
234.7366667	-57.70527778
234.74	-57.70722222
235.952	25.87713889
238.4255	-20.8245
238.8824167	35.20080556
238.88242	35.20078
241.92217	-11.05203
247.5752418	-12.66258979
252.7914583	35.91863889
254.33454	-53.72544
255.970125	32.196
256.88875	43.01666667
257.03675	-69.60517
258.28054	-85.86958
258.75912	-33.56106
259.35625	-66.95055556
259.3804167	-66.95166667
259.97075	26.50072222
259.9759167	26.50083333
262.33612	-50.24803
262.4795833	-54.26361111
262.8739583	27.35647222
267.1408333	-53.11194444
270.5691667	64.26238889
270.7641667	-51.64888889
270.7670833	-51.64888889
273.277375	26.03108333
273.54362	-32.79289
273.54375	-32.7925
273.59196	-32.76944
273.5920833	-32.76944444
273.81517	-49.46311
274.9675	-29.27555556
275.09479	-10.18697
278.012125	20.51613889
278.012125	20.51613889
280.52892	-55.90706
280.6944973	59.630409
280.6956938	59.62676309
281.0425	71.48822222
281.0425	71.48822222
281.25404	-14.15147
281.3620833	-64.87083333
281.40375	-64.86333333
281.71896	-62.17683
281.7191667	-62.17666667
282.68533	-31.79644
282.6854167	-31.79638889
283.2745833	-50.18027778
284.51729	-29.88458
284.5175	-29.88472222
287.6175	-23.33017
287.9358333	-26.06916667
288.6635833	19.31738889
290.67825	-5.26489
290.71129	-63.18281
290.7454167	-54.53777778
290.90917	-46.10878
291.14558	-34.71089
292.6595833	-13.58566667
292.8514167	-21.57294444
292.85142	-21.57294
293.8717917	37.76894444
295.5534167	-20.76327778
297.566375	31.78330556
299.01225	-32.12183
299.01825	-32.12711
300.132375	59.35805556
300.40492	-33.22053
302.50008	-28.02806
304.14092	-7.196
308.40662	-25.94781
309.977292	6.336861
309.9775	6.33661
310.4629167	-32.43527778
310.4629167	-32.43611111
310.463112	-32.436172
310.46315	-32.435161
310.92142	-24.56483
310.9214583	-24.56486111
310.9214583	-24.56486111
311.2895833	-31.34083333
311.2897145	-31.3409007
311.6817083	-11.80366667
311.74146	-2.99222
313.2879167	-1.551111111
313.3110417	-2.356083333
313.94875	-17.11416667
314.01125	-17.18166667
314.01142	-17.18161
317.52229	-19.33258
317.63112	-27.18272
318.27192	-17.48683
319.0157917	29.86277778
319.0240417	29.86419444
320.36971	-66.91842
324.28687	-60.6015
326.67842	-85.71794
326.83183	-48.05461
327.27079	-64.21775
328.0433333	5.626583333
330.56775	-42.17581
333.5735833	25.5685
335.870579	32.459942
338.34433	-9.61492
338.344375	-9.614944444
338.344375	-9.614944444
338.6734167	40.69411111
340.7035	13.51478
340.703625	13.514694
340.703625	13.514694
340.704	-71.70586
340.7041667	-71.70583333
341.03637	-54.22175
341.24125	-33.25055556
341.2414167	-33.25044444
341.2415261	-33.25047583
341.25	-33.25722222
341.25021	-33.25717
341.7072155	44.33398802
341.7075417	44.33419444
341.785792	-69.345556
341.9068333	40.69038889
342.972875	31.75425
344.5684583	-11.07141667
346.520125	63.92611111
348.31962	-49.55428
348.447	        21.2915
349.9146	42.252882
350.19604	-67.38914
350.24025	-1.793694444
350.24025	-1.79369
351.54454	-73.39717
352.24012	-68.04272
352.3440833	41.4645
352.34775	41.46858333
352.55587	-20.39086
352.93717	-2.74431
353.00075	-39.29356
353.12854	-12.26425
353.12875	-12.26444444
356.0868333	21.60138889
356.34271	-71.44736
356.94558	-65.29025
357.52662	26.99775
357.526625	26.99775
357.84279	23.73908
357.8428333	23.73911111
357.89025	31.45636
357.8902917	31.45638889
358.355	       -70.94472
358.7144583	38.52675
359.4579167	38.62969444
359.5569167	-17.40938889
359.5569167	-17.40938889
359.83275	32.69013889