Z loga	M_ini   	M_act	logL	logTe	logG	mbol    UX       B       V       R       I       J       H       K       L       Lp      M int_inf stage
0.01520 9.0000 0.0900 0.0900 -3.3875 3.3654 5.1934 13.2390 25.5920 21.9590 19.9250 17.2680 14.4590 11.0630 10.4680 10.1620 9.6890 9.3980 9.7410 1.4677 0.0000
0.01520 9.0000 0.1000 0.1000 -3.2230 3.3893 5.1700 12.8270 23.7400 20.5820 18.6460 16.2890 13.7010 10.7110 10.1120 9.8000 9.3700 9.1070 9.3870 1.5704 0.0000
0.01520 9.0000 0.1200 0.1200 -2.9750 3.4228 5.1354 12.2080 21.1010 18.6050 16.8010 14.8650 12.5900 10.1740 9.5680 9.2520 8.8790 8.6550 8.8490 1.7478 0.0000
0.01520 9.0000 0.1230 0.1230 -2.9480 3.4259 5.1314 12.1400 20.8450 18.4110 16.6200 14.7230 12.4770 10.1140 9.5080 9.1910 8.8230 8.6030 8.7890 1.7714 0.0000
0.01520 9.0000 0.1400 0.1400 -2.7939 3.4430 5.1019 11.7550 19.5540 17.3960 15.6810 13.9710 11.8720 9.7690 9.1600 8.8450 8.5050 8.3030 8.4540 1.8959 0.0000
0.01520 9.0000 0.1494 0.1494 -2.7259 3.4495 5.0883 11.5850 19.0600 16.9980 15.3100 13.6670 11.6250 9.6140 9.0040 8.6910 8.3610 8.1660 8.3050 1.9571 1.0000
0.01520 9.0000 0.1600 0.1600 -2.6533 3.4565 5.0734 11.4030 18.5430 16.5810 14.9140 13.3420 11.3680 9.4500 8.8390 8.5280 8.2080 8.0200 8.1440 2.0212 1.0000
0.01520 9.0000 0.2000 0.2000 -2.4381 3.4752 5.0298 10.8650 17.1990 15.4660 13.8580 12.4550 10.6560 8.9570 8.3430 8.0430 7.7490 7.5780 7.6710 2.2218 1.0000
0.01520 9.0000 0.2500 0.2500 -2.2361 3.4916 4.9905 10.3600 16.0900 14.5160 12.9430 11.6630 10.0280 8.4930 7.8760 7.5890 7.3160 7.1610 7.2260 2.4081 1.0000
0.01520 9.0000 0.3000 0.3000 -2.0814 3.5026 4.9589 9.9730 15.3660 13.8770 12.3370 11.1240 9.5790 8.1310 7.5110 7.2340 6.9780 6.8310 6.8900 2.5475 1.0000
0.01520 9.0000 0.3136 0.3136 -2.0345 3.5051 4.9411 9.8560 15.1730 13.7050 12.1730 10.9750 9.4500 8.0200 7.3980 7.1240 6.8710 6.7270 6.7840 2.5795 1.0000
0.01520 9.0000 0.3500 0.3500 -1.9270 3.5121 4.9093 9.5870 14.7100 13.2880 11.7780 10.6180 9.1470 7.7670 7.1420 6.8750 6.6320 6.4940 6.5490 2.6555 0.0000
0.01520 9.0000 0.3570 0.3570 -1.9050 3.5137 4.9025 9.5330 14.6140 13.2010 11.6960 10.5440 9.0850 7.7170 7.0900 6.8250 6.5850 6.4480 6.5020 2.6686 0.0000
0.01520 9.0000 0.4000 0.4000 -1.7802 3.5231 4.8648 9.2210 14.0800 12.7120 11.2310 10.1230 8.7340 7.4270 6.7940 6.5380 6.3120 6.1840 6.2370 2.7413 0.0000
0.01520 9.0000 0.4500 0.4500 -1.6307 3.5353 4.8152 8.8470 13.4660 12.1350 10.6830 9.6240 8.3190 7.0830 6.4410 6.1970 5.9870 5.8720 5.9280 2.8110 0.0000
0.01520 9.0000 0.5000 0.5000 -1.4755 3.5499 4.7639 8.4590 12.8450 11.5340 10.1090 9.0990 7.8900 6.7320 6.0780 5.8470 5.6530 5.5560 5.6210 2.8685 0.0000
0.01520 9.0000 0.5132 0.5132 -1.4315 3.5550 4.7519 8.3490 12.6650 11.3540 9.9360 8.9400 7.7670 6.6360 5.9780 5.7520 5.5630 5.4730 5.5400 2.8820 0.0000
0.01520 9.0000 0.5500 0.5500 -1.3150 3.5684 4.7190 8.0570 12.2050 10.8870 9.4830 8.5210 7.4450 6.3810 5.7140 5.5010 5.3250 5.2530 5.3270 2.9166 0.0000
0.01520 9.0000 0.6000 0.6000 -1.1534 3.5917 4.6882 7.6540 11.5410 10.2040 8.8320 7.9190 7.0060 6.0390 5.3550 5.1730 5.0280 4.9830 5.0710 2.9574 0.0000
0.01520 9.0000 0.6410 0.6410 -1.0212 3.6127 4.6688 7.3230 10.9940 9.6320 8.3140 7.4450 6.6540 5.7580 5.0660 4.9180 4.8090 4.7810 4.8850 2.9864 1.0000
0.01520 9.0000 0.6500 0.6500 -0.9930 3.6174 4.6656 7.2530 10.8720 9.5070 8.2040 7.3450 6.5800 5.6980 5.0070 4.8660 4.7650 4.7390 4.8470 2.9924 1.0000
0.01520 9.0000 0.7000 0.7000 -0.8388 3.6454 4.6555 6.8670 10.0630 8.7600 7.5720 6.7900 6.1750 5.3820 4.7210 4.6180 4.5600 4.5490 4.6670 3.0225 1.0000
0.01520 9.0000 0.7284 0.7284 -0.7539 3.6620 4.6541 6.6550 9.4820 8.3230 7.2170 6.4950 5.9520 5.2170 4.6000 4.5120 4.4660 4.4580 4.5690 3.0379 1.0000
0.01520 9.0000 0.7500 0.7500 -0.6917 3.6742 4.6535 6.4990 9.0440 8.0140 6.9670 6.2950 5.7890 5.0980 4.5210 4.4400 4.3980 4.3910 4.4940 3.0488 1.0000
0.01520 9.0000 0.8000 0.8000 -0.5600 3.6943 4.6304 6.1700 8.2750 7.4600 6.5050 5.9120 5.4550 4.8340 4.3200 4.2480 4.2120 4.2070 4.2960 3.0719 1.0000
0.01520 9.0000 0.8313 0.8312 -0.4805 3.7064 4.6157 5.9710 7.8320 7.1440 6.2400 5.6890 5.2580 4.6770 4.1990 4.1320 4.0990 4.0950 4.1760 3.0849 1.0000
0.01520 9.0000 0.8500 0.8500 -0.4343 3.7135 4.6076 5.8560 7.5810 6.9650 6.0900 5.5630 5.1450 4.5870 4.1290 4.0660 4.0350 4.0300 4.1070 3.0922 1.0000
0.01520 9.0000 0.9000 0.9000 -0.3146 3.7309 4.5824 5.5560 6.9690 6.5270 5.7200 5.2430 4.8560 4.3520 3.9420 3.8860 3.8590 3.8550 3.9210 3.1103 1.0000
0.01520 9.0000 0.9193 0.9193 -0.2697 3.7371 4.5715 5.4440 6.7530 6.3670 5.5860 5.1270 4.7500 4.2650 3.8710 3.8170 3.7930 3.7900 3.8530 3.1167 1.0000
0.01520 9.0000 0.9500 0.9500 -0.2002 3.7467 4.5545 5.2700 6.4250 6.1250 5.3830 4.9480 4.5870 4.1310 3.7600 3.7110 3.6900 3.6880 3.7440 3.1264 1.0000
0.01520 9.0000 0.9567 0.9567 -0.1851 3.7486 4.5503 5.2330 6.3570 6.0730 5.3390 4.9100 4.5520 4.1020 3.7360 3.6870 3.6670 3.6640 3.7190 3.1284 1.0000
0.01520 9.0000 1.0000 0.9999 -0.0901 3.7608 4.5232 4.9950 5.9520 5.7600 5.0720 4.6720 4.3320 3.9150 3.5770 3.5320 3.5160 3.5130 3.5600 3.1408 1.0000
0.01520 9.0000 1.0500 1.0499 0.0163 3.7734 4.4885 4.7290 5.5240 5.4160 4.7810 4.4090 4.0900 3.7080 3.3990 3.3590 3.3470 3.3450 3.3820 3.1538 1.0000
0.01520 9.0000 1.0876 1.0875 0.0939 3.7820 4.4607 4.5350 5.2190 5.1670 4.5730 4.2240 3.9200 3.5600 3.2690 3.2340 3.2240 3.2220 3.2500 3.1627 1.0000
0.01520 9.0000 1.1000 1.0999 0.1192 3.7848 4.4515 4.4720 5.1170 5.0870 4.5070 4.1670 3.8680 3.5140 3.2260 3.1940 3.1840 3.1830 3.2070 3.1655 1.0000
0.01520 9.0000 1.1006 1.1006 0.1205 3.7850 4.4510 4.4690 5.1120 5.0830 4.5040 4.1640 3.8650 3.5110 3.2240 3.1920 3.1820 3.1810 3.2050 3.1657 1.0000
0.01520 9.0000 1.1500 1.1499 0.2183 3.7952 4.4131 4.2240 4.7430 4.7780 4.2500 3.9400 3.6580 3.3260 3.0550 3.0290 3.0220 3.0200 3.0330 3.1762 1.0000
0.01520 9.0000 1.1619 1.1618 0.2415 3.7976 4.4040 4.1660 4.6600 4.7060 4.1900 3.8860 3.6080 3.2810 3.0140 2.9900 2.9840 2.9820 2.9920 3.1786 1.0000
0.01520 9.0000 1.2000 1.1999 0.3143 3.8050 4.3748 3.9840 4.4200 4.4860 4.0010 3.7130 3.4470 3.1380 2.8850 2.8640 2.8580 2.8560 2.8620 3.1859 1.0000
0.01520 9.0000 1.2412 1.2411 0.3896 3.8126 4.3445 3.7960 4.1880 4.2630 3.8060 3.5320 3.2790 2.9880 2.7510 2.7310 2.7270 2.7240 2.7280 3.1932 1.0000
0.01520 9.0000 1.2500 1.2499 0.4055 3.8142 4.3381 3.7560 4.1410 4.2160 3.7650 3.4940 3.2430 2.9560 2.7230 2.7030 2.6990 2.6970 2.7000 3.1947 1.0000
0.01520 9.0000 1.3000 1.2999 0.4918 3.8228 4.3035 3.5410 3.8850 3.9620 3.5430 3.2880 3.0520 2.7850 2.5690 2.5520 2.5480 2.5460 2.5470 3.2028 1.0000
0.01520 9.0000 1.3500 1.3499 0.5741 3.8315 4.2720 3.3350 3.6450 3.7200 3.3300 3.0920 2.8710 2.6240 2.4260 2.4100 2.4070 2.4050 2.4040 3.2102 1.0000
0.01520 9.0000 1.4000 1.3999 0.6525 3.8402 4.2445 3.1390 3.4240 3.4900 3.1280 2.9070 2.7010 2.4740 2.2940 2.2790 2.2770 2.2750 2.2740 3.2171 1.0000
0.01520 9.0000 1.4228 1.4227 0.6872 3.8446 4.2345 3.0520 3.3260 3.3870 3.0390 2.8260 2.6280 2.4110 2.2400 2.2250 2.2240 2.2210 2.2200 3.2200 1.0000
0.01520 9.0000 1.4500 1.4499 0.7278 3.8497 4.2221 2.9500 3.2120 3.2670 2.9340 2.7310 2.5420 2.3360 2.1750 2.1610 2.1600 2.1570 2.1560 3.2234 1.0000
0.01520 9.0000 1.4962 1.4961 0.7951 3.8587 4.2048 2.7820 3.0260 3.0670 2.7610 2.5750 2.4030 2.2170 2.0730 2.0600 2.0600 2.0580 2.0560 3.2287 1.0000
0.01520 9.0000 1.5000 1.4999 0.8005 3.8594 4.2032 2.7690 3.0110 3.0510 2.7470 2.5620 2.3920 2.2070 2.0650 2.0520 2.0510 2.0490 2.0480 3.2292 1.0000
0.01520 9.0000 1.5500 1.5499 0.8699 3.8683 4.1836 2.5950 2.8250 2.8490 2.5690 2.4020 2.2490 2.0830 1.9570 1.9450 1.9450 1.9430 1.9420 3.2346 1.0000
0.01520 9.0000 1.5502 1.5501 0.8702 3.8683 4.1836 2.5950 2.8240 2.8490 2.5680 2.4020 2.2480 2.0820 1.9570 1.9450 1.9450 1.9430 1.9410 3.2346 1.0000
0.01520 9.0000 1.5955 1.5954 0.9311 3.8754 4.1633 2.4420 2.6630 2.6740 2.4130 2.2610 2.1210 1.9690 1.8570 1.8460 1.8460 1.8440 1.8430 3.2391 1.0000
0.01520 9.0000 1.6000 1.5999 0.9371 3.8761 4.1612 2.4270 2.6480 2.6570 2.3980 2.2470 2.1080 1.9580 1.8470 1.8360 1.8360 1.8340 1.8330 3.2396 1.0000
0.01520 9.0000 1.6001 1.6000 0.9373 3.8761 4.1611 2.4270 2.6470 2.6560 2.3970 2.2460 2.1080 1.9580 1.8470 1.8350 1.8360 1.8340 1.8320 3.2396 1.0000
0.01520 9.0000 1.6367 1.6367 0.9853 3.8807 4.1415 2.3070 2.5220 2.5210 2.2750 2.1330 2.0050 1.8640 1.7620 1.7500 1.7510 1.7490 1.7480 3.2430 1.0000
0.01520 9.0000 1.6500 1.6500 1.0027 3.8822 4.1335 2.2630 2.4770 2.4730 2.2310 2.0930 1.9670 1.8290 1.7290 1.7180 1.7190 1.7170 1.7150 3.2442 1.0000
0.01520 9.0000 1.6657 1.6657 1.0232 3.8839 4.1240 2.2120 2.4250 2.4160 2.1790 2.0440 1.9220 1.7880 1.6910 1.6800 1.6810 1.6790 1.6770 3.2456 1.0000
0.01520 9.0000 1.6958 1.6958 1.0622 3.8868 4.1044 2.1150 2.3250 2.3090 2.0810 1.9520 1.8350 1.7070 1.6160 1.6050 1.6050 1.6040 1.6020 3.2482 1.0000
0.01520 9.0000 1.7000 1.7000 1.0677 3.8872 4.1016 2.1010 2.3110 2.2940 2.0670 1.9390 1.8230 1.6950 1.6050 1.5940 1.5940 1.5930 1.5920 3.2486 1.0000
0.01520 9.0000 1.7165 1.7165 1.0889 3.8887 4.0904 2.0480 2.2570 2.2360 2.0130 1.8880 1.7750 1.6510 1.5630 1.5520 1.5530 1.5510 1.5500 3.2499 1.0000
0.01520 9.0000 1.7500 1.7500 1.1319 3.8911 4.0657 1.9400 2.1480 2.1190 1.9040 1.7850 1.6780 1.5580 1.4750 1.4640 1.4640 1.4630 1.4610 3.2526 1.0000
0.01520 9.0000 1.7714 1.7714 1.1593 3.8925 4.0489 1.8720 2.0790 2.0450 1.8350 1.7190 1.6150 1.4970 1.4170 1.4050 1.4060 1.4040 1.4030 3.2543 1.0000
0.01520 9.0000 1.8000 1.8000 1.1958 3.8936 4.0237 1.7810 1.9880 1.9490 1.7430 1.6300 1.5280 1.4130 1.3340 1.3230 1.3230 1.3220 1.3210 3.2564 1.0000
0.01520 9.0000 1.8181 1.8181 1.2189 3.8939 4.0063 1.7230 1.9310 1.8880 1.6850 1.5730 1.4720 1.3570 1.2800 1.2680 1.2680 1.2670 1.2650 3.2577 1.0000
0.01520 9.0000 1.8436 1.8436 1.2515 3.8939 3.9799 1.6410 1.8510 1.8040 1.6020 1.4910 1.3910 1.2760 1.1990 1.1870 1.1870 1.1860 1.1840 3.2595 1.0000
0.01520 9.0000 1.8500 1.8500 1.2596 3.8938 3.9728 1.6210 1.8310 1.7830 1.5820 1.4710 1.3700 1.2550 1.1780 1.1660 1.1660 1.1650 1.1630 3.2599 1.0000
0.01520 9.0000 1.8722 1.8722 1.2877 3.8932 3.9476 1.5510 1.7620 1.7120 1.5100 1.3990 1.2980 1.1810 1.1040 1.0920 1.0920 1.0900 1.0890 3.2614 1.0000
0.01520 9.0000 1.9000 1.9000 1.3224 3.8916 3.9128 1.4640 1.6790 1.6250 1.4210 1.3080 1.2050 1.0850 1.0060 0.9940 0.9930 0.9910 0.9900 3.2632 1.0000
0.01520 9.0000 1.9190 1.9190 1.3460 3.8900 3.8871 1.4050 1.6230 1.5680 1.3610 1.2450 1.1390 1.0170 0.9350 0.9230 0.9220 0.9200 0.9190 3.2644 1.0000
0.01520 9.0000 1.9489 1.9489 1.3829 3.8857 3.8396 1.3130 1.5390 1.4830 1.2670 1.1440 1.0310 0.9000 0.8120 0.7990 0.7970 0.7950 0.7930 3.2663 1.0000
0.01520 9.0000 1.9500 1.9500 1.3843 3.8855 3.8377 1.3090 1.5350 1.4800 1.2640 1.1400 1.0270 0.8950 0.8070 0.7940 0.7920 0.7900 0.7880 3.2664 1.0000
0.01520 9.0000 1.9604 1.9604 1.3969 3.8837 3.8203 1.2780 1.5070 1.4520 1.2310 1.1040 0.9890 0.8530 0.7630 0.7490 0.7470 0.7450 0.7430 3.2670 1.0000
0.01520 9.0000 1.9862 1.9862 1.4277 3.8781 3.7727 1.2010 1.4410 1.3870 1.1530 1.0160 0.8910 0.7440 0.6440 0.6300 0.6280 0.6260 0.6230 3.2685 1.0000
0.01520 9.0000 2.0000 2.0000 1.4437 3.8740 3.7434 1.1610 1.4100 1.3570 1.1130 0.9680 0.8360 0.6810 0.5740 0.5600 0.5570 0.5550 0.5520 3.2693 1.0000
0.01520 9.0000 2.0116 2.0116 1.4574 3.8706 3.7187 1.1270 1.3820 1.3310 1.0780 0.9280 0.7890 0.6270 0.5150 0.5010 0.4970 0.4950 0.4920 3.2699 1.0000
0.01520 9.0000 2.0332 2.0332 1.4820 3.8625 3.6661 1.0650 1.3390 1.2920 1.0180 0.8520 0.6990 0.5200 0.3940 0.3780 0.3740 0.3720 0.3690 3.2711 1.0000
0.01520 9.0000 2.0500 2.0500 1.5008 3.8554 3.6224 1.0180 1.3110 1.2670 0.9720 0.7930 0.6270 0.4340 0.2950 0.2780 0.2730 0.2710 0.2680 3.2720 1.0000
0.01520 9.0000 2.0548 2.0548 1.5061 3.8533 3.6097 1.0050 1.3040 1.2600 0.9600 0.7770 0.6070 0.4090 0.2660 0.2490 0.2440 0.2410 0.2380 3.2723 1.0000
0.01520 9.0000 2.0702 2.0702 1.5230 3.8454 3.5645 0.9620 1.2850 1.2450 0.9220 0.7240 0.5390 0.3240 0.1670 0.1480 0.1420 0.1400 0.1360 3.2731 1.0000
0.01520 9.0000 2.0841 2.0841 1.5392 3.8377 3.5206 0.9220 1.2690 1.2320 0.8860 0.6730 0.4750 0.2420 0.0710 0.0500 0.0440 0.0410 0.0380 3.2738 1.0000
0.01520 9.0000 2.1000 2.1000 1.5629 3.8319 3.4768 0.8630 1.2310 1.1930 0.8300 0.6060 0.3980 0.1520 -0.0310 -0.0520 -0.0590 -0.0620 -0.0650 3.2746 1.0000
0.01520 9.0000 2.1011 2.1011 1.5647 3.8317 3.4743 0.8580 1.2270 1.1890 0.8250 0.6010 0.3930 0.1460 -0.0370 -0.0580 -0.0650 -0.0680 -0.0710 3.2747 1.0000
0.01520 9.0000 2.1085 2.1085 1.5919 3.8391 3.4785 0.7900 1.1360 1.0910 0.7510 0.5420 0.3470 0.1180 -0.0500 -0.0700 -0.0770 -0.0800 -0.0830 3.2750 1.0000
0.01520 9.0000 2.1110 2.1110 1.6127 3.8491 3.4983 0.7380 1.0550 1.0010 0.6920 0.5030 0.3270 0.1200 -0.0280 -0.0480 -0.0540 -0.0560 -0.0590 3.2752 1.0000
0.01520 9.0000 2.1120 2.1120 1.6317 3.8592 3.5197 0.6910 0.9820 0.9170 0.6380 0.4690 0.3130 0.1270 -0.0020 -0.0190 -0.0250 -0.0270 -0.0300 3.2752 1.0000
0.01520 9.0000 2.1126 2.1126 1.6512 3.8692 3.5403 0.6420 0.9110 0.8350 0.5860 0.4370 0.3000 0.1350 0.0240 0.0080 0.0030 0.0010 -0.0030 3.2753 1.0000
0.01520 9.0000 2.1130 2.1130 1.6723 3.8790 3.5587 0.5890 0.8390 0.7510 0.5320 0.4020 0.2840 0.1390 0.0450 0.0290 0.0250 0.0230 0.0200 3.2753 1.0000
0.01520 9.0000 2.1132 2.1132 1.6947 3.8883 3.5733 0.5330 0.7660 0.6670 0.4760 0.3660 0.2650 0.1380 0.0580 0.0440 0.0400 0.0380 0.0360 3.2753 1.0000
0.01520 9.0000 2.1133 2.1133 1.7181 3.8972 3.5857 0.4750 0.6920 0.5840 0.4230 0.3300 0.2430 0.1330 0.0670 0.0530 0.0500 0.0480 0.0460 3.2753 1.0000
0.01520 9.0000 2.1134 2.1134 1.7243 3.9003 3.5918 0.4590 0.6710 0.5610 0.4100 0.3220 0.2410 0.1360 0.0740 0.0610 0.0580 0.0570 0.0540 3.2753 2.0000
0.01520 9.0000 2.1135 2.1135 1.6931 3.8941 3.5982 0.5370 0.7590 0.6570 0.4840 0.3850 0.2930 0.1760 0.1050 0.0920 0.0880 0.0870 0.0840 3.2753 2.0000
0.01520 9.0000 2.1135 2.1135 1.6662 3.8857 3.5916 0.6040 0.8410 0.7480 0.5480 0.4320 0.3250 0.1930 0.1100 0.0950 0.0910 0.0890 0.0870 3.2753 2.0000
0.01520 9.0000 2.1136 2.1136 1.6495 3.8741 3.5619 0.6460 0.9050 0.8250 0.5900 0.4510 0.3230 0.1680 0.0640 0.0490 0.0440 0.0420 0.0390 3.2753 2.0000
0.01520 9.0000 2.1137 2.1137 1.6509 3.8627 3.5149 0.6430 0.9270 0.8560 0.5880 0.4270 0.2770 0.0990 -0.0240 -0.0400 -0.0460 -0.0480 -0.0520 3.2753 2.0000
0.01520 9.0000 2.1138 2.1138 1.6597 3.8512 3.4600 0.6210 0.9350 0.8720 0.5710 0.3870 0.2160 0.0140 -0.1300 -0.1490 -0.1550 -0.1580 -0.1610 3.2753 2.0000
0.01520 9.0000 2.1139 2.1139 1.6667 3.8396 3.4070 0.6030 0.9530 0.8960 0.5610 0.3540 0.1620 -0.0660 -0.2320 -0.2520 -0.2600 -0.2620 -0.2660 3.2753 2.0000
0.01520 9.0000 2.1140 2.1140 1.6697 3.8282 3.3582 0.5960 0.9870 0.9340 0.5620 0.3330 0.1200 -0.1340 -0.3230 -0.3450 -0.3530 -0.3560 -0.3590 3.2753 2.0000
0.01520 9.0000 2.1142 2.1142 1.6697 3.8170 3.3136 0.5960 1.0380 0.9850 0.5720 0.3220 0.0880 -0.1920 -0.4030 -0.4280 -0.4370 -0.4400 -0.4410 3.2753 2.0000
0.01520 9.0000 2.1143 2.1143 1.6668 3.8059 3.2721 0.6030 1.1050 1.0460 0.5920 0.3190 0.0660 -0.2410 -0.4760 -0.5030 -0.5130 -0.5160 -0.5150 3.2753 2.0000
0.01520 9.0000 2.1145 2.1145 1.6606 3.7951 3.2350 0.6180 1.1990 1.1220 0.6210 0.3250 0.0520 -0.2810 -0.5380 -0.5690 -0.5810 -0.5840 -0.5760 3.2753 2.0000
0.01520 9.0000 2.1148 2.1148 1.6487 3.7840 3.2024 0.6480 1.3350 1.2260 0.6670 0.3410 0.0480 -0.3120 -0.5900 -0.6260 -0.6400 -0.6430 -0.6220 3.2754 2.0000
0.01520 9.0000 2.1151 2.1151 1.6283 3.7726 3.1773 0.6990 1.4940 1.3550 0.7410 0.3860 0.0700 -0.3210 -0.6240 -0.6650 -0.6820 -0.6850 -0.6510 3.2754 2.0000
0.01520 9.0000 2.1154 2.1154 1.6057 3.7638 3.1650 0.7560 1.6320 1.4670 0.8170 0.4440 0.1120 -0.3030 -0.6290 -0.6720 -0.6910 -0.6940 -0.6520 3.2754 2.0000
0.01520 9.0000 2.1157 2.1157 1.5756 3.7551 3.1603 0.8310 1.7960 1.5980 0.9130 0.5220 0.1750 -0.2650 -0.6130 -0.6580 -0.6800 -0.6830 -0.6320 3.2754 2.0000
0.01520 9.0000 2.1160 2.1160 1.5447 3.7478 3.1621 0.9080 1.9530 1.7230 1.0090 0.6020 0.2430 -0.2180 -0.5850 -0.6320 -0.6560 -0.6590 -0.6010 3.2754 2.0000
0.01520 9.0000 2.1163 2.1163 1.5052 3.7396 3.1688 1.0070 2.1530 1.8770 1.1300 0.7060 0.3330 -0.1530 -0.5430 -0.5910 -0.6180 -0.6220 -0.5550 3.2754 2.0000
0.01520 9.0000 2.1166 2.1166 1.4693 3.7318 3.1734 1.0970 2.3500 2.0230 1.2450 0.8030 0.4150 -0.0940 -0.5050 -0.5560 -0.5860 -0.5900 -0.5160 3.2754 2.0000
0.01520 9.0000 2.1167 2.1167 1.4547 3.7280 3.1729 1.1330 2.4420 2.0880 1.2940 0.8430 0.4490 -0.0720 -0.4930 -0.5460 -0.5780 -0.5820 -0.5040 3.2755 3.0000
0.01520 9.0000 2.1170 2.1170 1.4455 3.7226 3.1607 1.1560 2.5460 2.1530 1.3350 0.8720 0.4690 -0.0700 -0.5060 -0.5600 -0.5940 -0.5990 -0.5160 3.2755 3.0000
0.01520 9.0000 2.1174 2.1174 1.4550 3.7130 3.1128 1.1320 2.6780 2.2060 1.3470 0.8610 0.4400 -0.1300 -0.5920 -0.6500 -0.6890 -0.6940 -0.6020 3.2755 3.0000
0.01520 9.0000 2.1178 2.1178 1.4898 3.7066 3.0524 1.0450 2.6990 2.1740 1.2860 0.7840 0.3510 -0.2400 -0.7210 -0.7810 -0.8240 -0.8290 -0.7300 3.2755 3.0000
0.01520 9.0000 2.1182 2.1182 1.5355 3.7015 2.9863 0.9310 2.6740 2.1050 1.1940 0.6790 0.2360 -0.3730 -0.8680 -0.9300 -0.9760 -0.9820 -0.8770 3.2755 3.0000
0.01520 9.0000 2.1185 2.1185 1.5745 3.6979 2.9332 0.8340 2.6420 2.0400 1.1130 0.5880 0.1390 -0.4830 -0.9870 -1.0520 -1.0990 -1.1050 -0.9970 3.2755 3.0000
0.01520 9.0000 2.1188 2.1188 1.6148 3.6947 2.8799 0.7330 2.6020 1.9690 1.0270 0.4940 0.0390 -0.5940 -1.1080 -1.1740 -1.2240 -1.2300 -1.1190 3.2756 3.0000
0.01520 9.0000 2.1191 2.1191 1.6557 3.6916 2.8268 0.6310 2.5560 1.8950 0.9390 0.3990 -0.0630 -0.7070 -1.2300 -1.2970 -1.3490 -1.3550 -1.2410 3.2756 3.0000
0.01520 9.0000 2.1194 2.1194 1.6963 3.6886 2.7742 0.5290 2.5120 1.8220 0.8520 0.3040 -0.1640 -0.8190 -1.3500 -1.4190 -1.4730 -1.4790 -1.3620 3.2756 3.0000
0.01520 9.0000 2.1197 2.1197 1.7369 3.6858 2.7225 0.4280 2.4660 1.7480 0.7660 0.2100 -0.2640 -0.9290 -1.4690 -1.5400 -1.5950 -1.6010 -1.4820 3.2756 3.0000
0.01520 9.0000 2.1200 2.1200 1.7768 3.6830 2.6717 0.3280 2.4200 1.6750 0.6810 0.1170 -0.3620 -1.0370 -1.5850 -1.6580 -1.7140 -1.7210 -1.5990 3.2756 3.0000
0.01520 9.0000 2.1202 2.1202 1.8065 3.6811 2.6341 0.2540 2.3840 1.6210 0.6170 0.0480 -0.4350 -1.1180 -1.6720 -1.7450 -1.8030 -1.8100 -1.6860 3.2756 3.0000
0.01520 9.0000 2.1202 2.1202 1.8164 3.6804 2.6217 0.2290 2.3710 1.6020 0.5950 0.0250 -0.4600 -1.1450 -1.7000 -1.7740 -1.8330 -1.8390 -1.7150 3.2756 3.0000
0.01520 9.0000 2.1205 2.1205 1.8560 3.6778 2.5718 0.1300 2.3250 1.5300 0.5110 -0.0660 -0.5570 -1.2520 -1.8150 -1.8910 -1.9500 -1.9570 -1.8300 3.2756 3.0000
0.01520 9.0000 2.1206 2.1206 1.8660 3.6772 2.5593 0.1050 2.3130 1.5110 0.4900 -0.0890 -0.5810 -1.2790 -1.8440 -1.9200 -1.9800 -1.9870 -1.8600 3.2756 3.0000
0.01520 9.0000 2.1208 2.1208 1.8960 3.6752 2.5214 0.0300 2.2790 1.4570 0.4260 -0.1580 -0.6540 -1.3590 -1.9310 -2.0080 -2.0700 -2.0770 -1.9470 3.2757 3.0000
0.01520 9.0000 2.1211 2.1211 1.9355 3.6726 2.4715 -0.0690 2.2420 1.3880 0.3430 -0.2490 -0.7520 -1.4670 -2.0460 -2.1240 -2.1880 -2.1950 -2.0620 3.2757 3.0000
0.01520 9.0000 2.1213 2.1213 1.9755 3.6700 2.4210 -0.1690 2.2100 1.3210 0.2590 -0.3420 -0.8510 -1.5750 -2.1620 -2.2420 -2.3080 -2.3150 -2.1780 3.2757 3.0000
0.01520 9.0000 2.1216 2.1216 2.0156 3.6671 2.3697 -0.2690 2.1850 1.2570 0.1770 -0.4330 -0.9490 -1.6840 -2.2790 -2.3610 -2.4290 -2.4360 -2.2940 3.2757 3.0000
0.01520 9.0000 2.1218 2.1218 2.0558 3.6644 2.3184 -0.3690 2.1590 1.1930 0.0940 -0.5250 -1.0480 -1.7940 -2.3960 -2.4800 -2.5500 -2.5570 -2.4110 3.2757 3.0000
0.01520 9.0000 2.1221 2.1221 2.0950 3.6616 2.2681 -0.4670 2.1360 1.1310 0.0140 -0.6140 -1.1440 -1.9000 -2.5110 -2.5960 -2.6680 -2.6760 -2.5250 3.2757 3.0000
0.01520 9.0000 2.1224 2.1224 2.1401 3.6583 2.2100 -0.5800 2.1140 1.0620 -0.0760 -0.7160 -1.2530 -2.0230 -2.6430 -2.7300 -2.8050 -2.8130 -2.6560 3.2757 3.0000
0.01520 9.0000 2.1226 2.1226 2.1799 3.6554 2.1588 -0.6800 2.0960 1.0020 -0.1540 -0.8040 -1.3500 -2.1300 -2.7590 -2.8490 -2.9260 -2.9340 -2.7720 3.2757 3.0000
0.01520 9.0000 2.1229 2.1229 2.2270 3.6519 2.0974 -0.7980 2.0790 0.9340 -0.2460 -0.9090 -1.4640 -2.2580 -2.8980 -2.9900 -3.0700 -3.0780 -2.9100 3.2758 3.0000
0.01520 9.0000 2.1232 2.1232 2.2693 3.6487 2.0426 -0.9030 2.0640 0.8730 -0.3280 -1.0020 -1.5660 -2.3730 -3.0220 -3.1160 -3.1990 -3.2070 -3.0340 3.2758 3.0000
0.01520 9.0000 2.1234 2.1234 2.3118 3.6455 1.9874 -1.0100 2.0560 0.8140 -0.4090 -1.0940 -1.6680 -2.4880 -3.1460 -3.2430 -3.3280 -3.3370 -3.1590 3.2758 3.0000
0.01520 9.0000 2.1237 2.1237 2.3563 3.6421 1.9292 -1.1210 2.0590 0.7570 -0.4910 -1.1910 -1.7750 -2.6090 -3.2770 -3.3770 -3.4650 -3.4740 -3.2900 3.2758 3.0000
0.01520 9.0000 2.1239 2.1239 2.3946 3.6391 1.8790 -1.2170 2.0630 0.7090 -0.5620 -1.2730 -1.8670 -2.7130 -3.3900 -3.4920 -3.5830 -3.5920 -3.4030 3.2758 3.0000
0.01520 9.0000 2.1242 2.1242 2.4382 3.6358 1.8220 -1.3260 2.0690 0.6550 -0.6400 -1.3650 -1.9710 -2.8300 -3.5170 -3.6220 -3.7170 -3.7260 -3.5320 3.2758 3.0000
0.01520 9.0000 2.1245 2.1245 2.4831 3.6322 1.7631 -1.4380 2.0760 0.6000 -0.7200 -1.4590 -2.0770 -2.9520 -3.6480 -3.7570 -3.8550 -3.8640 -3.6640 3.2758 3.0000
0.01520 9.0000 2.1246 2.1246 2.4844 3.6321 1.7613 -1.4410 2.0760 0.5990 -0.7230 -1.4620 -2.0810 -2.9550 -3.6520 -3.7610 -3.8590 -3.8690 -3.6680 3.2758 4.0000
0.01520 9.0000 2.1246 2.1246 2.4518 3.6348 1.8047 -1.3590 2.0680 0.6370 -0.6650 -1.3940 -2.0030 -2.8670 -3.5560 -3.6620 -3.7580 -3.7670 -3.5710 3.2758 4.0000
0.01520 9.0000 2.1246 2.1246 2.4214 3.6371 1.8443 -1.2840 2.0650 0.6740 -0.6100 -1.3300 -1.9310 -2.7850 -3.4680 -3.5720 -3.6650 -3.6740 -3.4820 3.2758 4.0000
0.01520 9.0000 2.1247 2.1247 2.3912 3.6395 1.8840 -1.2080 2.0600 0.7110 -0.5560 -1.2670 -1.8590 -2.7030 -3.3790 -3.4810 -3.5720 -3.5810 -3.3920 3.2758 4.0000
0.01520 9.0000 2.1247 2.1247 2.3509 3.6427 1.9372 -1.1070 2.0540 0.7620 -0.4830 -1.1800 -1.7630 -2.5930 -3.2600 -3.3600 -3.4470 -3.4560 -3.2730 3.2758 4.0000
0.01520 9.0000 2.1247 2.1247 2.3017 3.6465 2.0017 -0.9840 2.0500 0.8250 -0.3910 -1.0730 -1.6440 -2.4600 -3.1150 -3.2120 -3.2950 -3.3040 -3.1280 3.2758 4.0000
0.01520 9.0000 2.1248 2.1248 2.2506 3.6504 2.0683 -0.8560 2.0630 0.8960 -0.2950 -0.9620 -1.5210 -2.3210 -2.9650 -3.0580 -3.1400 -3.1480 -2.9780 3.2759 4.0000
0.01520 9.0000 2.1248 2.1248 2.2114 3.6534 2.1196 -0.7580 2.0750 0.9520 -0.2190 -0.8760 -1.4270 -2.2150 -2.8500 -2.9410 -3.0190 -3.0270 -2.8620 3.2759 4.0000
0.01520 9.0000 2.1249 2.1249 2.1628 3.6571 2.1829 -0.6370 2.0930 1.0230 -0.1240 -0.7680 -1.3090 -2.0830 -2.7070 -2.7950 -2.8710 -2.8790 -2.7200 3.2759 4.0000
0.01520 9.0000 2.1249 2.1249 2.1243 3.6600 2.2330 -0.5410 2.1080 1.0790 -0.0490 -0.6830 -1.2160 -1.9790 -2.5940 -2.6800 -2.7540 -2.7610 -2.6070 3.2759 4.0000
0.01520 9.0000 2.1250 2.1250 2.0859 3.6629 2.2830 -0.4450 2.1260 1.1380 0.0290 -0.5960 -1.1220 -1.8740 -2.4800 -2.5650 -2.6360 -2.6440 -2.4940 3.2759 4.0000
0.01520 9.0000 2.1251 2.1251 2.0384 3.6663 2.3443 -0.3260 2.1520 1.2110 0.1250 -0.4880 -1.0060 -1.7440 -2.3410 -2.4230 -2.4920 -2.4990 -2.3560 3.2759 4.0000
0.01520 9.0000 2.1253 2.1253 1.9909 3.6699 2.4060 -0.2070 2.1770 1.2850 0.2200 -0.3800 -0.8890 -1.6140 -2.2010 -2.2810 -2.3470 -2.3540 -2.2160 3.2759 4.0000
0.01520 9.0000 2.1255 2.1255 1.9428 3.6733 2.4681 -0.0870 2.2080 1.3630 0.3200 -0.2700 -0.7710 -1.4830 -2.0590 -2.1370 -2.2010 -2.2080 -2.0760 3.2759 4.0000
0.01520 9.0000 2.1259 2.1259 1.8872 3.6774 2.5400 0.0520 2.2550 1.4560 0.4350 -0.1430 -0.6340 -1.3310 -1.8960 -1.9710 -2.0320 -2.0390 -1.9110 3.2759 4.0000
0.01520 9.0000 2.1263 2.1263 1.8414 3.6807 2.5990 0.1660 2.3020 1.5360 0.5310 -0.0380 -0.5220 -1.2060 -1.7610 -1.8350 -1.8930 -1.9000 -1.7750 3.2759 4.0000
0.01520 9.0000 2.1266 2.1266 1.8021 3.6836 2.6499 0.2650 2.3440 1.6070 0.6140 0.0530 -0.4250 -1.0990 -1.6450 -1.7170 -1.7740 -1.7800 -1.6590 3.2759 4.0000
0.01520 9.0000 2.1270 2.1270 1.7540 3.6870 2.7119 0.3850 2.3970 1.6930 0.7160 0.1640 -0.3070 -0.9680 -1.5040 -1.5740 -1.6280 -1.6350 -1.5160 3.2760 4.0000
0.01520 9.0000 2.1276 2.1276 1.7041 3.6908 2.7768 0.5100 2.4490 1.7810 0.8210 0.2790 -0.1840 -0.8310 -1.3560 -1.4240 -1.4760 -1.4830 -1.3670 3.2760 4.0000
0.01520 9.0000 2.1285 2.1285 1.6557 3.6945 2.8405 0.6310 2.5000 1.8680 0.9250 0.3920 -0.0630 -0.6970 -1.2110 -1.2770 -1.3270 -1.3330 -1.2220 3.2760 4.0000
0.01520 9.0000 2.1298 2.1298 1.6169 3.6978 2.8927 0.7280 2.5360 1.9340 1.0070 0.4820 0.0330 -0.5890 -1.0940 -1.1580 -1.2060 -1.2120 -1.1040 3.2761 4.0000
0.01520 9.0000 2.1306 2.1306 1.6065 3.6988 2.9073 0.7540 2.5440 1.9510 1.0280 0.5060 0.0590 -0.5590 -1.0610 -1.1250 -1.1730 -1.1790 -1.0710 3.2761 5.0000
0.01520 9.0000 2.1500 2.1500 1.6321 3.6991 2.8867 0.6900 2.4740 1.8850 0.9620 0.4420 -0.0050 -0.6230 -1.1240 -1.1870 -1.2350 -1.2410 -1.1330 3.2771 5.0000
0.01520 9.0000 2.1537 2.1537 1.6373 3.6991 2.8823 0.6770 2.4600 1.8710 0.9490 0.4290 -0.0180 -0.6360 -1.1360 -1.2000 -1.2480 -1.2540 -1.1460 3.2772 5.0000
0.01520 9.0000 2.1835 2.1835 1.6793 3.6997 2.8486 0.5720 2.3440 1.7610 0.8410 0.3230 -0.1230 -0.7390 -1.2380 -1.3010 -1.3490 -1.3550 -1.2470 3.2786 5.0000
0.01520 9.0000 2.2000 2.2000 1.7063 3.6997 2.8248 0.5040 2.2750 1.6940 0.7730 0.2550 -0.1900 -0.8060 -1.3050 -1.3680 -1.4160 -1.4220 -1.3150 3.2794 5.0000
0.01520 9.0000 2.2092 2.2092 1.7218 3.6996 2.8109 0.4660 2.2370 1.6550 0.7350 0.2170 -0.2290 -0.8450 -1.3440 -1.4070 -1.4550 -1.4610 -1.3540 3.2798 5.0000
0.01520 9.0000 2.2299 2.2299 1.7592 3.6991 2.7756 0.3720 2.1520 1.5660 0.6430 0.1240 -0.3230 -0.9400 -1.4400 -1.5040 -1.5530 -1.5590 -1.4500 3.2807 5.0000
0.01520 9.0000 2.2500 2.2500 1.7974 3.6982 2.7374 0.2760 2.0730 1.4790 0.5520 0.0310 -0.4180 -1.0390 -1.5420 -1.6060 -1.6550 -1.6610 -1.5520 3.2815 5.0000
0.01520 9.0000 2.2634 2.2634 1.8253 3.6970 2.7075 0.2070 2.0250 1.4200 0.4870 -0.0360 -0.4870 -1.1130 -1.6190 -1.6840 -1.7340 -1.7400 -1.6290 3.2821 6.0000
0.01520 9.0000 2.2688 2.2688 1.8379 3.6962 2.6928 0.1750 2.0070 1.3960 0.4590 -0.0660 -0.5190 -1.1470 -1.6550 -1.7200 -1.7710 -1.7770 -1.6660 3.2823 6.0000
0.01520 9.0000 2.2825 2.2825 1.8759 3.6932 2.6453 0.0800 1.9680 1.3290 0.3780 -0.1550 -0.6130 -1.2520 -1.7690 -1.8360 -1.8880 -1.8950 -1.7800 3.2829 6.0000
0.01520 9.0000 2.2900 2.2900 1.8957 3.6921 2.6224 0.0310 1.9390 1.2890 0.3340 -0.2020 -0.6620 -1.3060 -1.8260 -1.8930 -1.9460 -1.9520 -1.8370 3.2832 6.0000
0.01520 9.0000 2.2952 2.2952 1.9336 3.6879 2.5690 -0.0640 1.9230 1.2340 0.2600 -0.2860 -0.7550 -1.4140 -1.9460 -2.0160 -2.0710 -2.0780 -1.9590 3.2834 6.0000
0.01520 9.0000 2.2967 2.2967 1.9767 3.6835 2.5085 -0.1720 1.9030 1.1700 0.1750 -0.3830 -0.8610 -1.5360 -2.0810 -2.1530 -2.2110 -2.2180 -2.0950 3.2835 6.0000
0.01520 9.0000 2.2973 2.2973 2.0182 3.6796 2.4513 -0.2760 1.8890 1.1090 0.0930 -0.4770 -0.9640 -1.6530 -2.2090 -2.2840 -2.3440 -2.3510 -2.2230 3.2835 6.0000
0.01520 9.0000 2.2976 2.2976 2.0620 3.6756 2.3918 -0.3850 1.8770 1.0470 0.0060 -0.5760 -1.0720 -1.7750 -2.3430 -2.4200 -2.4830 -2.4900 -2.3560 3.2835 6.0000
0.01520 9.0000 2.2977 2.2977 2.1019 3.6722 2.3381 -0.4850 1.8630 0.9880 -0.0730 -0.6660 -1.1700 -1.8860 -2.4640 -2.5430 -2.6090 -2.6160 -2.4760 3.2835 6.0000
0.01520 9.0000 2.2978 2.2978 2.1358 3.6694 2.2930 -0.5700 1.8500 0.9380 -0.1410 -0.7430 -1.2530 -1.9800 -2.5660 -2.6460 -2.7150 -2.7220 -2.5780 3.2835 6.0000
0.01520 9.0000 2.2978 2.2978 2.1574 3.6675 2.2640 -0.6240 1.8450 0.9080 -0.1830 -0.7910 -1.3060 -2.0400 -2.6310 -2.7130 -2.7820 -2.7900 -2.6420 3.2835 7.0000
0.01520 9.0000 2.2979 2.2979 2.1742 3.6662 2.2418 -0.6660 1.8390 0.8830 -0.2160 -0.8290 -1.3470 -2.0860 -2.6810 -2.7640 -2.8340 -2.8420 -2.6920 3.2835 7.0000
0.01520 9.0000 2.2980 2.2980 2.1839 3.6655 2.2293 -0.6900 1.8340 0.8680 -0.2350 -0.8500 -1.3700 -2.1120 -2.7090 -2.7920 -2.8630 -2.8710 -2.7200 3.2835 7.0000
0.01520 9.0000 2.2982 2.2982 2.1572 3.6677 2.2650 -0.6230 1.8410 0.9060 -0.1830 -0.7910 -1.3050 -2.0390 -2.6290 -2.7110 -2.7800 -2.7880 -2.6410 3.2835 7.0000
0.01520 9.0000 2.3000 2.3000 2.1623 3.6673 2.2587 -0.6360 1.8390 0.8990 -0.1930 -0.8020 -1.3180 -2.0530 -2.6440 -2.7260 -2.7960 -2.8030 -2.6560 3.2836 7.0000
0.01520 9.0000 2.3004 2.3004 2.1661 3.6670 2.2537 -0.6450 1.8380 0.8930 -0.2010 -0.8110 -1.3270 -2.0630 -2.6560 -2.7380 -2.8080 -2.8150 -2.6670 3.2836 7.0000
0.01520 9.0000 2.3014 2.3014 2.1982 3.6644 2.2114 -0.7260 1.8260 0.8460 -0.2640 -0.8830 -1.4050 -2.1520 -2.7510 -2.8350 -2.9070 -2.9150 -2.7630 3.2837 7.0000
0.01520 9.0000 2.3024 2.3024 2.2383 3.6612 2.1586 -0.8260 1.8120 0.7870 -0.3430 -0.9720 -1.5030 -2.2620 -2.8710 -2.9570 -3.0310 -3.0390 -2.8810 3.2837 7.0000
0.01520 9.0000 2.3032 2.3032 2.2814 3.6577 2.1016 -0.9330 1.8010 0.7270 -0.4260 -1.0670 -1.6070 -2.3800 -2.9990 -3.0880 -3.1650 -3.1730 -3.0090 3.2837 7.0000
0.01520 9.0000 2.3038 2.3038 2.3229 3.6543 2.0467 -1.0370 1.7920 0.6690 -0.5060 -1.1590 -1.7070 -2.4930 -3.1230 -3.2130 -3.2930 -3.3010 -3.1330 3.2838 7.0000
0.01520 9.0000 2.3042 2.3042 2.3642 3.6510 1.9923 -1.1400 1.7840 0.6120 -0.5850 -1.2490 -1.8070 -2.6050 -3.2450 -3.3380 -3.4210 -3.4290 -3.2550 3.2838 7.0000
0.01520 9.0000 2.3046 2.3046 2.4051 3.6476 1.9378 -1.2430 1.7930 0.5620 -0.6590 -1.3370 -1.9050 -2.7170 -3.3670 -3.4630 -3.5480 -3.5570 -3.3770 3.2838 7.0000
0.01520 9.0000 2.3048 2.3048 2.4400 3.6447 1.8913 -1.3300 1.8010 0.5200 -0.7230 -1.4130 -1.9890 -2.8130 -3.4710 -3.5690 -3.6570 -3.6660 -3.4820 3.2838 7.0000
0.01520 9.0000 2.3051 2.3051 2.4783 3.6416 1.8408 -1.4260 1.8060 0.4720 -0.7930 -1.4950 -2.0810 -2.9170 -3.5840 -3.6850 -3.7760 -3.7850 -3.5950 3.2838 7.0000
0.01520 9.0000 2.3054 2.3054 2.5151 3.6385 1.7918 -1.5180 1.8160 0.4280 -0.8590 -1.5730 -2.1690 -3.0170 -3.6930 -3.7960 -3.8910 -3.9000 -3.7050 3.2838 7.0000
0.01520 9.0000 2.3056 2.3056 2.5539 3.6353 1.7402 -1.6150 1.8270 0.3840 -0.9260 -1.6530 -2.2600 -3.1230 -3.8070 -3.9140 -4.0110 -4.0200 -3.8200 3.2838 7.0000
0.01520 9.0000 2.3059 2.3059 2.5932 3.6321 1.6881 -1.7130 1.8360 0.3370 -0.9960 -1.7360 -2.3540 -3.2290 -3.9220 -4.0320 -4.1330 -4.1420 -3.9370 3.2838 7.0000
0.01520 9.0000 2.3061 2.3061 2.6334 3.6288 1.6348 -1.8130 1.8460 0.2910 -1.0660 -1.8190 -2.4480 -3.3370 -4.0400 -4.1530 -4.2580 -4.2670 -4.0560 3.2839 7.0000
0.01520 9.0000 2.3064 2.3064 2.6743 3.6253 1.5799 -1.9160 1.8610 0.2480 -1.1340 -1.9010 -2.5440 -3.4480 -4.1610 -4.2770 -4.3850 -4.3950 -4.1780 3.2839 7.0000
0.01520 9.0000 2.3067 2.3067 2.7159 3.6220 1.5249 -2.0200 1.8720 0.2010 -1.2040 -1.9860 -2.6420 -3.5600 -4.2820 -4.4010 -4.5130 -4.5230 -4.3010 3.2839 7.0000
0.01520 9.0000 2.3069 2.3069 2.7576 3.6184 1.4692 -2.1240 1.8800 0.1540 -1.2730 -2.0680 -2.7390 -3.6710 -4.4040 -4.5270 -4.6420 -4.6520 -4.4270 3.2839 7.0000
0.01520 9.0000 2.3072 2.3072 2.8015 3.6147 1.4104 -2.2340 1.8850 0.1050 -1.3430 -2.1500 -2.8400 -3.7890 -4.5320 -4.6600 -4.7780 -4.7890 -4.5620 3.2839 7.0000
0.01520 9.0000 2.3074 2.3074 2.8509 3.6105 1.3440 -2.3570 1.8930 0.0490 -1.4210 -2.2440 -2.9540 -3.9210 -4.6770 -4.8100 -4.9310 -4.9420 -4.7140 3.2839 7.0000
0.01520 9.0000 2.3082 2.3082 3.2835 3.5709 0.7534 -3.4390 2.1150 -0.2660 -1.9320 -2.8710 -3.9280 -5.0850 -5.9240 -6.1260 -6.2930 -6.3080 -6.0650 3.2839 8.0000
