Z ,loga,	M_ini   ,	M_act,	logL,	logTe	,logG	,mbol   , UX   ,    B  ,     V  ,     R      , I     ,  J     ,  H     ,  K   ,    L,       Lp ,     M, int_inf stage
0.01520 6.5000 0.0900 0.0900 -1.5158 3.4266 3.5663 8.5590 15.1480 14.0170 12.6090 10.9920 8.9200 6.5670 6.0030 5.5830 5.2100 5.0020 5.0470 1.4677 0.0000
0.01520 6.5000 0.1032 0.1032 -1.4808 3.4299 3.6040 8.4720 14.9790 13.8390 12.4260 10.8340 8.7830 6.4840 5.9180 5.5060 5.1380 4.9330 4.9770 1.6010 0.0000
0.01520 6.5000 0.1075 0.1075 -1.4656 3.4315 3.6130 8.4340 14.9000 13.7600 12.3480 10.7670 8.7260 6.4480 5.8820 5.4720 5.1080 4.9030 4.9480 1.6406 0.0000
0.01520 6.5000 0.1137 0.1137 -1.4560 3.4326 3.6321 8.4100 14.8600 13.7120 12.2980 10.7230 8.6880 6.4260 5.8580 5.4520 5.0890 4.8850 4.9310 1.6952 0.0000
0.01520 6.5000 0.1215 0.1215 -1.4385 3.4344 3.6509 8.3660 14.7770 13.6250 12.2110 10.6470 8.6230 6.3840 5.8160 5.4130 5.0540 4.8510 4.8970 1.7602 0.0000
0.01520 6.5000 0.1259 0.1259 -1.4166 3.4369 3.6542 8.3120 14.6510 13.5070 12.0960 10.5500 8.5400 6.3330 5.7630 5.3650 5.0100 4.8090 4.8540 1.7944 0.0000
0.01520 6.5000 0.1294 0.1294 -1.4025 3.4384 3.6580 8.2760 14.5720 13.4310 12.0220 10.4870 8.4870 6.3000 5.7300 5.3340 4.9810 4.7820 4.8270 1.8204 0.0000
0.01520 6.5000 0.1329 0.1329 -1.3918 3.4396 3.6635 8.2500 14.5150 13.3750 11.9670 10.4400 8.4460 6.2740 5.7040 5.3110 4.9600 4.7610 4.8060 1.8459 0.0000
0.01520 6.5000 0.1367 0.1367 -1.3837 3.4405 3.6714 8.2290 14.4730 13.3320 11.9250 10.4040 8.4160 6.2560 5.6840 5.2930 4.9440 4.7460 4.7910 1.8731 0.0000
0.01520 6.5000 0.1400 0.1400 -1.3809 3.4409 3.6809 8.2220 14.4600 13.3160 11.9070 10.3890 8.4030 6.2490 5.6780 5.2880 4.9390 4.7410 4.7870 1.8960 0.0000
0.01520 6.5000 0.1453 0.1453 -1.3567 3.4437 3.6837 8.1620 14.3210 13.1850 11.7810 10.2810 8.3130 6.1930 5.6190 5.2350 4.8910 4.6950 4.7400 1.9309 0.0000
0.01520 6.5000 0.1505 0.1505 -1.3374 3.4458 3.6882 8.1140 14.2150 13.0830 11.6830 10.1970 8.2420 6.1480 5.5730 5.1920 4.8520 4.6580 4.7030 1.9638 0.0000
0.01520 6.5000 0.1554 0.1554 -1.3240 3.4473 3.6948 8.0800 14.1420 13.0120 11.6130 10.1380 8.1910 6.1160 5.5410 5.1630 4.8260 4.6320 4.6770 1.9942 0.0000
0.01520 6.5000 0.1612 0.1612 -1.3111 3.4489 3.7039 8.0480 14.0700 12.9410 11.5440 10.0790 8.1420 6.0860 5.5100 5.1350 4.8010 4.6080 4.6530 2.0279 0.0000
0.01520 6.5000 0.1680 0.1680 -1.2814 3.4523 3.7060 7.9740 13.9020 12.7820 11.3900 9.9480 8.0330 6.0180 5.4380 5.0710 4.7420 4.5520 4.5960 2.0660 0.0000
0.01520 6.5000 0.1746 0.1746 -1.2566 3.4551 3.7092 7.9110 13.7670 12.6530 11.2640 9.8400 7.9440 5.9600 5.3780 5.0160 4.6940 4.5050 4.5490 2.1014 0.0000
0.01520 6.5000 0.1811 0.1811 -1.2366 3.4573 3.7139 7.8610 13.6600 12.5500 11.1640 9.7540 7.8720 5.9140 5.3300 4.9720 4.6540 4.4670 4.5100 2.1342 0.0000
0.01520 6.5000 0.1874 0.1874 -1.2201 3.4591 3.7195 7.8200 13.5740 12.4660 11.0810 9.6830 7.8140 5.8760 5.2900 4.9360 4.6220 4.4360 4.4790 2.1647 0.0000
0.01520 6.5000 0.1936 0.1936 -1.2088 3.4605 3.7274 7.7920 13.5160 12.4080 11.0240 9.6330 7.7730 5.8500 5.2630 4.9120 4.6000 4.4150 4.4580 2.1931 0.0000
0.01520 6.5000 0.1997 0.1997 -1.2017 3.4614 3.7377 7.7740 13.4810 12.3700 10.9870 9.6020 7.7460 5.8340 5.2450 4.8970 4.5870 4.4020 4.4460 2.2203 0.0000
0.01520 6.5000 0.2014 0.2014 -1.1971 3.4620 3.7392 7.7630 13.4560 12.3460 10.9640 9.5820 7.7300 5.8230 5.2340 4.8860 4.5780 4.3940 4.4380 2.2279 0.0000
0.01520 6.5000 0.2124 0.2124 -1.1619 3.4662 3.7439 7.6750 13.2730 12.1680 10.7940 9.4360 7.6080 5.7430 5.1470 4.8090 4.5090 4.3270 4.3730 2.2735 0.0000
0.01520 6.5000 0.2233 0.2233 -1.1319 3.4698 3.7499 7.6000 13.1190 12.0180 10.6500 9.3130 7.5040 5.6740 5.0740 4.7420 4.4510 4.2710 4.3170 2.3158 0.0000
0.01520 6.5000 0.2341 0.2341 -1.1072 3.4727 3.7575 7.5380 13.0010 11.9000 10.5340 9.2130 7.4210 5.6180 5.0130 4.6870 4.4020 4.2240 4.2710 2.3550 0.0000
0.01520 6.5000 0.2448 0.2448 -1.0865 3.4752 3.7662 7.4860 12.9010 11.7990 10.4360 9.1270 7.3500 5.5710 4.9620 4.6410 4.3610 4.1850 4.2320 2.3912 0.0000
0.01520 6.5000 0.2673 0.2673 -1.0359 3.4819 3.7803 7.3600 12.6530 11.5480 10.1880 8.9120 7.1780 5.4580 4.8390 4.5300 4.2630 4.0920 4.1380 2.4607 0.0000
0.01520 6.5000 0.2857 0.2857 -0.9961 3.4871 3.7904 7.2600 12.4710 11.3590 9.9950 8.7410 7.0450 5.3710 4.7420 4.4420 4.1850 4.0180 4.0620 2.5115 0.0000
0.01520 6.5000 0.3033 0.3033 -0.9630 3.4915 3.8011 7.1780 12.3200 11.2010 9.8360 8.6020 6.9360 5.2990 4.6620 4.3690 4.1200 3.9570 4.0000 2.5556 0.0000
0.01520 6.5000 0.3333 0.3333 -0.9043 3.4994 3.8148 7.0310 12.0520 10.9250 9.5720 8.3740 6.7470 5.1700 4.5160 4.2370 4.0040 3.8480 3.8980 2.6223 0.0000
0.01520 6.5000 0.3500 0.3500 -0.8756 3.5033 3.8230 6.9590 11.9260 10.7910 9.4430 8.2630 6.6550 5.1070 4.4450 4.1720 3.9470 3.7950 3.8490 2.6555 0.0000
0.01520 6.5000 0.3842 0.3842 -0.8159 3.5120 3.8383 6.8100 11.6590 10.5060 9.1660 8.0250 6.4630 4.9790 4.2980 4.0390 3.8300 3.6880 3.7500 2.7161 0.0000
0.01520 6.5000 0.4000 0.4000 -0.7896 3.5157 3.8446 6.7440 11.5470 10.3830 9.0450 7.9200 6.3790 4.9230 4.2340 3.9800 3.7780 3.6400 3.7060 2.7413 0.0000
0.01520 6.5000 0.4332 0.4332 -0.7364 3.5239 3.8589 6.6110 11.3180 10.1280 8.7900 7.6990 6.2100 4.8120 4.1070 3.8640 3.6740 3.5480 3.6210 2.7892 0.0000
0.01520 6.5000 0.4500 0.4500 -0.7108 3.5279 3.8655 6.5470 11.2110 10.0060 8.6680 7.5930 6.1300 4.7590 4.0460 3.8080 3.6240 3.5030 3.5810 2.8110 0.0000
0.01520 6.5000 0.4779 0.4779 -0.6693 3.5345 3.8769 6.4430 11.0360 9.8050 8.4670 7.4190 5.9990 4.6730 3.9480 3.7190 3.5450 3.4340 3.5180 2.8443 0.0000
0.01520 6.5000 0.5000 0.5000 -0.6377 3.5396 3.8852 6.3640 10.9030 9.6530 8.3160 7.2880 5.9010 4.6080 3.8740 3.6510 3.4840 3.3820 3.4710 2.8685 0.0000
0.01520 6.5000 0.5137 0.5137 -0.6169 3.5433 3.8909 6.3120 10.8150 9.5480 8.2110 7.1960 5.8360 4.5660 3.8260 3.6090 3.4460 3.3490 3.4420 2.8825 0.0000
0.01520 6.5000 0.5345 0.5345 -0.5876 3.5484 3.8990 6.2390 10.6920 9.4040 8.0660 7.0680 5.7450 4.5060 3.7590 3.5480 3.3920 3.3030 3.4010 2.9026 0.0000
0.01520 6.5000 0.5500 0.5500 -0.5680 3.5516 3.9047 6.1900 10.6130 9.3110 7.9710 6.9830 5.6860 4.4660 3.7140 3.5080 3.3560 3.2720 3.3730 2.9166 0.0000
0.01520 6.5000 0.5617 0.5617 -0.5516 3.5546 3.9094 6.1490 10.5450 9.2280 7.8880 6.9090 5.6350 4.4330 3.6770 3.4760 3.3280 3.2480 3.3510 2.9268 0.0000
0.01520 6.5000 0.5862 0.5862 -0.5175 3.5606 3.9181 6.0640 10.4060 9.0610 7.7170 6.7570 5.5320 4.3650 3.6010 3.4080 3.2680 3.1970 3.3040 2.9468 0.0000
0.01520 6.5000 0.6000 0.6000 -0.5006 3.5637 3.9236 6.0220 10.3370 8.9760 7.6330 6.6800 5.4820 4.3320 3.5640 3.3750 3.2400 3.1730 3.2820 2.9574 0.0000
0.01520 6.5000 0.6011 0.6011 -0.4992 3.5640 3.9240 6.0180 10.3310 8.9690 7.6250 6.6730 5.4770 4.3290 3.5610 3.3730 3.2370 3.1710 3.2800 2.9582 0.0000
0.01520 6.5000 0.6257 0.6257 -0.4660 3.5700 3.9323 5.9350 10.1950 8.8050 7.4600 6.5230 5.3790 4.2630 3.4880 3.3090 3.1810 3.1230 3.2370 2.9760 0.0000
0.01520 6.5000 0.6500 0.6500 -0.4358 3.5755 3.9408 5.8600 10.0640 8.6510 7.3070 6.3840 5.2900 4.2030 3.4250 3.2540 3.1330 3.0820 3.2000 2.9924 0.0000
0.01520 6.5000 0.6636 0.6636 -0.4188 3.5786 3.9453 5.8170 9.9910 8.5650 7.2210 6.3060 5.2400 4.1700 3.3890 3.2230 3.1060 3.0590 3.1790 3.0010 0.0000
0.01520 6.5000 0.6908 0.6908 -0.3848 3.5848 3.9535 5.7320 9.8440 8.3960 7.0580 6.1570 5.1420 4.1010 3.3200 3.1620 3.0530 3.0120 3.1360 3.0173 0.0000
0.01520 6.5000 0.7000 0.7000 -0.3743 3.5868 3.9568 5.7060 9.7990 8.3430 7.0080 6.1110 5.1120 4.0790 3.2990 3.1430 3.0370 2.9980 3.1230 3.0225 0.0000
0.01520 6.5000 0.7500 0.7500 -0.2497 3.6244 4.0122 5.3940 8.9580 7.5110 6.2700 5.4590 4.7420 3.8620 3.1300 3.0180 2.9520 2.9360 3.0730 3.0488 0.0000
0.01520 6.5000 0.7794 0.7794 -0.2238 3.6278 4.0167 5.3290 8.8330 7.4020 6.1720 5.3690 4.6730 3.8060 3.0810 2.9720 2.9080 2.8940 3.0310 3.0627 0.0000
0.01520 6.5000 0.8000 0.8000 -0.2054 3.6301 4.0191 5.2830 8.7440 7.3250 6.1030 5.3050 4.6240 3.7650 3.0460 2.9390 2.8770 2.8640 3.0000 3.0719 0.0000
0.01520 6.5000 0.8290 0.8290 -0.1803 3.6334 4.0223 5.2210 8.6140 7.2200 6.0100 5.2210 4.5590 3.7110 3.0000 2.8960 2.8350 2.8230 2.9580 3.0840 0.0000
0.01520 6.5000 0.8500 0.8500 -0.1630 3.6356 4.0250 5.1780 8.5240 7.1480 5.9460 5.1630 4.5130 3.6740 2.9690 2.8660 2.8070 2.7950 2.9290 3.0922 0.0000
0.01520 6.5000 0.9000 0.9000 -0.1223 3.6409 4.0301 5.0760 8.3090 6.9770 5.7950 5.0270 4.4060 3.5860 2.8940 2.7960 2.7400 2.7290 2.8610 3.1103 0.0000
0.01520 6.5000 0.9500 0.9500 -0.0813 3.6460 4.0332 4.9730 8.0830 6.8050 5.6450 4.8950 4.2990 3.4980 2.8220 2.7270 2.6730 2.6630 2.7910 3.1264 0.0000
0.01520 6.5000 0.9794 0.9794 -0.0592 3.6490 4.0361 4.9180 7.9580 6.7100 5.5640 4.8230 4.2410 3.4510 2.7840 2.6900 2.6370 2.6290 2.7550 3.1350 0.0000
0.01520 6.5000 1.0000 1.0000 -0.0427 3.6510 4.0369 4.8770 7.8660 6.6410 5.5040 4.7710 4.1970 3.4150 2.7550 2.6630 2.6110 2.6030 2.7270 3.1408 0.0000
0.01520 6.5000 1.0367 1.0367 -0.0157 3.6546 4.0397 4.8090 7.7090 6.5260 5.4060 4.6870 4.1260 3.3570 2.7100 2.6200 2.5690 2.5610 2.6830 3.1505 0.0000
0.01520 6.5000 1.0500 1.0500 -0.0050 3.6559 4.0398 4.7820 7.6490 6.4820 5.3680 4.6540 4.0980 3.3340 2.6910 2.6020 2.5510 2.5430 2.6640 3.1538 0.0000
0.01520 6.5000 1.0934 1.0934 0.0268 3.6600 4.0422 4.7030 7.4650 6.3480 5.2530 4.5560 4.0150 3.2660 2.6380 2.5510 2.5010 2.4940 2.6120 3.1641 0.0000
0.01520 6.5000 1.1000 1.1000 0.0314 3.6607 4.0427 4.6920 7.4390 6.3290 5.2360 4.5420 4.0030 3.2570 2.6300 2.5440 2.4940 2.4870 2.6040 3.1655 0.0000
0.01520 6.5000 1.1116 1.1116 0.0395 3.6617 4.0434 4.6710 7.3930 6.2950 5.2080 4.5180 3.9820 3.2400 2.6170 2.5310 2.4820 2.4740 2.5910 3.1681 0.0000
0.01520 6.5000 1.1500 1.1500 0.0679 3.6653 4.0442 4.6000 7.2350 6.1790 5.1090 4.4340 3.9090 3.1790 2.5690 2.4850 2.4370 2.4290 2.5430 3.1762 0.0000
0.01520 6.5000 1.1617 1.1617 0.0759 3.6664 4.0448 4.5800 7.1900 6.1460 5.0810 4.4100 3.8880 3.1620 2.5550 2.4720 2.4240 2.4170 2.5300 3.1785 0.0000
0.01520 6.5000 1.2000 1.2000 0.1040 3.6699 4.0448 4.5100 7.0350 6.0320 4.9840 4.3270 3.8150 3.1020 2.5070 2.4250 2.3790 2.3720 2.4820 3.1859 0.0000
0.01520 6.5000 1.2162 1.2162 0.1150 3.6713 4.0453 4.4830 6.9750 5.9880 4.9460 4.2950 3.7870 3.0790 2.4880 2.4080 2.3620 2.3550 2.4640 3.1888 0.0000
0.01520 6.5000 1.2500 1.2500 0.1388 3.6743 4.0454 4.4230 6.8450 5.8930 4.8660 4.2260 3.7260 3.0290 2.4480 2.3690 2.3240 2.3170 2.4240 3.1947 0.0000
0.01520 6.5000 1.3000 1.3000 0.1737 3.6787 4.0449 4.3360 6.6570 5.7550 4.7480 4.1250 3.6360 2.9550 2.3890 2.3120 2.2680 2.2620 2.3650 3.2028 0.0000
0.01520 6.5000 1.3500 1.3500 0.2101 3.6830 4.0423 4.2450 6.4710 5.6160 4.6290 4.0230 3.5440 2.8780 2.3260 2.2510 2.2080 2.2020 2.3030 3.2102 0.0000
0.01520 6.5000 1.4000 1.4000 0.2446 3.6872 4.0404 4.1580 6.2960 5.4850 4.5160 3.9250 3.4560 2.8050 2.2660 2.1940 2.1520 2.1460 2.2440 3.2171 0.0000
0.01520 6.5000 1.4500 1.4500 0.2781 3.6913 4.0387 4.0750 6.1270 5.3590 4.4080 3.8320 3.3710 2.7340 2.2090 2.1380 2.0980 2.0920 2.1880 3.2234 0.0000
0.01520 6.5000 1.4756 1.4756 0.2944 3.6934 4.0381 4.0340 6.0450 5.2980 4.3560 3.7870 3.3310 2.7010 2.1810 2.1120 2.0720 2.0670 2.1610 3.2264 0.0000
0.01520 6.5000 1.5000 1.5000 0.3130 3.6955 4.0352 3.9880 5.9540 5.2300 4.2970 3.7360 3.2850 2.6620 2.1480 2.0800 2.0410 2.0360 2.1300 3.2292 0.0000
0.01520 6.5000 1.5500 1.5500 0.3484 3.6997 4.0306 3.8990 5.7810 5.1000 4.1860 3.6390 3.1960 2.5880 2.0860 2.0200 1.9830 1.9780 2.0690 3.2346 0.0000
0.01520 6.5000 1.5863 1.5863 0.3705 3.7024 4.0297 3.8440 5.6720 5.0200 4.1170 3.5790 3.1420 2.5420 2.0490 1.9840 1.9480 1.9440 2.0320 3.2382 0.0000
0.01520 6.5000 1.6000 1.6000 0.3811 3.7036 4.0275 3.8170 5.6230 4.9830 4.0840 3.5500 3.1150 2.5200 2.0300 1.9660 1.9300 1.9260 2.0140 3.2396 0.0000
0.01520 6.5000 1.6500 1.6500 0.4201 3.7079 4.0192 3.7200 5.4420 4.8460 3.9660 3.4450 3.0190 2.4380 1.9610 1.8990 1.8640 1.8600 1.9450 3.2442 0.0000
0.01520 6.5000 1.7000 1.7000 0.4547 3.7120 4.0137 3.6330 5.2790 4.7250 3.8610 3.3530 2.9330 2.3660 1.9000 1.8400 1.8070 1.8030 1.8850 3.2486 0.0000
0.01520 6.5000 1.7114 1.7114 0.4623 3.7129 4.0126 3.6140 5.2450 4.6990 3.8390 3.3330 2.9150 2.3500 1.8870 1.8270 1.7940 1.7900 1.8720 3.2495 0.0000
0.01520 6.5000 1.7500 1.7500 0.4905 3.7161 4.0068 3.5440 5.1170 4.6030 3.7550 3.2580 2.8460 2.2910 1.8380 1.7780 1.7460 1.7430 1.8220 3.2526 0.0000
0.01520 6.5000 1.7699 1.7699 0.5046 3.7177 4.0040 3.5090 5.0530 4.5550 3.7130 3.2210 2.8110 2.2620 1.8130 1.7540 1.7230 1.7190 1.7980 3.2541 0.0000
0.01520 6.5000 1.8000 1.8000 0.5289 3.7203 3.9976 3.4480 4.9450 4.4730 3.6410 3.1560 2.7510 2.2110 1.7700 1.7120 1.6810 1.6770 1.7550 3.2564 0.0000
0.01520 6.5000 1.8494 1.8494 0.5713 3.7247 3.9846 3.3420 4.7640 4.3320 3.5180 3.0460 2.6490 2.1220 1.6930 1.6370 1.6080 1.6040 1.6790 3.2599 0.0000
0.01520 6.5000 1.8500 1.8500 0.5719 3.7248 3.9844 3.3400 4.7620 4.3300 3.5170 3.0440 2.6470 2.1210 1.6920 1.6360 1.6070 1.6030 1.6780 3.2599 0.0000
0.01520 6.5000 1.9000 1.9000 0.6152 3.7293 3.9707 3.2320 4.5770 4.1870 3.3920 2.9310 2.5420 2.0300 1.6120 1.5590 1.5320 1.5280 1.6000 3.2632 0.0000
0.01520 6.5000 1.9309 1.9309 0.6424 3.7320 3.9616 3.1640 4.4650 4.0990 3.3140 2.8610 2.4770 1.9730 1.5630 1.5100 1.4840 1.4810 1.5510 3.2652 0.0000
0.01520 6.5000 1.9500 1.9500 0.6613 3.7339 3.9543 3.1170 4.3890 4.0380 3.2610 2.8120 2.4310 1.9330 1.5270 1.4760 1.4510 1.4470 1.5160 3.2664 0.0000
0.01520 6.5000 2.0000 2.0000 0.7116 3.7388 3.9345 2.9910 4.1870 3.8780 3.1200 2.6830 2.3100 1.8270 1.4340 1.3840 1.3610 1.3580 1.4230 3.2693 0.0000
0.01520 6.5000 2.0462 2.0462 0.7611 3.7434 3.9134 2.8670 3.9990 3.7230 2.9830 2.5570 2.1910 1.7210 1.3400 1.2920 1.2700 1.2670 1.3290 3.2718 0.0000
0.01520 6.5000 2.0500 2.0500 0.7656 3.7438 3.9113 2.8560 3.9820 3.7090 2.9710 2.5460 2.1800 1.7120 1.3320 1.2830 1.2610 1.2580 1.3200 3.2720 0.0000
0.01520 6.5000 2.0899 2.0899 0.8160 3.7482 3.8871 2.7300 3.7960 3.5550 2.8340 2.4180 2.0600 1.6030 1.2350 1.1870 1.1670 1.1640 1.2220 3.2741 0.0000
0.01520 6.5000 2.1000 2.1000 0.8301 3.7494 3.8799 2.6950 3.7440 3.5120 2.7950 2.3820 2.0260 1.5730 1.2080 1.1600 1.1400 1.1370 1.1940 3.2746 0.0000
0.01520 6.5000 2.1304 2.1304 0.8729 3.7531 3.8579 2.5880 3.5900 3.3810 2.6790 2.2750 1.9240 1.4820 1.1250 1.0790 1.0600 1.0570 1.1110 3.2761 0.0000
0.01520 6.5000 2.1500 2.1500 0.9053 3.7558 3.8401 2.5070 3.4760 3.2820 2.5910 2.1930 1.8470 1.4120 1.0620 1.0170 0.9990 0.9960 1.0480 3.2771 0.0000
0.01520 6.5000 2.1707 2.1707 0.9404 3.7586 3.8207 2.4190 3.3520 3.1760 2.4960 2.1050 1.7640 1.3370 0.9940 0.9500 0.9330 0.9300 0.9800 3.2780 0.0000
0.01520 6.5000 2.2000 2.2000 0.9958 3.7632 3.7893 2.2810 3.1620 3.0090 2.3480 1.9660 1.6320 1.2180 0.8870 0.8440 0.8280 0.8260 0.8710 3.2794 0.0000
0.01520 6.5000 2.2226 2.2226 1.0407 3.7669 3.7636 2.1680 3.0100 2.8740 2.2270 1.8540 1.5260 1.1220 0.7990 0.7570 0.7430 0.7400 0.7820 3.2804 0.0000
0.01520 6.5000 2.2500 2.2500 1.0961 3.7716 3.7326 2.0300 2.8240 2.7060 2.0790 1.7150 1.3960 1.0050 0.6940 0.6540 0.6400 0.6380 0.6750 3.2815 0.0000
0.01520 6.5000 2.2566 2.2566 1.1095 3.7728 3.7252 1.9960 2.7800 2.6650 2.0430 1.6820 1.3650 0.9770 0.6690 0.6290 0.6150 0.6130 0.6490 3.2818 0.0000
0.01520 6.5000 2.2870 2.2870 1.1699 3.7785 3.6935 1.8450 2.5800 2.4760 1.8790 1.5320 1.2250 0.8540 0.5610 0.5230 0.5100 0.5070 0.5370 3.2831 0.0000
0.01520 6.5000 2.3000 2.3000 1.1953 3.7811 3.6809 1.7820 2.4900 2.3950 1.8110 1.4700 1.1690 0.8040 0.5170 0.4800 0.4670 0.4650 0.4910 3.2836 0.0000
0.01520 6.5000 2.3117 2.3117 1.2182 3.7835 3.6697 1.7240 2.4050 2.3220 1.7510 1.4170 1.1200 0.7600 0.4770 0.4420 0.4290 0.4270 0.4500 3.2841 0.0000
0.01520 6.5000 2.3440 2.3440 1.2814 3.7907 3.6415 1.5660 2.1630 2.1150 1.5840 1.2710 0.9870 0.6440 0.3730 0.3420 0.3310 0.3290 0.3430 3.2853 0.0000
0.01520 6.5000 2.3759 2.3759 1.3443 3.7992 3.6182 1.4090 1.9270 1.9060 1.4160 1.1250 0.8560 0.5320 0.2780 0.2500 0.2410 0.2380 0.2440 3.2865 0.0000
0.01520 6.5000 2.4000 2.4000 1.3925 3.8069 3.6052 1.2890 1.7600 1.7440 1.2860 1.0110 0.7550 0.4500 0.2120 0.1870 0.1790 0.1760 0.1790 3.2874 0.0000
0.01520 6.5000 2.4047 2.4047 1.4025 3.8086 3.6031 1.2640 1.7250 1.7100 1.2590 0.9870 0.7350 0.4340 0.2000 0.1750 0.1670 0.1640 0.1660 3.2876 0.0000
0.01520 6.5000 2.4255 2.4255 1.4466 3.8181 3.6008 1.1540 1.5690 1.5550 1.1380 0.8850 0.6500 0.3720 0.1580 0.1350 0.1280 0.1250 0.1250 3.2883 0.0000
0.01520 6.5000 2.4431 2.4431 1.4846 3.8287 3.6081 1.0590 1.4280 1.4120 1.0330 0.8010 0.5850 0.3310 0.1400 0.1180 0.1120 0.1090 0.1070 3.2889 0.0000
0.01520 6.5000 2.4579 2.4579 1.5168 3.8390 3.6199 0.9780 1.3140 1.2890 0.9440 0.7320 0.5350 0.3060 0.1350 0.1150 0.1100 0.1070 0.1040 3.2894 0.0000
0.01520 6.5000 2.4712 2.4712 1.5459 3.8493 3.6341 0.9050 1.2120 1.1780 0.8640 0.6730 0.4950 0.2880 0.1370 0.1190 0.1140 0.1110 0.1090 3.2899 0.0000
0.01520 6.5000 2.4839 2.4839 1.5738 3.8595 3.6494 0.8350 1.1170 1.0710 0.7890 0.6170 0.4590 0.2740 0.1430 0.1270 0.1220 0.1200 0.1170 3.2903 0.0000
0.01520 6.5000 2.4962 2.4962 1.6010 3.8698 3.6657 0.7680 1.0280 0.9700 0.7170 0.5660 0.4280 0.2640 0.1510 0.1360 0.1320 0.1300 0.1270 3.2907 0.0000
0.01520 6.5000 2.5082 2.5082 1.6275 3.8802 3.6826 0.7010 0.9430 0.8720 0.6490 0.5190 0.4000 0.2570 0.1630 0.1480 0.1450 0.1430 0.1410 3.2911 0.0000
0.01520 6.5000 2.5200 2.5200 1.6535 3.8906 3.7001 0.6360 0.8610 0.7770 0.5850 0.4760 0.3750 0.2530 0.1750 0.1620 0.1590 0.1580 0.1550 3.2915 0.0000
0.01520 6.5000 2.5354 2.5354 1.6873 3.9044 3.7245 0.5520 0.7540 0.6590 0.5100 0.4270 0.3500 0.2530 0.1950 0.1830 0.1810 0.1800 0.1780 3.2920 0.0000
0.01520 6.5000 2.5504 2.5504 1.7201 3.9184 3.7501 0.4700 0.6490 0.5540 0.4450 0.3850 0.3300 0.2580 0.2160 0.2070 0.2050 0.2040 0.2030 3.2924 0.0000
0.01520 6.5000 2.5652 2.5652 1.7520 3.9324 3.7769 0.3900 0.5470 0.4660 0.3910 0.3520 0.3170 0.2670 0.2400 0.2330 0.2320 0.2310 0.2300 3.2929 0.0000
0.01520 6.5000 2.5799 2.5799 1.7828 3.9466 3.8051 0.3130 0.4500 0.3980 0.3520 0.3300 0.3100 0.2820 0.2670 0.2630 0.2630 0.2620 0.2610 3.2933 0.0000
0.01520 6.5000 2.5944 2.5944 1.8126 3.9609 3.8349 0.2380 0.3630 0.3460 0.3260 0.3170 0.3110 0.3030 0.2970 0.2960 0.2980 0.2980 0.2970 3.2938 0.0000
0.01520 6.5000 2.6000 2.6000 1.8236 3.9663 3.8467 0.2110 0.3330 0.3300 0.3200 0.3150 0.3140 0.3120 0.3100 0.3110 0.3130 0.3130 0.3120 3.2939 0.0000
0.01520 6.5000 2.6061 2.6061 1.8354 3.9722 3.8595 0.1810 0.3020 0.3150 0.3140 0.3140 0.3170 0.3230 0.3240 0.3260 0.3300 0.3290 0.3290 3.2941 0.0000
0.01520 6.5000 2.6202 2.6202 1.8610 3.9857 3.8903 0.1170 0.2390 0.2900 0.3080 0.3160 0.3290 0.3510 0.3590 0.3650 0.3710 0.3710 0.3720 3.2945 0.0000
0.01520 6.5000 2.6347 2.6347 1.8846 3.9993 3.9235 0.0590 0.1840 0.2770 0.3100 0.3260 0.3470 0.3860 0.3990 0.4090 0.4180 0.4190 0.4200 3.2949 0.0000
0.01520 6.5000 2.6502 2.6502 1.9045 4.0129 3.9603 0.0090 0.1410 0.2770 0.3250 0.3460 0.3750 0.4290 0.4480 0.4610 0.4740 0.4740 0.4760 3.2954 0.0000
0.01520 6.5000 2.6588 2.6588 1.9127 4.0198 3.9813 -0.0120 0.1250 0.2840 0.3390 0.3620 0.3940 0.4560 0.4770 0.4930 0.5070 0.5080 0.5110 3.2956 0.0000
0.01520 6.5000 2.6694 2.6694 1.9129 4.0258 4.0068 -0.0120 0.1310 0.3080 0.3670 0.3930 0.4280 0.4970 0.5200 0.5370 0.5520 0.5530 0.5570 3.2959 0.0000
0.01520 6.5000 2.6969 2.6969 1.8882 4.0346 4.0710 0.0500 0.2030 0.4090 0.4720 0.5010 0.5400 0.6180 0.6450 0.6640 0.6810 0.6820 0.6860 3.2967 0.0000
0.01520 6.5000 2.7145 2.7145 1.8549 4.0348 4.1081 0.1330 0.2890 0.4950 0.5570 0.5850 0.6240 0.7030 0.7300 0.7490 0.7660 0.7670 0.7710 3.2971 0.0000
0.01520 6.5000 2.7297 2.7297 1.8218 4.0327 4.1352 0.2150 0.3720 0.5700 0.6290 0.6570 0.6950 0.7720 0.7970 0.8160 0.8320 0.8340 0.8380 3.2975 0.0000
0.01520 6.5000 2.7450 2.7450 1.7914 4.0300 4.1571 0.2920 0.4470 0.6360 0.6910 0.7180 0.7550 0.8290 0.8540 0.8710 0.8870 0.8880 0.8920 3.2979 0.0000
0.01520 6.5000 2.7628 2.7628 1.7691 4.0279 4.1740 0.3470 0.5030 0.6840 0.7360 0.7630 0.7990 0.8710 0.8950 0.9110 0.9270 0.9280 0.9320 3.2984 0.0000
0.01520 6.5000 2.8000 2.8000 1.7584 4.0284 4.1922 0.3740 0.5310 0.7130 0.7650 0.7920 0.8280 0.9000 0.9240 0.9410 0.9570 0.9580 0.9620 3.2993 0.0000
0.01520 6.5000 2.8013 2.8013 1.7580 4.0284 4.1929 0.3750 0.5320 0.7140 0.7660 0.7930 0.8290 0.9010 0.9260 0.9420 0.9580 0.9590 0.9630 3.2993 0.0000
0.01520 6.5000 2.8491 2.8491 1.8133 4.0423 4.2008 0.2370 0.4060 0.6340 0.6990 0.7290 0.7720 0.8590 0.8880 0.9080 0.9270 0.9290 0.9340 3.3004 0.0000
0.01520 6.5000 2.8791 2.8791 1.8615 4.0555 4.2096 0.1160 0.2990 0.5710 0.6460 0.6800 0.7280 0.8280 0.8610 0.8850 0.9070 0.9080 0.9140 3.3011 0.0000
0.01520 6.5000 2.9000 2.9000 1.8999 4.0668 4.2196 0.0200 0.2160 0.5260 0.6090 0.6460 0.6980 0.8100 0.8460 0.8730 0.8960 0.8980 0.9050 3.3016 0.0000
0.01520 6.5000 2.9172 2.9172 1.9336 4.0774 4.2309 -0.0640 0.1470 0.4920 0.5810 0.6200 0.6760 0.7980 0.8370 0.8660 0.8920 0.8940 0.9010 3.3020 0.0000
0.01520 6.5000 2.9334 2.9334 1.9635 4.0876 4.2444 -0.1390 0.0890 0.4670 0.5610 0.6030 0.6620 0.7940 0.8350 0.8670 0.8940 0.8960 0.9040 3.3023 0.0000
0.01520 6.5000 2.9585 2.9585 1.9957 4.1009 4.2691 -0.2190 0.0330 0.4520 0.5530 0.5980 0.6620 0.8050 0.8490 0.8840 0.9140 0.9170 0.9240 3.3029 0.0000
0.01520 6.5000 3.0000 3.0000 2.0055 4.1122 4.3104 -0.2440 0.0350 0.4850 0.5920 0.6390 0.7060 0.8590 0.9060 0.9430 0.9740 0.9770 0.9860 3.3037 0.0000
0.01520 6.5000 3.0237 3.0237 1.9998 4.1156 4.3332 -0.2290 0.0580 0.5170 0.6250 0.6730 0.7420 0.8980 0.9450 0.9830 1.0140 1.0170 1.0270 3.3042 0.0000
0.01520 6.5000 3.0628 3.0628 1.9840 4.1154 4.3538 -0.1900 0.0990 0.5570 0.6640 0.7120 0.7800 0.9360 0.9830 1.0210 1.0520 1.0560 1.0650 3.3050 0.0000
0.01520 6.5000 3.1947 3.1947 2.0235 4.1227 4.3619 -0.2890 0.0170 0.4950 0.6060 0.6550 0.7260 0.8880 0.9370 0.9760 1.0090 1.0120 1.0220 3.3074 1.0000
0.01520 6.5000 3.2000 3.2000 2.0262 4.1232 4.3618 -0.2960 0.0120 0.4910 0.6020 0.6510 0.7220 0.8840 0.9340 0.9720 1.0060 1.0090 1.0180 3.3075 1.0000
0.01520 6.5000 3.4000 3.4000 2.1257 4.1406 4.3583 -0.5440 -0.1960 0.3310 0.4510 0.5040 0.5810 0.7560 0.8090 0.8510 0.8870 0.8910 0.9010 3.3106 1.0000
0.01520 6.5000 3.6000 3.6000 2.2184 4.1568 4.3551 -0.7760 -0.3840 0.1840 0.3130 0.3690 0.4500 0.6380 0.6950 0.7390 0.7780 0.7820 0.7930 3.3133 1.0000
0.01520 6.5000 3.8000 3.8000 2.3063 4.1719 4.3510 -0.9960 -0.5590 0.0450 0.1810 0.2410 0.3260 0.5250 0.5850 0.6320 0.6730 0.6770 0.6890 3.3156 1.0000
0.01520 6.5000 4.0000 4.0000 2.3884 4.1861 4.3479 -1.2010 -0.7190 -0.0830 0.0590 0.1220 0.2120 0.4210 0.4830 0.5330 0.5760 0.5810 0.5930 3.3176 1.0000
0.01520 6.5000 4.2000 4.2000 2.4666 4.1993 4.3440 -1.3960 -0.8710 -0.2070 -0.0570 0.0090 0.1020 0.3200 0.3850 0.4370 0.4820 0.4870 0.5000 3.3194 1.0000
0.01520 6.5000 4.4000 4.4000 2.5406 4.2118 4.3400 -1.5820 -1.0130 -0.3240 -0.1680 -0.1000 -0.0020 0.2240 0.2920 0.3460 0.3930 0.3980 0.4120 3.3209 1.0000
0.01520 6.5000 4.6000 4.6000 2.6110 4.2235 4.3358 -1.7570 -1.1470 -0.4360 -0.2740 -0.2030 -0.1020 0.1320 0.2020 0.2580 0.3070 0.3120 0.3260 3.3222 1.0000
0.01520 6.5000 4.8000 4.8000 2.6784 4.2347 4.3316 -1.9260 -1.2770 -0.5430 -0.3760 -0.3020 -0.1980 0.0430 0.1150 0.1740 0.2240 0.2300 0.2440 3.3234 1.0000
0.01520 6.5000 5.0000 5.0000 2.7419 4.2452 4.3279 -2.0850 -1.3970 -0.6450 -0.4720 -0.3960 -0.2880 -0.0410 0.0340 0.0940 0.1460 0.1510 0.1670 3.3245 1.0000
0.01520 6.5000 5.2000 5.2000 2.8026 4.2545 4.3214 -2.2360 -1.5160 -0.7460 -0.5690 -0.4900 -0.3800 -0.1260 -0.0500 0.0120 0.0660 0.0710 0.0870 3.3254 1.0000
0.01520 6.5000 5.4000 5.4000 2.8611 4.2640 4.3172 -2.3830 -1.6270 -0.8410 -0.6590 -0.5780 -0.4650 -0.2050 -0.1270 -0.0640 -0.0090 -0.0020 0.0140 3.3262 1.0000
0.01520 6.5000 5.6000 5.6000 2.9175 4.2731 4.3130 -2.5240 -1.7350 -0.9330 -0.7470 -0.6630 -0.5470 -0.2820 -0.2020 -0.1370 -0.0800 -0.0740 -0.0570 3.3270 1.0000
0.01520 6.5000 5.8000 5.8000 2.9714 4.2818 4.3090 -2.6590 -1.8390 -1.0210 -0.8310 -0.7450 -0.6260 -0.3560 -0.2740 -0.2070 -0.1490 -0.1420 -0.1250 3.3277 1.0000
0.01520 6.5000 6.0000 6.0000 3.0232 4.2897 4.3038 -2.7880 -1.9400 -1.1080 -0.9140 -0.8260 -0.7050 -0.4300 -0.3460 -0.2780 -0.2180 -0.2110 -0.1930 3.3283 1.0000
0.01520 6.5000 6.2000 6.2000 3.0734 4.2977 4.2997 -2.9130 -2.0360 -1.1910 -0.9930 -0.9030 -0.7790 -0.4990 -0.4140 -0.3450 -0.2830 -0.2760 -0.2580 3.3288 1.0000
0.01520 6.5000 6.4000 6.4000 3.1221 4.3056 4.2966 -3.0350 -2.1290 -1.2710 -1.0690 -0.9770 -0.8500 -0.5650 -0.4790 -0.4080 -0.3450 -0.3380 -0.3190 3.3294 1.0000
0.01520 6.5000 7.0000 7.0000 3.2570 4.3263 4.2833 -3.3730 -2.3930 -1.4990 -1.2880 -1.1910 -1.0580 -0.7600 -0.6680 -0.5930 -0.5270 -0.5180 -0.4980 3.3306 1.0000
0.01520 6.5000 7.3854 7.3854 3.3370 4.3386 4.2759 -3.5720 -2.5490 -1.6340 -1.4180 -1.3180 -1.1810 -0.8750 -0.7810 -0.7030 -0.6340 -0.6260 -0.6030 3.3313 1.0000
0.01520 6.5000 8.0000 8.0000 3.4568 4.3570 4.2645 -3.8720 -2.7840 -1.8380 -1.6140 -1.5110 -1.3680 -1.0510 -0.9520 -0.8700 -0.7960 -0.7870 -0.7630 3.3321 1.0000
0.01520 6.5000 8.4588 8.4588 3.5387 4.3693 4.2559 -4.0770 -2.9450 -1.9790 -1.7500 -1.6440 -1.4980 -1.1740 -1.0720 -0.9880 -0.9110 -0.9010 -0.8760 3.3326 1.0000
0.01520 6.5000 9.0000 9.0000 3.6303 4.3831 4.2465 -4.3060 -3.1250 -2.1360 -1.9030 -1.7940 -1.6440 -1.3120 -1.2070 -1.1200 -1.0390 -1.0290 -1.0030 3.3331 1.0000
0.01520 6.5000 9.5620 9.5620 3.7183 4.3961 4.2368 -4.5260 -3.2990 -2.2890 -2.0510 -1.9400 -1.7870 -1.4480 -1.3400 -1.2500 -1.1660 -1.1550 -1.1280 3.3336 1.0000
0.01520 6.5000 10.0000 10.0000 3.7838 4.4058 4.2293 -4.6890 -3.4280 -2.4030 -2.1610 -2.0490 -1.8940 -1.5490 -1.4390 -1.3480 -1.2610 -1.2500 -1.2220 3.3338 1.0000
0.01520 6.5000 10.1613 10.1613 3.8067 4.4091 4.2267 -4.7470 -3.4730 -2.4440 -2.2010 -2.0870 -1.9310 -1.5840 -1.4740 -1.3820 -1.2950 -1.2830 -1.2550 3.3339 1.0000
0.01520 6.5000 11.0000 11.0000 3.9207 4.4257 4.2133 -5.0320 -3.6980 -2.6460 -2.3960 -2.2790 -2.1180 -1.7630 -1.6500 -1.5540 -1.4640 -1.4520 -1.4230 3.3344 1.0000
0.01520 6.5000 12.0000 12.0000 4.0445 4.4433 4.1978 -5.3410 -3.9450 -2.8700 -2.6120 -2.4910 -2.3250 -1.9600 -1.8440 -1.7450 -1.6520 -1.6390 -1.6090 3.3347 1.0000
0.01520 6.5000 12.1971 12.1963 4.0669 4.4464 4.1949 -5.3970 -3.9910 -2.9120 -2.6520 -2.5310 -2.3640 -1.9970 -1.8800 -1.7800 -1.6870 -1.6740 -1.6440 3.3348 1.0000
0.01520 6.5000 13.9633 13.9530 4.2553 4.4723 4.1686 -5.8680 -4.3790 -3.2660 -2.9950 -2.8670 -2.6940 -2.3120 -2.1890 -2.0860 -1.9880 -1.9750 -1.9440 3.3353 1.0000
0.01520 6.5000 14.0000 13.9894 4.2590 4.4728 4.1681 -5.8770 -4.3860 -3.2730 -3.0010 -2.8740 -2.7000 -2.3190 -2.1960 -2.0920 -1.9940 -1.9820 -1.9500 3.3353 0.0000
0.01520 6.5000 15.1680 15.1493 4.3676 4.4873 4.1518 -6.1490 -4.6130 -3.4810 -3.2040 -3.0740 -2.8970 -2.5090 -2.3830 -2.2770 -2.1780 -2.1650 -2.1330 3.3355 0.0000
0.01520 6.5000 16.0000 15.9742 4.4406 4.4968 4.1401 -6.3310 -4.7640 -3.6220 -3.3410 -3.2090 -3.0310 -2.6390 -2.5120 -2.4050 -2.3050 -2.2920 -2.2600 3.3356 0.0000
0.01520 6.5000 17.5080 17.4621 4.5601 4.5115 4.1182 -6.6300 -5.0100 -3.8510 -3.5660 -3.4330 -3.2540 -2.8570 -2.7280 -2.6200 -2.5190 -2.5050 -2.4730 3.3357 0.0000
0.01520 6.5000 18.0000 17.9463 4.5971 4.5160 4.1108 -6.7230 -5.0850 -3.9220 -3.6350 -3.5020 -3.3230 -2.9250 -2.7960 -2.6870 -2.5860 -2.5720 -2.5400 3.3358 0.0000
0.01520 6.5000 19.3046 19.2228 4.6876 4.5265 4.0922 -6.9490 -5.2660 -4.0940 -3.8040 -3.6710 -3.4920 -3.0920 -2.9630 -2.8520 -2.7510 -2.7370 -2.7040 3.3359 0.0000
0.01520 6.5000 20.0000 19.9008 4.7336 4.5317 4.0822 -7.0640 -5.3570 -4.1810 -3.8890 -3.7560 -3.5780 -3.1770 -3.0470 -2.9370 -2.8350 -2.8210 -2.7880 3.3359 0.0000
0.01520 6.5000 20.2200 20.1138 4.7470 4.5332 4.0792 -7.0980 -5.3840 -4.2060 -3.9140 -3.7810 -3.6030 -3.2020 -3.0730 -2.9620 -2.8600 -2.8460 -2.8130 3.3359 0.0000
0.01520 6.5000 21.9174 21.7494 4.8466 4.5436 4.0552 -7.3470 -5.5790 -4.3940 -4.1000 -3.9670 -3.7900 -3.3900 -3.2600 -3.1490 -3.0470 -3.0330 -3.0000 3.3360 0.0000
0.01520 6.5000 23.5544 23.3132 4.9361 4.5524 4.0310 -7.5700 -5.7550 -4.5640 -4.2680 -4.1350 -3.9590 -3.5590 -3.4300 -3.3190 -3.2170 -3.2020 -3.1690 3.3361 0.0000
0.01520 6.5000 24.0000 23.7364 4.9594 4.5546 4.0243 -7.6290 -5.8000 -4.6080 -4.3120 -4.1790 -4.0040 -3.6030 -3.4740 -3.3640 -3.2610 -3.2470 -3.2130 3.3361 0.0000
0.01520 6.5000 24.0800 23.8116 4.9633 4.5549 4.0232 -7.6380 -5.8080 -4.6160 -4.3190 -4.1870 -4.0110 -3.6110 -3.4820 -3.3710 -3.2680 -3.2540 -3.2210 3.3361 0.0000
0.01520 6.5000 25.9128 25.5241 5.0492 4.5619 3.9953 -7.8530 -5.9810 -4.7850 -4.4880 -4.3550 -4.1800 -3.7800 -3.6520 -3.5410 -3.4380 -3.4240 -3.3900 3.3361 0.0000
0.01520 6.5000 27.5918 27.0725 5.1233 4.5671 3.9675 -8.0380 -6.1340 -4.9360 -4.6370 -4.5050 -4.3290 -3.9300 -3.8010 -3.6900 -3.5870 -3.5730 -3.5390 3.3362 0.0000
0.01520 6.5000 28.0000 27.4459 5.1406 4.5682 3.9606 -8.0810 -6.1700 -4.9720 -4.6730 -4.5400 -4.3650 -3.9650 -3.8370 -3.7260 -3.6230 -3.6090 -3.5750 3.3362 0.0000
0.01520 6.5000 28.3849 27.7947 5.1560 4.5691 3.9542 -8.1200 -6.2030 -5.0040 -4.7050 -4.5730 -4.3970 -3.9970 -3.8690 -3.7580 -3.6550 -3.6410 -3.6070 3.3362 0.0000
0.01520 6.5000 30.0000 29.2442 5.2182 4.5720 3.9260 -8.2760 -6.3390 -5.1390 -4.8400 -4.7070 -4.5310 -4.1320 -4.0030 -3.8920 -3.7890 -3.7750 -3.7410 3.3362 0.0000
0.01520 6.5000 31.0019 30.1276 5.2535 4.5733 3.9088 -8.3640 -6.4190 -5.2180 -4.9180 -4.7860 -4.6100 -4.2100 -4.0820 -3.9710 -3.8680 -3.8540 -3.8200 3.3362 0.0000
0.01520 6.5000 33.8580 32.5956 5.3482 4.5752 3.8557 -8.6000 -6.6430 -5.4420 -5.1420 -5.0090 -4.8330 -4.4330 -4.3050 -4.1940 -4.0910 -4.0770 -4.0430 3.3363 0.0000
0.01520 6.5000 35.0000 33.5613 5.3840 4.5751 3.8321 -8.6900 -6.7340 -5.5320 -5.2320 -5.0990 -4.9240 -4.5240 -4.3950 -4.2840 -4.1810 -4.1670 -4.1330 3.3363 0.0000
0.01520 6.5000 36.1085 34.4800 5.4155 4.5744 3.8096 -8.7690 -6.8170 -5.6160 -5.3160 -5.1830 -5.0070 -4.6070 -4.4790 -4.3680 -4.2650 -4.2510 -4.2170 3.3363 0.0000
0.01520 6.5000 39.0068 36.8254 5.4937 4.5703 3.7437 -8.9640 -7.0390 -5.8400 -5.5410 -5.4080 -5.2320 -4.8330 -4.7040 -4.5930 -4.4910 -4.4770 -4.4430 3.3363 0.0000
0.01520 6.5000 40.0000 37.6108 5.5191 4.5684 3.7198 -9.0280 -7.1150 -5.9160 -5.6180 -5.4850 -5.3090 -4.9100 -4.7810 -4.6710 -4.5680 -4.5540 -4.5200 3.3363 0.0000
0.01520 6.5000 40.7409 38.1871 5.5368 4.5667 3.7021 -9.0720 -7.1700 -5.9720 -5.6730 -5.5410 -5.3650 -4.9660 -4.8370 -4.7260 -4.6230 -4.6090 -4.5750 3.3363 0.0000
0.01520 6.5000 44.1821 40.7945 5.6147 4.5560 3.6098 -9.2670 -7.4310 -6.2380 -5.9410 -5.8090 -5.6340 -5.2340 -5.1050 -4.9940 -4.8920 -4.8780 -4.8440 3.3363 0.0000
0.01520 6.5000 45.0000 41.3986 5.6325 4.5525 3.5846 -9.3110 -7.4960 -6.3040 -6.0090 -5.8760 -5.7010 -5.3010 -5.1720 -5.0610 -4.9590 -4.9450 -4.9110 3.3363 0.0000
0.01520 6.5000 47.6391 43.3014 5.6857 4.5391 3.4970 -9.4440 -7.7050 -6.5210 -6.2280 -6.0960 -5.9200 -5.5190 -5.3900 -5.2790 -5.1770 -5.1630 -5.1300 3.3363 0.0000
0.01520 6.5000 50.0000 44.9608 5.7309 4.5241 3.4083 -9.5570 -7.8930 -6.7200 -6.4310 -6.2980 -6.1210 -5.7220 -5.5930 -5.4820 -5.3810 -5.3680 -5.3350 3.3363 0.0000
0.01520 6.5000 51.0330 45.6775 5.7493 4.5164 3.3660 -9.6030 -7.9740 -6.8070 -6.5200 -6.3880 -6.2100 -5.8120 -5.6830 -5.5740 -5.4730 -5.4600 -5.4270 3.3363 0.0000
0.01520 6.5000 52.9469 46.9951 5.7825 4.5005 3.2815 -9.6860 -8.1430 -6.9800 -6.7000 -6.5730 -6.3990 -6.0070 -5.8800 -5.7730 -5.6740 -5.6600 -5.6280 3.3363 0.0000
0.01520 6.5000 54.7163 48.2040 5.8122 4.4841 3.1973 -9.7600 -8.3200 -7.1560 -6.8840 -6.7640 -6.5970 -6.2110 -6.0880 -5.9830 -5.8850 -5.8720 -5.8400 3.3363 0.0000
0.01520 6.5000 55.0000 48.3969 5.8169 4.4813 3.1833 -9.7720 -8.3440 -7.1820 -6.9100 -6.7900 -6.6230 -6.2380 -6.1150 -6.0100 -5.9130 -5.8990 -5.8680 3.3363 0.0000
0.01520 6.5000 55.2585 48.5734 5.8210 4.4788 3.1704 -9.7830 -8.3650 -7.2060 -6.9340 -6.8140 -6.6470 -6.2620 -6.1400 -6.0350 -5.9380 -5.9240 -5.8930 3.3363 0.0000
0.01520 6.5000 56.9958 49.7635 5.8485 4.4599 3.0780 -9.8510 -8.5010 -7.3650 -7.0980 -6.9780 -6.8110 -6.4330 -6.3120 -6.2090 -6.1140 -6.1010 -6.0700 3.3363 0.0000
0.01520 6.5000 58.4568 50.7661 5.8715 4.4415 2.9899 -9.9090 -8.6150 -7.5050 -7.2440 -7.1260 -6.9630 -6.5930 -6.4760 -6.3760 -6.2830 -6.2700 -6.2400 3.3363 0.0000
0.01520 6.5000 59.7767 51.6118 5.8915 4.4226 2.9018 -9.9590 -8.7770 -7.6600 -7.4130 -7.3040 -7.1510 -6.7900 -6.6780 -6.5810 -6.4910 -6.4790 -6.4510 3.3363 0.0000
0.01520 6.5000 60.0000 51.7419 5.8948 4.4192 2.8858 -9.9670 -8.8150 -7.6910 -7.4480 -7.3420 -7.1910 -6.8320 -6.7210 -6.6240 -6.5350 -6.5230 -6.4950 3.3363 0.0000
0.01520 6.5000 60.4361 51.9291 5.9007 4.4120 2.8527 -9.9820 -8.8740 -7.7480 -7.5090 -7.4060 -7.2580 -6.9030 -6.7940 -6.6980 -6.6110 -6.5990 -6.5710 3.3363 0.0000
0.01520 6.5000 61.7074 52.2383 5.9170 4.3882 2.7436 -10.0230 -8.9940 -7.9040 -7.6710 -7.5710 -7.4270 -7.0840 -6.9800 -6.8890 -6.8050 -6.7940 -6.7670 3.3363 0.0000
0.01520 6.5000 62.8330 52.4201 5.9311 4.3663 2.6437 -10.0580 -9.0990 -8.0450 -7.8190 -7.7230 -7.5850 -7.2540 -7.1530 -7.0660 -6.9860 -6.9760 -6.9500 3.3363 0.0000
0.01520 6.5000 63.6727 52.3623 5.9408 4.3480 2.5602 -10.0820 -9.1840 -8.1610 -7.9400 -7.8480 -7.7130 -7.3920 -7.2950 -7.2100 -7.1340 -7.1240 -7.0990 3.3363 0.0000
0.01520 6.5000 64.5130 52.2979 5.9505 4.3309 2.4815 -10.1060 -9.2620 -8.2710 -8.0560 -7.9650 -7.8340 -7.5230 -7.4280 -7.3480 -7.2750 -7.2660 -7.2430 3.3363 0.0000
0.01520 6.5000 65.2127 52.2373 5.9586 4.3183 2.4227 -10.1270 -9.3210 -8.3540 -8.1420 -8.0540 -7.9260 -7.6220 -7.5310 -7.4520 -7.3830 -7.3740 -7.3520 3.3363 0.0000
0.01520 6.5000 65.9104 52.1673 5.9667 4.3076 2.3709 -10.1470 -9.3740 -8.4290 -8.2200 -8.1340 -8.0090 -7.7120 -7.6230 -7.5470 -7.4800 -7.4720 -7.4520 3.3363 0.0000
0.01520 6.5000 66.6061 52.0532 5.9745 4.2990 2.3278 -10.1660 -9.4270 -8.4920 -8.2870 -8.2040 -8.0810 -7.7890 -7.7030 -7.6280 -7.5630 -7.5550 -7.5360 3.3363 0.0000
0.01520 6.5000 67.1625 51.6343 5.9799 4.3017 2.3300 -10.1800 -9.4270 -8.4910 -8.2850 -8.2000 -8.0770 -7.7830 -7.6960 -7.6200 -7.5550 -7.5470 -7.5280 3.3363 0.0000
0.01520 6.5000 67.8573 51.2726 5.9871 4.2995 2.3108 -10.1980 -9.4540 -8.5210 -8.3150 -8.2310 -8.1090 -7.8170 -7.7300 -7.6550 -7.5900 -7.5820 -7.5630 3.3363 0.0000
0.01520 6.5000 68.4108 50.7817 5.9921 4.3092 2.3406 -10.2100 -9.4320 -8.4840 -8.2740 -8.1880 -8.0620 -7.7640 -7.6750 -7.5990 -7.5310 -7.5230 -7.5030 3.3363 0.0000
0.01520 6.5000 68.9626 50.5531 5.9979 4.3117 2.3426 -10.2250 -9.4390 -8.4860 -8.2760 -8.1890 -8.0630 -7.7630 -7.6730 -7.5960 -7.5280 -7.5200 -7.4990 3.3363 0.0000
0.01520 6.5000 69.3769 50.4391 6.0025 4.3121 2.3388 -10.2360 -9.4490 -8.4960 -8.2850 -8.1980 -8.0720 -7.7720 -7.6820 -7.6050 -7.5370 -7.5280 -7.5070 3.3363 0.0000
0.01520 6.5000 69.9278 50.2756 6.0086 4.3137 2.3375 -10.2510 -9.4590 -8.5030 -8.2920 -8.2050 -8.0780 -7.7770 -7.6870 -7.6090 -7.5410 -7.5320 -7.5110 3.3363 0.0000
0.01520 6.5000 70.0000 50.2537 6.0094 4.3139 2.3376 -10.2530 -9.4610 -8.5030 -8.2920 -8.2050 -8.0780 -7.7770 -7.6870 -7.6090 -7.5410 -7.5320 -7.5110 3.3363 0.0000
0.01520 6.5000 71.4780 49.7626 6.0235 4.3344 2.4011 -10.2890 -9.4340 -8.4360 -8.2190 -8.1290 -7.9970 -7.6830 -7.5880 -7.5070 -7.4330 -7.4240 -7.4000 3.3363 0.0000
0.01520 6.5000 71.6361 49.2746 6.0237 4.3517 2.4658 -10.2890 -9.3790 -8.3490 -8.1270 -8.0350 -7.8990 -7.5760 -7.4780 -7.3930 -7.3160 -7.3060 -7.2810 3.3363 0.0000
0.01520 6.5000 75.9746 48.5813 6.0662 4.4180 2.6824 -10.3960 -9.2500 -8.1260 -7.8840 -7.7780 -7.6280 -7.2690 -7.1580 -7.0620 -6.9730 -6.9620 -6.9330 3.3364 0.0000
0.01520 6.5000 77.8822 48.8829 6.0862 4.4367 2.7399 -10.4460 -9.1690 -8.0640 -7.8050 -7.6880 -7.5260 -7.1590 -7.0430 -6.9440 -6.8510 -6.8390 -6.8090 3.3364 0.0000
0.01520 6.5000 77.8839 48.8836 6.0862 4.4367 2.7399 -10.4460 -9.1690 -8.0640 -7.8050 -7.6880 -7.5260 -7.1590 -7.0430 -6.9440 -6.8510 -6.8390 -6.8090 3.3364 0.0000
0.01520 6.5000 79.2698 49.4052 6.1013 4.4393 2.7395 -10.4830 -9.1970 -8.0890 -7.8290 -7.7120 -7.5490 -7.1810 -7.0640 -6.9640 -6.8710 -6.8590 -6.8290 3.3364 0.0000
0.01520 6.5000 80.6155 49.9345 6.1158 4.4423 2.7420 -10.5200 -9.2230 -8.1120 -7.8510 -7.7320 -7.5690 -7.1990 -7.0810 -6.9820 -6.8880 -6.8750 -6.8450 3.3364 0.0000
0.01520 6.5000 84.8228 51.8077 6.1632 4.4580 2.7730 -10.6380 -9.2940 -8.1610 -7.8940 -7.7740 -7.6080 -7.2300 -7.1100 -7.0070 -6.9120 -6.8990 -6.8680 3.3364 0.0000
0.01520 6.5000 85.1860 52.0047 6.1684 4.4701 2.8182 -10.6510 -9.2650 -8.1170 -7.8470 -7.7270 -7.5590 -7.1770 -7.0550 -6.9510 -6.8550 -6.8420 -6.8110 3.3364 0.0000
0.01520 6.5000 85.3604 52.0955 6.1716 4.4837 2.8699 -10.6590 -9.2200 -8.0570 -7.7850 -7.6640 -7.4970 -7.1120 -6.9890 -6.8830 -6.7860 -6.7730 -6.7410 3.3364 0.0000
0.01520 6.5000 85.4579 52.1439 6.1740 4.4970 2.9212 -10.6650 -9.1470 -7.9820 -7.7040 -7.5790 -7.4080 -7.0170 -6.8920 -6.7850 -6.6860 -6.6720 -6.6410 3.3364 0.0000
0.01520 6.5000 85.5192 52.1730 6.1762 4.5106 2.9737 -10.6700 -9.0660 -7.9040 -7.6190 -7.4870 -7.3090 -6.9120 -6.7840 -6.6750 -6.5750 -6.5610 -6.5280 3.3364 0.0000
0.01520 6.5000 85.5578 52.1903 6.1782 4.5240 3.0255 -10.6760 -9.0120 -7.8390 -7.5490 -7.4170 -7.2400 -6.8400 -6.7110 -6.6010 -6.5000 -6.4860 -6.4540 3.3364 0.0000
0.01520 6.5000 85.5806 52.2002 6.1800 4.5357 3.0706 -10.6800 -8.9580 -7.7770 -7.4840 -7.3520 -7.1750 -6.7750 -6.6460 -6.5350 -6.4330 -6.4190 -6.3860 3.3364 0.0000
0.01520 6.5000 85.5996 52.2079 6.1823 4.5505 3.1276 -10.6860 -8.8820 -7.6920 -7.3970 -7.2640 -7.0890 -6.6890 -6.5600 -6.4490 -6.3460 -6.3320 -6.2980 3.3364 0.0000
0.01520 6.5000 85.6118 52.2126 6.1845 4.5644 3.1807 -10.6910 -8.8040 -7.6070 -7.3090 -7.1770 -7.0010 -6.6010 -6.4730 -6.3620 -6.2590 -6.2450 -6.2110 3.3364 0.0000
0.01520 6.5000 85.6204 52.2157 6.1865 4.5772 3.2301 -10.6960 -8.7260 -7.5240 -7.2230 -7.0900 -6.9140 -6.5140 -6.3860 -6.2750 -6.1720 -6.1580 -6.1240 3.3364 0.0000
0.01520 6.5000 85.6286 52.2184 6.1889 4.5914 3.2845 -10.7020 -8.6390 -7.4330 -7.1280 -6.9940 -6.8170 -6.4150 -6.2860 -6.1740 -6.0710 -6.0570 -6.0220 3.3364 0.0000
0.01520 6.5000 85.6360 52.2208 6.1914 4.6044 3.3341 -10.7080 -8.5630 -7.3570 -7.0470 -6.9060 -6.7250 -6.3180 -6.1870 -6.0720 -5.9680 -5.9530 -5.9180 3.3364 1.0000
0.01520 6.5000 85.6450 52.2236 6.1944 4.6186 3.3879 -10.7160 -8.4780 -7.2680 -6.9530 -6.8110 -6.6290 -6.2200 -6.0870 -5.9720 -5.8660 -5.8520 -5.8170 3.3364 1.0000
0.01520 6.5000 85.6545 52.2264 6.1975 4.6320 3.4384 -10.7240 -8.3960 -7.1820 -6.8650 -6.7220 -6.5390 -6.1280 -5.9950 -5.8800 -5.7720 -5.7580 -5.7220 3.3364 1.0000
0.01520 6.5000 85.6660 52.2296 6.2011 4.6463 3.4919 -10.7330 -8.3090 -7.0910 -6.7720 -6.6280 -6.4440 -6.0310 -5.8970 -5.7810 -5.6730 -5.6580 -5.6230 3.3364 1.0000
0.01520 6.5000 85.6782 52.2330 6.2047 4.6595 3.5411 -10.7420 -8.2290 -7.0060 -6.6860 -6.5420 -6.3560 -5.9420 -5.8070 -5.6910 -5.5820 -5.5670 -5.5310 3.3364 1.0000
0.01520 6.5000 85.6914 52.2366 6.2081 4.6712 3.5847 -10.7500 -8.1590 -6.9320 -6.6100 -6.4650 -6.2790 -5.8630 -5.7280 -5.6100 -5.5010 -5.4860 -5.4500 3.3364 1.0000
0.01520 6.5000 85.7176 52.2437 6.2124 4.6829 3.6272 -10.7610 -8.0900 -6.8600 -6.5360 -6.3910 -6.2030 -5.7860 -5.6510 -5.5320 -5.4220 -5.4070 -5.3710 3.3364 1.0000
0.01520 6.5000 85.7543 52.2537 6.2152 4.6740 3.5890 -10.7680 -8.1570 -6.9300 -6.6070 -6.4620 -6.2750 -5.8600 -5.7240 -5.6070 -5.4970 -5.4820 -5.4460 3.3364 1.0000
0.01520 6.5000 85.7650 52.2565 6.2161 4.6630 3.5442 -10.7700 -8.2340 -7.0100 -6.6890 -6.5440 -6.3580 -5.9440 -5.8090 -5.6920 -5.5830 -5.5680 -5.5320 3.3364 1.0000
0.01520 6.5000 85.7769 52.2596 6.2176 4.6455 3.4728 -10.7740 -8.3550 -7.1370 -6.8180 -6.6740 -6.4900 -6.0780 -5.9440 -5.8270 -5.7200 -5.7050 -5.6690 3.3364 1.0000
0.01520 6.5000 85.7842 52.2614 6.2189 4.6302 3.4100 -10.7770 -8.4620 -7.2490 -6.9320 -6.7890 -6.6060 -6.1950 -6.0620 -5.9470 -5.8390 -5.8250 -5.7900 3.3364 1.0000
0.01520 6.5000 85.7915 52.2633 6.2204 4.6117 3.3347 -10.7810 -8.5880 -7.3800 -7.0680 -6.9260 -6.7440 -6.3360 -6.2030 -6.0890 -5.9830 -5.9690 -5.9340 3.3364 1.0000
0.01520 6.5000 85.7988 52.2653 6.2222 4.5896 3.2443 -10.7850 -8.7340 -7.5270 -7.2240 -7.0900 -6.9140 -6.5130 -6.3840 -6.2720 -6.1690 -6.1550 -6.1210 3.3364 1.0000
0.01520 6.5000 85.8024 52.2664 6.2231 4.5772 3.1939 -10.7880 -8.8180 -7.6150 -7.3140 -7.1820 -7.0060 -6.6060 -6.4770 -6.3660 -6.2630 -6.2490 -6.2150 3.3364 1.0000
0.01520 6.5000 85.8061 52.2667 6.2241 4.5634 3.1376 -10.7900 -8.9090 -7.7120 -7.4150 -7.2820 -7.1070 -6.7070 -6.5790 -6.4680 -6.3650 -6.3510 -6.3170 3.3364 1.0000
0.01520 6.5000 85.8098 52.2669 6.2252 4.5482 3.0758 -10.7930 -9.0030 -7.8130 -7.5190 -7.3860 -7.2110 -6.8110 -6.6820 -6.5710 -6.4690 -6.4550 -6.4210 3.3364 1.0000
0.01520 6.5000 85.8134 52.2667 6.2263 4.5319 3.0093 -10.7960 -9.0940 -7.9160 -7.6240 -7.4920 -7.3150 -6.9140 -6.7850 -6.6750 -6.5730 -6.5590 -6.5260 3.3364 1.0000
0.01520 6.5000 85.8170 52.2582 6.2278 4.5228 2.9714 -10.7990 -9.1420 -7.9700 -7.6810 -7.5480 -7.3710 -6.9720 -6.8430 -6.7320 -6.6310 -6.6180 -6.5850 3.3364 1.0000
0.01520 6.5000 85.8207 52.2577 6.2289 4.5047 2.8980 -10.8020 -9.2330 -8.0710 -7.7890 -7.6590 -7.4840 -7.0900 -6.9620 -6.8540 -6.7550 -6.7410 -6.7090 3.3364 1.0000
0.01520 6.5000 85.8244 52.2477 6.2300 4.4864 2.8237 -10.8050 -9.3550 -8.1880 -7.9160 -7.7950 -7.6280 -7.2430 -7.1190 -7.0140 -6.9160 -6.9030 -6.8720 3.3364 1.0000
0.01520 6.5000 85.8282 52.2381 6.2312 4.4662 2.7415 -10.8080 -9.4360 -8.2920 -8.0240 -7.9030 -7.7360 -7.3560 -7.2340 -7.1310 -7.0350 -7.0220 -6.9900 3.3364 1.0000
0.01520 6.5000 85.8320 52.2277 6.2324 4.4437 2.6502 -10.8110 -9.5110 -8.3970 -8.1360 -8.0170 -7.8530 -7.4830 -7.3650 -7.2650 -7.1710 -7.1580 -7.1280 3.3364 1.0000
0.01520 6.5000 85.8358 52.2162 6.2336 4.4182 2.5470 -10.8140 -9.6680 -8.5440 -8.3010 -8.1950 -8.0450 -7.6870 -7.5760 -7.4800 -7.3910 -7.3790 -7.3500 3.3364 1.0000
0.01520 6.5000 85.8398 52.1894 6.2347 4.3920 2.4410 -10.8170 -9.7760 -8.6800 -8.4450 -8.3450 -8.2010 -7.8550 -7.7500 -7.6590 -7.5740 -7.5630 -7.5360 3.3364 1.0000
0.01520 6.5000 85.8442 52.1383 6.2365 4.3727 2.3616 -10.8210 -9.8420 -8.7770 -8.5480 -8.4520 -8.3120 -7.9770 -7.8750 -7.7880 -7.7070 -7.6960 -7.6700 3.3364 1.0000
0.01520 6.5000 85.8486 52.1058 6.2378 4.3321 2.1973 -10.8240 -9.9770 -8.9830 -8.7680 -8.6770 -8.5460 -8.2340 -8.1390 -8.0580 -7.9850 -7.9760 -7.9530 3.3364 1.0000
0.01520 6.5000 85.8527 52.0315 6.2386 4.2811 1.9921 -10.8260 -10.2110 -9.2450 -9.0600 -8.9890 -8.8790 -8.5930 -8.5120 -8.4390 -8.3770 -8.3700 -8.3510 3.3364 1.0000
0.01520 6.5000 85.8559 51.9728 6.2393 4.2444 1.8442 -10.8280 -10.3220 -9.4350 -9.2600 -9.1960 -9.0970 -8.8360 -8.7640 -8.6990 -8.6460 -8.6400 -8.6250 3.3364 1.0000
0.01520 6.5000 85.8583 51.9324 6.2399 4.2129 1.7173 -10.8300 -10.4130 -9.5990 -9.4340 -9.3770 -9.2880 -9.0490 -8.9850 -8.9260 -8.8800 -8.8760 -8.8630 3.3364 1.0000
0.01520 6.5000 85.8598 51.9073 6.2403 4.1888 1.6201 -10.8310 -10.4840 -9.7250 -9.5690 -9.5190 -9.4380 -9.2170 -9.1590 -9.1040 -9.0620 -9.0590 -9.0470 3.3364 1.0000
0.01520 6.5000 85.8610 51.8884 6.2407 4.1789 1.5801 -10.8320 -10.5140 -9.7760 -9.6250 -9.5770 -9.5000 -9.2860 -9.2300 -9.1780 -9.1380 -9.1340 -9.1240 3.3364 1.0000
0.01520 6.5000 85.8652 51.8247 6.2419 4.1483 1.4557 -10.8350 -10.6460 -9.9030 -9.7840 -9.7560 -9.6990 -9.5030 -9.4600 -9.4140 -9.3830 -9.3810 -9.3720 3.3364 1.0000
0.01520 6.5000 85.8735 51.7130 6.2445 4.0410 1.0231 -10.8410 -10.8660 -10.4410 -10.3660 -10.3650 -10.3470 -10.2420 -10.2270 -10.2000 -10.1860 -10.1870 -10.1830 3.3364 1.0000
0.01520 6.5000 85.8895 51.5620 6.2488 3.9228 0.5447 -10.8520 -10.8320 -10.8200 -10.8580 -10.9070 -10.9590 -11.0000 -11.0360 -11.0360 -11.0540 -11.0600 -11.0670 3.3364 1.0000
0.01520 6.5000 85.9311 51.2999 6.2572 3.8304 0.1644 -10.8730 -10.4010 -10.7410 -10.9880 -11.1470 -11.3170 -11.5500 -11.6810 -11.7160 -11.7620 -11.7730 -11.7880 3.3364 1.0000
0.01520 6.5000 86.1606 49.8376 6.2843 3.8944 0.3807 -10.9410 -10.8330 -10.9610 -11.0240 -11.0840 -11.1580 -11.2530 -11.3090 -11.3190 -11.3460 -11.3530 -11.3630 3.3364 1.0000
0.01520 6.5000 86.3500 48.5784 6.2931 4.1790 1.4991 -10.9630 -10.6460 -9.9070 -9.7560 -9.7080 -9.6310 -9.4170 -9.3620 -9.3090 -9.2690 -9.2650 -9.2550 3.3364 1.0000
0.01520 6.5000 86.4379 48.1533 6.2983 4.1944 1.5518 -10.9760 -10.6130 -9.8410 -9.6830 -9.6310 -9.5480 -9.3230 -9.2630 -9.2080 -9.1650 -9.1610 -9.1500 3.3364 1.0000
0.01520 6.5000 86.4603 48.0435 6.3010 4.5597 3.0095 -10.9820 -9.1240 -7.9290 -7.6320 -7.5000 -7.3240 -6.9250 -6.7960 -6.6860 -6.5830 -6.5690 -6.5350 3.3364 1.0000
0.01520 6.5000 86.4618 48.0360 6.3019 4.6166 3.2361 -10.9850 -8.7600 -7.5500 -7.2370 -7.0950 -6.9120 -6.5040 -6.3710 -6.2560 -6.1500 -6.1360 -6.1010 3.3364 1.0000
0.01520 6.5000 86.4624 48.0350 6.3016 4.6198 3.2491 -10.9840 -8.7380 -7.5280 -7.2130 -7.0710 -6.8880 -6.4800 -6.3460 -6.2310 -6.1250 -6.1110 -6.0760 3.3364 1.0000
0.01520 6.5000 86.4632 48.0336 6.3013 4.6230 3.2623 -10.9830 -8.7160 -7.5040 -7.1890 -7.0470 -6.8640 -6.4550 -6.3220 -6.2060 -6.1000 -6.0860 -6.0500 3.3364 1.0000
0.01520 6.5000 86.4644 48.0316 6.3010 4.6257 3.2731 -10.9820 -8.6970 -7.4850 -7.1690 -7.0270 -6.8440 -6.4340 -6.3010 -6.1860 -6.0790 -6.0650 -6.0300 3.3364 1.0000
0.01520 6.5000 86.4660 48.0289 6.3007 4.6285 3.2847 -10.9820 -8.6780 -7.4650 -7.1480 -7.0060 -6.8230 -6.4120 -6.2790 -6.1640 -6.0570 -6.0430 -6.0070 3.3364 1.0000
0.01520 6.5000 86.4716 48.0195 6.3000 4.6355 3.3133 -10.9800 -8.6290 -7.4140 -7.0960 -6.9530 -6.7700 -6.3590 -6.2250 -6.1100 -6.0020 -5.9880 -5.9520 3.3364 1.0000
0.01520 6.5000 86.4829 48.0008 6.2994 4.6436 3.3464 -10.9780 -8.5730 -7.3550 -7.0360 -6.8920 -6.7090 -6.2970 -6.1620 -6.0460 -5.9390 -5.9240 -5.8880 3.3364 1.0000
0.01520 6.5000 86.4988 47.9745 6.2988 4.6510 3.3762 -10.9770 -8.5220 -7.3020 -6.9820 -6.8380 -6.6530 -6.2400 -6.1060 -5.9890 -5.8810 -5.8660 -5.8310 3.3364 1.0000
0.01520 6.5000 86.5306 47.9218 6.2981 4.6607 3.4150 -10.9750 -8.4550 -7.2320 -6.9110 -6.7670 -6.5810 -6.1670 -6.0320 -5.9150 -5.8060 -5.7910 -5.7550 3.3364 1.0000
0.01520 6.5000 86.5938 47.8176 6.2972 4.6757 3.4752 -10.9730 -8.3510 -7.1230 -6.8000 -6.6550 -6.4680 -6.0520 -5.9170 -5.7990 -5.6890 -5.6740 -5.6380 3.3364 1.0000
0.01520 6.5000 86.6821 47.6725 6.2960 4.6964 3.5578 -10.9700 -8.2040 -6.9720 -6.6450 -6.4960 -6.3080 -5.8870 -5.7510 -5.6320 -5.5200 -5.5050 -5.4680 3.3364 1.0000
0.01520 6.5000 86.7718 47.5258 6.2945 4.7178 3.6437 -10.9660 -8.2370 -6.9840 -6.6780 -6.5500 -6.3720 -5.9620 -5.8380 -5.7310 -5.6410 -5.6310 -5.6060 3.3364 1.0000
0.01520 6.5000 86.8167 47.4526 6.2937 4.7290 3.6885 -10.9640 -8.1640 -6.9070 -6.5990 -6.4710 -6.2920 -5.8800 -5.7550 -5.6480 -5.5570 -5.5470 -5.5210 3.3364 1.0000
0.01520 6.5000 86.8617 47.3796 6.2928 4.7404 3.7342 -10.9620 -8.0890 -6.8300 -6.5200 -6.3900 -6.2090 -5.7950 -5.6690 -5.5620 -5.4700 -5.4600 -5.4340 3.3364 1.0000
0.01520 6.5000 86.9067 47.3067 6.2919 4.7516 3.7794 -10.9600 -8.0130 -6.7520 -6.4410 -6.3100 -6.1270 -5.7110 -5.5850 -5.4770 -5.3850 -5.3740 -5.3490 3.3364 1.0000
0.01520 6.5000 86.9968 47.1618 6.2899 4.7734 3.8675 -10.9550 -7.8660 -6.6010 -6.2850 -6.1520 -5.9680 -5.5490 -5.4210 -5.3110 -5.2180 -5.2070 -5.1810 3.3364 1.0000
0.01520 6.5000 87.0872 47.0173 6.2876 4.7946 3.9529 -10.9490 -7.7210 -6.4530 -6.1340 -5.9980 -5.8120 -5.3900 -5.2610 -5.1500 -5.0560 -5.0450 -5.0180 3.3364 1.0000
0.01520 6.5000 87.1782 46.8732 6.2851 4.8155 4.0377 -10.9430 -7.5770 -6.3040 -5.9820 -5.8450 -5.6570 -5.2320 -5.1010 -4.9900 -4.8940 -4.8830 -4.8560 3.3364 1.0000
0.01520 6.5000 87.2697 46.7297 6.2822 4.8363 4.1227 -10.9360 -7.4300 -6.1550 -5.8290 -5.6910 -5.5010 -5.0720 -4.9410 -4.8290 -4.7330 -4.7210 -4.6940 3.3364 1.0000
0.01520 6.5000 87.3619 46.5871 6.2790 4.8570 4.2074 -10.9270 -7.2830 -6.0050 -5.6760 -5.5370 -5.3440 -4.9140 -4.7810 -4.6680 -4.5710 -4.5600 -4.5320 3.3364 1.0000
0.01520 6.5000 87.4547 46.4453 6.2754 4.8775 4.2914 -10.9190 -7.1370 -5.8550 -5.5240 -5.3820 -5.1890 -4.7560 -4.6220 -4.5080 -4.4100 -4.3980 -4.3710 3.3364 1.0000
0.01520 6.5000 87.5483 46.3043 6.2714 4.8975 4.3740 -10.9090 -6.9910 -5.7070 -5.3730 -5.2300 -5.0350 -4.6000 -4.4650 -4.3500 -4.2510 -4.2400 -4.2120 3.3364 1.0000
0.01520 6.5000 87.6429 46.1642 6.2671 4.9167 4.4540 -10.8980 -6.8490 -5.5630 -5.2260 -5.0820 -4.8860 -4.4480 -4.3120 -4.1970 -4.0980 -4.0860 -4.0580 3.3364 1.0000
0.01520 6.5000 87.7385 46.0251 6.2624 4.9354 4.5320 -10.8860 -6.7100 -5.4210 -5.0820 -4.9370 -4.7390 -4.3000 -4.1630 -4.0470 -3.9470 -3.9350 -3.9070 3.3364 1.0000
0.01520 6.5000 87.8353 45.8867 6.2576 4.9533 4.6074 -10.8740 -6.5740 -5.2840 -4.9420 -4.7960 -4.5970 -4.1560 -4.0190 -3.9020 -3.8010 -3.7890 -3.7610 3.3364 1.0000
0.01520 6.5000 87.9335 45.7489 6.2526 4.9702 4.6787 -10.8610 -6.4450 -5.1520 -4.8100 -4.6630 -4.4620 -4.0200 -3.8820 -3.7650 -3.6630 -3.6510 -3.6220 3.3364 1.0000
0.01520 6.5000 88.0329 45.6119 6.2476 4.9861 4.7457 -10.8490 -6.3230 -5.0290 -4.6840 -4.5360 -4.3340 -3.8910 -3.7520 -3.6350 -3.5330 -3.5210 -3.4920 3.3364 1.0000
0.01520 6.5000 88.1340 45.4745 6.2429 5.0012 4.8097 -10.8370 -6.2060 -4.9100 -4.5650 -4.4160 -4.2130 -3.7680 -3.6280 -3.5110 -3.4080 -3.3960 -3.3670 3.3364 1.0000
0.01520 6.5000 88.2368 45.3363 6.2386 5.0170 4.8758 -10.8270 -6.0850 -4.7880 -4.4410 -4.2910 -4.0870 -3.6410 -3.5020 -3.3830 -3.2800 -3.2680 -3.2380 3.3364 1.0000
0.01520 6.5000 88.3414 45.1954 6.2347 5.0325 4.9406 -10.8170 -5.9670 -4.6680 -4.3190 -4.1690 -3.9640 -3.5170 -3.3770 -3.2580 -3.1550 -3.1420 -3.1130 3.3364 1.0000
0.01520 6.5000 88.5013 44.9775 6.2294 5.0538 5.0289 -10.8040 -5.8050 -4.5030 -4.1540 -4.0020 -3.7970 -3.3480 -3.2060 -3.0870 -2.9830 -2.9700 -2.9410 3.3364 1.0000
0.01520 6.5000 88.7192 44.6728 6.2229 5.0738 5.1125 -10.7870 -5.6470 -4.3450 -3.9940 -3.8410 -3.6340 -3.1840 -3.0420 -2.9220 -2.8180 -2.8050 -2.7750 3.3364 1.0000
0.01520 6.5000 88.9397 44.3736 6.2182 5.0833 5.1522 -10.7750 -5.5690 -4.2660 -3.9130 -3.7600 -3.5530 -3.1030 -2.9600 -2.8400 -2.7360 -2.7230 -2.6930 3.3364 1.0000
0.01520 6.5000 89.1589 44.0745 6.2149 5.0914 5.1849 -10.7670 -5.5040 -4.2000 -3.8470 -3.6940 -3.4860 -3.0350 -2.8930 -2.7720 -2.6670 -2.6550 -2.6250 3.3364 1.0000
0.01520 6.5000 89.3716 43.7799 6.2128 5.1031 5.2308 -10.7620 -5.4160 -4.1120 -3.7580 -3.6040 -3.3960 -2.9440 -2.8010 -2.6800 -2.5750 -2.5620 -2.5320 3.3364 1.0000
0.01520 6.5000 89.4735 43.6344 6.2119 5.1102 5.2589 -10.7600 -5.3640 -4.0590 -3.7040 -3.5500 -3.3420 -2.8890 -2.7460 -2.6250 -2.5200 -2.5070 -2.4770 3.3364 1.0000
0.01520 6.5000 89.6190 43.4192 6.2105 5.1219 5.3049 -10.7560 -5.2790 -3.9720 -3.6170 -3.4620 -3.2530 -2.8000 -2.6560 -2.5350 -2.4300 -2.4170 -2.3870 3.3364 1.0000
0.01520 6.5000 90.0000 42.8175 6.2046 5.1374 5.3667 -10.7410 -5.1550 -3.8470 -3.4910 -3.3350 -3.1260 -2.6710 -2.5280 -2.4070 -2.3010 -2.2880 -2.2580 3.3364 1.0000
0.01520 6.5000 90.2176 42.4492 6.2002 5.1405 5.3798 -10.7310 -5.1220 -3.8140 -3.4580 -3.3020 -3.0930 -2.6380 -2.4940 -2.3730 -2.2670 -2.2540 -2.2240 3.3364 1.0000
0.01520 6.5000 92.0701 40.1320 6.1750 5.1429 5.3900 -10.6680 -5.0420 -3.7340 -3.3780 -3.2220 -3.0120 -2.5570 -2.4130 -2.2920 -2.1860 -2.1730 -2.1430 3.3364 1.0000
0.01520 6.5000 95.0000 38.4595 6.1614 5.1427 5.3843 -10.6330 -5.0090 -3.7010 -3.3450 -3.1890 -2.9800 -2.5250 -2.3810 -2.2600 -2.1540 -2.1410 -2.1110 3.3364 1.0000
0.01520 6.5000 95.9609 38.0248 6.1586 5.1426 5.3819 -10.6260 -5.0030 -3.6950 -3.3390 -3.1830 -2.9730 -2.5180 -2.3740 -2.2530 -2.1470 -2.1340 -2.1040 3.3364 2.0000
0.01520 6.5000 97.5887 37.6589 6.1601 5.1440 5.3816 -10.6300 -4.9970 -3.6890 -3.3330 -3.1770 -2.9670 -2.5120 -2.3680 -2.2470 -2.1410 -2.1280 -2.0980 3.3364 2.0000
0.01520 6.5000 100.0000 37.4117 6.1638 5.1462 5.3842 -10.6390 -4.9900 -3.6820 -3.3250 -3.1690 -2.9600 -2.5050 -2.3610 -2.2390 -2.1330 -2.1200 -2.0900 3.3364 2.0000
0.01520 6.5000 101.1024 37.1976 6.1642 5.1470 5.3842 -10.6410 -4.9860 -3.6780 -3.3210 -3.1650 -2.9560 -2.5010 -2.3570 -2.2350 -2.1290 -2.1160 -2.0860 3.3364 3.0000
0.01520 6.5000 102.6288 36.9088 6.1676 5.1496 5.3880 -10.6490 -4.9760 -3.6680 -3.3110 -3.1550 -2.9450 -2.4900 -2.3460 -2.2240 -2.1180 -2.1050 -2.0750 3.3364 3.0000
0.01520 6.5000 104.8102 36.6338 6.1727 5.1542 5.3981 -10.6620 -4.9560 -3.6480 -3.2900 -3.1340 -2.9240 -2.4690 -2.3250 -2.2030 -2.0970 -2.0840 -2.0540 3.3364 3.0000
0.01520 6.5000 106.3714 36.4320 6.1752 5.1610 5.4201 -10.6680 -4.9150 -3.6060 -3.2480 -3.0920 -2.8810 -2.4260 -2.2820 -2.1600 -2.0530 -2.0400 -2.0100 3.3364 3.0000
0.01520 6.5000 108.2434 36.0379 6.1769 5.1734 5.4633 -10.6720 -4.8320 -3.5220 -3.1640 -3.0070 -2.7960 -2.3400 -2.1950 -2.0730 -1.9660 -1.9530 -1.9230 3.3364 3.0000
0.01520 6.5000 109.3345 35.7036 6.1783 5.1868 5.5114 -10.6760 -4.7410 -3.4310 -3.0720 -2.9150 -2.7030 -2.2460 -2.1010 -1.9780 -1.8710 -1.8580 -1.8280 3.3364 3.0000
0.01520 6.5000 109.3811 35.6870 6.1784 5.1876 5.5143 -10.6760 -4.7360 -3.4260 -3.0660 -2.9090 -2.6980 -2.2410 -2.0960 -1.9730 -1.8660 -1.8530 -1.8220 3.3364 3.0000
0.01520 6.5000 109.7895 35.5376 6.1818 5.2007 5.5618 -10.6840 -4.6520 -3.3410 -2.9810 -2.8230 -2.6110 -2.1530 -2.0080 -1.8850 -1.7780 -1.7650 -1.7340 3.3364 3.0000
0.01520 6.5000 109.9355 35.4788 6.1860 5.2119 5.6015 -10.6950 -4.5860 -3.2740 -2.9130 -2.7550 -2.5420 -2.0830 -1.9380 -1.8150 -1.7070 -1.6940 -1.6630 3.3364 3.0000
0.01520 6.5000 109.9919 35.4542 6.1912 5.2234 5.6422 -10.7080 -4.5180 -3.2060 -2.8440 -2.6860 -2.4730 -2.0140 -1.8680 -1.7450 -1.6370 -1.6240 -1.5930 3.3364 3.0000
0.01520 6.5000 110.0238 35.4391 6.1960 5.2333 5.6766 -10.7200 -4.4620 -3.1490 -2.7870 -2.6280 -2.4150 -1.9560 -1.8090 -1.6860 -1.5780 -1.5650 -1.5340 3.3364 3.0000
0.01520 6.5000 110.0591 35.4215 6.2014 5.2436 5.7123 -10.7330 -4.4050 -3.0910 -2.7280 -2.5690 -2.3550 -1.8960 -1.7490 -1.6260 -1.5170 -1.5040 -1.4730 3.3364 3.0000
0.01520 6.5000 110.0956 35.4017 6.2069 5.2534 5.7459 -10.7470 -4.3500 -3.0360 -2.6730 -2.5140 -2.3000 -1.8400 -1.6930 -1.5700 -1.4610 -1.4480 -1.4170 3.3364 3.0000
0.01520 6.5000 110.1572 35.3653 6.2159 5.2682 5.7955 -10.7700 -4.2720 -2.9570 -2.5930 -2.4330 -2.2190 -1.7580 -1.6110 -1.4870 -1.3780 -1.3650 -1.3340 3.3364 3.0000
0.01520 6.5000 110.2198 35.3239 6.2251 5.2812 5.8377 -10.7930 -4.2070 -2.8920 -2.5270 -2.3670 -2.1520 -1.6910 -1.5430 -1.4190 -1.3100 -1.2970 -1.2660 3.3364 3.0000
0.01520 6.5000 110.2837 35.2767 6.2356 5.2935 5.8758 -10.8190 -4.1510 -2.8350 -2.4690 -2.3090 -2.0930 -1.6320 -1.4840 -1.3600 -1.2510 -1.2380 -1.2070 3.3364 3.0000
0.01520 6.5000 110.3253 35.2427 6.2475 5.3055 5.9116 -10.8490 -4.1000 -2.7840 -2.4180 -2.2570 -2.0410 -1.5790 -1.4310 -1.3070 -1.1980 -1.1850 -1.1540 3.3364 3.0000
0.01520 6.5000 110.3374 35.2334 6.2569 5.3151 5.9406 -10.8720 -4.0600 -2.7430 -2.3770 -2.2160 -2.0000 -1.5370 -1.3890 -1.2650 -1.1550 -1.1420 -1.1110 3.3364 3.0000
0.01520 6.5000 110.3392 35.2338 6.2624 5.3210 5.9587 -10.8860 -4.0350 -2.7170 -2.3510 -2.1900 -1.9740 -1.5110 -1.3630 -1.2390 -1.1290 -1.1160 -1.0850 3.3364 4.0000
