Z loga	M_ini   	M_act	logL	logTe	logG	mbol    UX       B       V       R       I       J       H       K       L       Lp      M int_inf stage
0.01520 7.5000 0.0900 0.0900 -2.4032 3.4034 4.3609 10.7780 19.3210 17.3580 15.7550 13.8030 11.4570 8.7230 8.1510 7.7480 7.3630 7.1210 7.2660 1.4677 0.0000
0.01520 7.5000 0.1000 0.1000 -2.3318 3.4115 4.3677 10.5990 18.7860 16.9050 15.3110 13.4390 11.1610 8.5610 7.9860 7.5910 7.2150 6.9830 7.1140 1.5704 0.0000
0.01520 7.5000 0.1152 0.1152 -2.2359 3.4220 4.3753 10.3600 18.0790 16.3070 14.7260 12.9580 10.7680 8.3430 7.7640 7.3800 7.0160 6.7950 6.9090 1.7082 0.0000
0.01520 7.5000 0.1200 0.1200 -2.2083 3.4252 4.3783 10.2910 17.8670 16.1290 14.5520 12.8160 10.6520 8.2810 7.7010 7.3190 6.9590 6.7420 6.8500 1.7478 0.0000
0.01520 7.5000 0.1212 0.1212 -2.2014 3.4260 4.3790 10.2740 17.8160 16.0850 14.5090 12.7810 10.6230 8.2660 7.6850 7.3040 6.9440 6.7280 6.8350 1.7578 0.0000
0.01520 7.5000 0.1400 0.1400 -2.1033 3.4369 4.3871 10.0280 17.1200 15.4910 13.9370 12.3080 10.2340 8.0420 7.4570 7.0880 6.7430 6.5370 6.6300 1.8959 0.0000
0.01520 7.5000 0.1600 0.1600 -2.0144 3.4468 4.3959 9.8060 16.5250 14.9740 13.4430 11.8960 9.8960 7.8390 7.2500 6.8930 6.5610 6.3640 6.4480 2.0212 0.0000
0.01520 7.5000 0.1821 0.1821 -1.9301 3.4561 4.4049 9.5950 15.9860 14.4990 12.9820 11.5090 9.5850 7.6470 7.0540 6.7090 6.3890 6.2010 6.2750 2.1392 0.0000
0.01520 7.5000 0.2167 0.2167 -1.8170 3.4681 4.4152 9.3120 15.3170 13.9010 12.4030 11.0180 9.1890 7.3890 6.7910 6.4610 6.1580 5.9800 6.0440 2.2906 0.0000
0.01520 7.5000 0.2348 0.2348 -1.7653 3.4735 4.4198 9.1830 15.0280 13.6400 12.1490 10.8010 9.0140 7.2710 6.6700 6.3480 6.0530 5.8790 5.9400 2.3572 0.0000
0.01520 7.5000 0.2448 0.2448 -1.7389 3.4763 4.4231 9.1170 14.8800 13.5040 12.0180 10.6880 8.9250 7.2110 6.6080 6.2900 6.0000 5.8280 5.8870 2.3912 0.0000
0.01520 7.5000 0.2490 0.2490 -1.7279 3.4775 4.4240 9.0900 14.8200 13.4490 11.9650 10.6420 8.8880 7.1860 6.5830 6.2660 5.9770 5.8060 5.8650 2.4048 0.0000
0.01520 7.5000 0.2500 0.2500 -1.7250 3.4778 4.4240 9.0820 14.8040 13.4350 11.9510 10.6300 8.8780 7.1800 6.5760 6.2590 5.9710 5.8000 5.8590 2.4081 0.0000
0.01520 7.5000 0.2755 0.2755 -1.6630 3.4841 4.4296 8.9270 14.4770 13.1310 11.6510 10.3680 8.6750 7.0400 6.4320 6.1240 5.8450 5.6800 5.7320 2.4838 0.0000
0.01520 7.5000 0.3000 0.3000 -1.6086 3.4900 4.4356 8.7920 14.1880 12.8620 11.3800 10.1320 8.4960 6.9190 6.3060 6.0070 5.7360 5.5770 5.6200 2.5475 0.0000
0.01520 7.5000 0.3378 0.3378 -1.5341 3.4974 4.4423 8.6050 13.8350 12.5280 11.0620 9.8530 8.2670 6.7490 6.1290 5.8400 5.5820 5.4290 5.4740 2.6315 0.0000
0.01520 7.5000 0.3500 0.3500 -1.5123 3.4997 4.4450 8.5510 13.7290 12.4280 10.9670 9.7700 8.1990 6.6990 6.0770 5.7920 5.5380 5.3860 5.4310 2.6555 0.0000
0.01520 7.5000 0.3593 0.3593 -1.4957 3.5014 4.4466 8.5090 13.6530 12.3550 10.8970 9.7080 8.1480 6.6620 6.0370 5.7550 5.5040 5.3530 5.3990 2.6728 0.0000
0.01520 7.5000 0.4000 0.4000 -1.4270 3.5084 4.4528 8.3380 13.3400 12.0560 10.6120 9.4560 7.9410 6.5060 5.8740 5.6010 5.3610 5.2170 5.2650 2.7413 0.0000
0.01520 7.5000 0.4500 0.4500 -1.3470 3.5171 4.4585 8.1370 12.9840 11.7100 10.2780 9.1590 7.7020 6.3260 5.6850 5.4220 5.1950 5.0600 5.1100 2.8110 0.0000
0.01520 7.5000 0.4748 0.4748 -1.3075 3.5215 4.4601 8.0390 12.8100 11.5380 10.1120 9.0110 7.5840 6.2380 5.5920 5.3340 5.1140 4.9830 5.0350 2.8408 0.0000
0.01520 7.5000 0.5000 0.5000 -1.2723 3.5256 4.4638 7.9510 12.6590 11.3870 9.9650 8.8800 7.4800 6.1600 5.5100 5.2570 5.0420 4.9160 4.9700 2.8685 0.0000
0.01520 7.5000 0.5289 0.5289 -1.2281 3.5309 4.4651 7.8400 12.4670 11.1950 9.7790 8.7140 7.3500 6.0630 5.4070 5.1590 4.9510 4.8310 4.8880 2.8974 0.0000
0.01520 7.5000 0.5500 0.5500 -1.1962 3.5345 4.4647 7.7600 12.3360 11.0620 9.6510 8.5990 7.2580 5.9920 5.3320 5.0880 4.8850 4.7700 4.8300 2.9166 0.0000
0.01520 7.5000 0.5851 0.5851 -1.1408 3.5416 4.4644 7.6220 12.1010 10.8220 9.4190 8.3900 7.0960 5.8720 5.2050 4.9680 4.7730 4.6670 4.7330 2.9459 0.0000
0.01520 7.5000 0.6000 0.6000 -1.1147 3.5448 4.4620 7.5570 11.9960 10.7130 9.3130 8.2940 7.0210 5.8150 5.1450 4.9110 4.7200 4.6180 4.6860 2.9574 0.0000
0.01520 7.5000 0.6202 0.6202 -1.0818 3.5499 4.4639 7.4740 11.8490 10.5600 9.1640 8.1600 6.9230 5.7460 5.0710 4.8420 4.6570 4.5620 4.6330 2.9722 0.0000
0.01520 7.5000 0.6500 0.6500 -1.0249 3.5583 4.4609 7.3320 11.6110 10.3070 8.9140 7.9340 6.7590 5.6270 4.9440 4.7250 4.5470 4.4640 4.5410 2.9924 0.0000
0.01520 7.5000 0.6640 0.6640 -0.9992 3.5629 4.4628 7.2680 11.4960 10.1830 8.7920 7.8230 6.6840 5.5760 4.8890 4.6740 4.5020 4.4250 4.5050 3.0013 0.0000
0.01520 7.5000 0.6815 0.6815 -0.9624 3.5693 4.4629 7.1760 11.3350 10.0080 8.6200 7.6670 6.5770 5.5020 4.8080 4.6020 4.4360 4.3690 4.4520 3.0119 0.0000
0.01520 7.5000 0.7000 0.7000 -0.9178 3.5771 4.4615 7.0650 11.1440 9.8020 8.4180 7.4820 6.4520 5.4120 4.7110 4.5160 4.3600 4.3020 4.3900 3.0225 0.0000
0.01520 7.5000 0.7121 0.7121 -0.8702 3.5931 4.4852 6.9460 10.8600 9.4920 8.1300 7.2240 6.3070 5.3340 4.6240 4.4520 4.3200 4.2790 4.3770 3.0292 0.0000
0.01520 7.5000 0.7500 0.7500 -0.7185 3.6413 4.5488 6.5660 9.8510 8.5060 7.3060 6.5150 5.8830 5.0710 4.3920 4.2900 4.2320 4.2200 4.3440 3.0488 0.0000
0.01520 7.5000 0.7842 0.7842 -0.6295 3.6544 4.5314 6.3440 9.3350 8.1040 6.9650 6.2210 5.6500 4.8860 4.2420 4.1490 4.1010 4.0920 4.2100 3.0649 0.0000
0.01520 7.5000 0.8000 0.8000 -0.5822 3.6619 4.5231 6.2250 9.0310 7.8840 6.7820 6.0670 5.5260 4.7900 4.1710 4.0830 4.0370 4.0290 4.1410 3.0719 0.0000
0.01520 7.5000 0.8031 0.8031 -0.5727 3.6635 4.5216 6.2020 8.9700 7.8400 6.7460 6.0380 5.5010 4.7710 4.1570 4.0700 4.0240 4.0170 4.1280 3.0732 0.0000
0.01520 7.5000 0.8307 0.8307 -0.4839 3.6789 4.5091 5.9800 8.3810 7.4260 6.4060 5.7620 5.2700 4.5960 4.0340 3.9560 3.9130 3.9070 4.0060 3.0847 0.0000
0.01520 7.5000 0.8500 0.8500 -0.4197 3.6905 4.5010 5.8190 7.9800 7.1400 6.1720 5.5720 5.1070 4.4710 3.9450 3.8720 3.8340 3.8280 3.9210 3.0922 0.0000
0.01520 7.5000 0.8593 0.8593 -0.3884 3.6961 4.4970 5.7410 7.7820 7.0050 6.0610 5.4810 5.0290 4.4120 3.9020 3.8320 3.7960 3.7910 3.8800 3.0958 0.0000
0.01520 7.5000 0.8850 0.8850 -0.3022 3.7118 4.4862 5.5260 7.2600 6.6440 5.7650 5.2370 4.8160 4.2520 3.7890 3.7250 3.6930 3.6880 3.7670 3.1051 0.0000
0.01520 7.5000 0.9000 0.9000 -0.2528 3.7208 4.4802 5.4020 6.9690 6.4440 5.6010 5.1010 4.6970 4.1610 3.7230 3.6630 3.6340 3.6300 3.7040 3.1103 0.0000
0.01520 7.5000 0.9152 0.9152 -0.2023 3.7298 4.4730 5.2760 6.6890 6.2500 5.4420 4.9660 4.5760 4.0680 3.6550 3.5980 3.5700 3.5670 3.6340 3.1153 0.0000
0.01520 7.5000 0.9338 0.9338 -0.1450 3.7401 4.4659 5.1330 6.3750 6.0290 5.2620 4.8150 4.4430 3.9670 3.5800 3.5280 3.5050 3.5020 3.5640 3.1213 0.0000
0.01520 7.5000 0.9500 0.9500 -0.1063 3.7476 4.4646 5.0360 6.1640 5.8800 5.1450 4.7150 4.3560 3.9020 3.5330 3.4840 3.4640 3.4610 3.5170 3.1264 0.0000
0.01520 7.5000 0.9566 0.9566 -0.0912 3.7505 4.4640 4.9980 6.0830 5.8230 5.0990 4.6760 4.3220 3.8760 3.5140 3.4660 3.4470 3.4450 3.4980 3.1283 0.0000
0.01520 7.5000 1.0000 1.0000 -0.0348 3.7635 4.4787 4.8570 5.7760 5.6040 4.9280 4.5340 4.1990 3.7890 3.4570 3.4140 3.3980 3.3960 3.4410 3.1408 0.0000
0.01520 7.5000 1.0073 1.0073 -0.0264 3.7656 4.4820 4.8360 5.7280 5.5700 4.9030 4.5130 4.1810 3.7770 3.4510 3.4080 3.3930 3.3910 3.4340 3.1428 0.0000
0.01520 7.5000 1.0319 1.0319 -0.0108 3.7700 4.4944 4.7970 5.6360 5.5050 4.8550 4.4740 4.1500 3.7580 3.4410 3.4000 3.3860 3.3840 3.4250 3.1493 0.0000
0.01520 7.5000 1.0500 1.0500 0.0028 3.7726 4.4986 4.7630 5.5700 5.4560 4.8160 4.4420 4.1220 3.7370 3.4260 3.3860 3.3730 3.3710 3.4090 3.1538 0.0000
0.01520 7.5000 1.0658 1.0658 0.0141 3.7745 4.5016 4.7350 5.5170 5.4150 4.7840 4.4150 4.0980 3.7190 3.4120 3.3730 3.3610 3.3590 3.3950 3.1576 0.0000
0.01520 7.5000 1.1000 1.1000 0.0620 3.7799 4.4890 4.6150 5.3290 5.2610 4.6550 4.2990 3.9920 3.6270 3.3320 3.2960 3.2850 3.2840 3.3150 3.1655 0.0000
0.01520 7.5000 1.1113 1.1113 0.0731 3.7812 4.4877 4.5870 5.2820 5.2250 4.6260 4.2740 3.9690 3.6070 3.3140 3.2790 3.2690 3.2680 3.2970 3.1680 0.0000
0.01520 7.5000 1.1355 1.1355 0.1188 3.7860 4.4706 4.4730 5.1010 5.0810 4.5070 4.1710 3.8740 3.5220 3.2360 3.2050 3.1960 3.1940 3.2170 3.1732 0.0000
0.01520 7.5000 1.1500 1.1500 0.1468 3.7890 4.4601 4.4030 4.9900 4.9930 4.4350 4.1080 3.8150 3.4700 3.1880 3.1590 3.1510 3.1490 3.1680 3.1762 0.0000
0.01520 7.5000 1.1747 1.1747 0.1895 3.7935 4.4442 4.2960 4.8320 4.8600 4.3240 4.0090 3.7240 3.3880 3.1140 3.0880 3.0800 3.0780 3.0930 3.1811 0.0000
0.01520 7.5000 1.2000 1.2000 0.2314 3.7981 4.4300 4.1910 4.6780 4.7300 4.2150 3.9120 3.6350 3.3090 3.0430 3.0190 3.0130 3.0110 3.0210 3.1859 0.0000
0.01520 7.5000 1.2500 1.2500 0.3257 3.8079 4.3927 3.9560 4.3720 4.4460 3.9710 3.6880 3.4260 3.1240 2.8770 2.8560 2.8510 2.8490 2.8540 3.1947 0.0000
0.01520 7.5000 1.3000 1.3000 0.4197 3.8192 4.3612 3.7210 4.0780 4.1600 3.7270 3.4650 3.2220 2.9470 2.7230 2.7050 2.7020 2.6990 2.7010 3.2028 0.0000
0.01520 7.5000 1.3500 1.3500 0.4983 3.8296 4.3405 3.5240 3.8360 3.9200 3.5230 3.2810 3.0550 2.8040 2.6010 2.5850 2.5830 2.5800 2.5800 3.2102 0.0000
0.01520 7.5000 1.3708 1.3708 0.5323 3.8350 4.3349 3.4390 3.7330 3.8150 3.4350 3.2020 2.9860 2.7480 2.5560 2.5400 2.5380 2.5360 2.5350 3.2131 1.0000
0.01520 7.5000 1.4000 1.4000 0.5748 3.8406 4.3239 3.3330 3.6110 3.6880 3.3250 3.1030 2.8970 2.6710 2.4900 2.4760 2.4740 2.4720 2.4710 3.2171 1.0000
0.01520 7.5000 1.4500 1.4500 0.6422 3.8515 4.3152 3.1650 3.4150 3.4820 3.1510 2.9500 2.7620 2.5600 2.4000 2.3880 2.3870 2.3850 2.3840 3.2234 1.0000
0.01520 7.5000 1.5000 1.5000 0.7072 3.8636 4.3134 3.0020 3.2290 3.2810 2.9830 2.8050 2.6400 2.4640 2.3270 2.3150 2.3160 2.3140 2.3130 3.2292 1.0000
0.01520 7.5000 1.5500 1.5500 0.7694 3.8769 4.3185 2.8460 3.0550 3.0880 2.8240 2.6710 2.5300 2.3820 2.2690 2.2590 2.2600 2.2590 2.2580 3.2346 1.0000
0.01520 7.5000 1.6000 1.6000 0.8299 3.8902 4.3248 2.6950 2.8880 2.9030 2.6720 2.5440 2.4270 2.3060 2.2170 2.2080 2.2100 2.2080 2.2080 3.2396 1.0000
0.01520 7.5000 1.6500 1.6500 0.8871 3.9027 4.3312 2.5520 2.7350 2.7310 2.5330 2.4280 2.3350 2.2370 2.1670 2.1590 2.1620 2.1610 2.1610 3.2442 1.0000
0.01520 7.5000 1.7000 1.7000 0.9427 3.9147 4.3364 2.4130 2.5870 2.5690 2.4020 2.3200 2.2470 2.1710 2.1180 2.1110 2.1140 2.1130 2.1130 3.2486 1.0000
0.01520 7.5000 1.7500 1.7500 0.9963 3.9260 4.3408 2.2790 2.4460 2.4180 2.2820 2.2190 2.1650 2.1080 2.0690 2.0630 2.0660 2.0660 2.0660 3.2526 1.0000
0.01520 7.5000 1.8000 1.8000 1.0480 3.9368 4.3444 2.1500 2.3080 2.2800 2.1710 2.1270 2.0880 2.0480 2.0210 2.0160 2.0180 2.0180 2.0190 3.2564 1.0000
0.01520 7.5000 1.8500 1.8500 1.0967 3.9468 4.3477 2.0280 2.1790 2.1590 2.0740 2.0430 2.0170 1.9920 1.9740 1.9700 1.9730 1.9730 1.9730 3.2599 1.0000
0.01520 7.5000 1.9000 1.9000 1.1443 3.9565 4.3504 1.9090 2.0550 2.0490 1.9840 1.9640 1.9490 1.9370 1.9270 1.9250 1.9290 1.9290 1.9290 3.2632 1.0000
0.01520 7.5000 1.9500 1.9500 1.1909 3.9656 4.3517 1.7930 1.9360 1.9460 1.8990 1.8880 1.8820 1.8830 1.8790 1.8790 1.8830 1.8830 1.8840 3.2664 1.0000
0.01520 7.5000 2.0000 2.0000 1.2356 3.9744 4.3529 1.6810 1.8230 1.8520 1.8210 1.8180 1.8200 1.8310 1.8330 1.8340 1.8390 1.8400 1.8400 3.2693 1.0000
0.01520 7.5000 2.0500 2.0500 1.2787 3.9828 4.3541 1.5730 1.7170 1.7650 1.7480 1.7510 1.7600 1.7810 1.7870 1.7910 1.7970 1.7980 1.7990 3.2720 1.0000
0.01520 7.5000 2.1000 2.1000 1.3210 3.9908 4.3544 1.4670 1.6140 1.6820 1.6770 1.6860 1.7010 1.7320 1.7410 1.7470 1.7550 1.7560 1.7570 3.2746 1.0000
0.01520 7.5000 2.1500 2.1500 1.3621 3.9985 4.3542 1.3650 1.5150 1.6030 1.6100 1.6230 1.6420 1.6820 1.6960 1.7030 1.7130 1.7140 1.7160 3.2771 1.0000
0.01520 7.5000 2.2000 2.2000 1.4019 4.0062 4.3551 1.2650 1.4190 1.5290 1.5470 1.5640 1.5880 1.6370 1.6530 1.6630 1.6740 1.6750 1.6770 3.2794 1.0000
0.01520 7.5000 2.2500 2.2500 1.4410 4.0132 4.3538 1.1670 1.3250 1.4560 1.4830 1.5040 1.5320 1.5880 1.6070 1.6180 1.6310 1.6320 1.6350 3.2815 1.0000
0.01520 7.5000 2.3000 2.3000 1.4790 4.0201 4.3531 1.0730 1.2350 1.3870 1.4220 1.4460 1.4770 1.5410 1.5630 1.5760 1.5910 1.5920 1.5950 3.2836 1.0000
0.01520 7.5000 2.4000 2.4000 1.5519 4.0331 4.3506 0.8900 1.0620 1.2560 1.3050 1.3330 1.3710 1.4490 1.4750 1.4920 1.5090 1.5100 1.5150 3.2874 1.0000
0.01520 7.5000 2.6000 2.6000 1.6887 4.0567 4.3431 0.5480 0.7420 1.0140 1.0840 1.1200 1.1680 1.2700 1.3030 1.3270 1.3480 1.3500 1.3560 3.2939 1.0000
0.01520 7.5000 2.8000 2.8000 1.8149 4.0779 4.3337 0.2330 0.4520 0.7950 0.8800 0.9210 0.9770 1.0990 1.1380 1.1670 1.1930 1.1950 1.2020 3.2993 1.0000
0.01520 7.5000 3.0000 3.0000 1.9322 4.0970 4.3231 -0.0600 0.1890 0.5940 0.6910 0.7350 0.7980 0.9380 0.9810 1.0150 1.0440 1.0470 1.0540 3.3037 1.0000
0.01520 7.5000 3.0149 3.0149 1.9406 4.0984 4.3223 -0.0810 0.1710 0.5790 0.6770 0.7220 0.7850 0.9260 0.9700 1.0040 1.0330 1.0360 1.0440 3.3040 1.0000
0.01520 7.5000 3.2000 3.2000 2.0419 4.1147 4.3121 -0.3350 -0.0510 0.4070 0.5150 0.5620 0.6300 0.7860 0.8330 0.8700 0.9020 0.9050 0.9140 3.3075 1.0000
0.01520 7.5000 3.4000 3.4000 2.1453 4.1311 4.3007 -0.5930 -0.2710 0.2320 0.3480 0.3990 0.4730 0.6400 0.6920 0.7320 0.7670 0.7700 0.7800 3.3106 1.0000
0.01520 7.5000 3.6000 3.6000 2.2428 4.1463 4.2889 -0.8370 -0.4790 0.0660 0.1910 0.2450 0.3230 0.5020 0.5570 0.6000 0.6370 0.6400 0.6510 3.3133 1.0000
0.01520 7.5000 3.8000 3.8000 2.3349 4.1606 4.2771 -1.0670 -0.6690 -0.0890 0.0430 0.1000 0.1810 0.3720 0.4300 0.4750 0.5140 0.5180 0.5290 3.3156 1.0000
0.01520 7.5000 3.8535 3.8535 2.3587 4.1642 4.2737 -1.1270 -0.7180 -0.1300 0.0040 0.0620 0.1450 0.3380 0.3960 0.4420 0.4820 0.4860 0.4970 3.3162 1.0000
0.01520 7.5000 4.0000 4.0000 2.4227 4.1738 4.2647 -1.2870 -0.8490 -0.2380 -0.0990 -0.0390 0.0470 0.2470 0.3070 0.3550 0.3960 0.4000 0.4120 3.3176 1.0000
0.01520 7.5000 4.2000 4.2000 2.5067 4.1864 4.2520 -1.4970 -1.0190 -0.3800 -0.2350 -0.1720 -0.0830 0.1260 0.1890 0.2390 0.2820 0.2860 0.2990 3.3194 1.0000
0.01520 7.5000 4.4000 4.4000 2.5871 4.1981 4.2389 -1.6980 -1.1820 -0.5180 -0.3660 -0.3010 -0.2080 0.0090 0.0740 0.1260 0.1710 0.1760 0.1890 3.3209 1.0000
0.01520 7.5000 4.4869 4.4869 2.6209 4.2030 4.2332 -1.7820 -1.2500 -0.5760 -0.4220 -0.3560 -0.2610 -0.0410 0.0250 0.0780 0.1240 0.1290 0.1420 3.3215 1.0000
0.01520 7.5000 4.6000 4.6000 2.6642 4.2092 4.2254 -1.8900 -1.3380 -0.6510 -0.4930 -0.4260 -0.3290 -0.1050 -0.0380 0.0160 0.0630 0.0680 0.0810 3.3222 1.0000
0.01520 7.5000 4.7774 4.7774 2.7301 4.2184 4.2128 -2.0550 -1.4710 -0.7660 -0.6040 -0.5340 -0.4340 -0.2040 -0.1350 -0.0790 -0.0310 -0.0260 -0.0130 3.3233 1.0000
0.01520 7.5000 4.8000 4.8000 2.7385 4.2196 4.2111 -2.0760 -1.4880 -0.7800 -0.6180 -0.5470 -0.4480 -0.2170 -0.1480 -0.0920 -0.0430 -0.0380 -0.0240 3.3234 1.0000
0.01520 7.5000 4.9731 4.9731 2.8009 4.2281 4.1982 -2.2320 -1.6140 -0.8910 -0.7230 -0.6510 -0.5490 -0.3120 -0.2410 -0.1840 -0.1340 -0.1290 -0.1140 3.3243 1.0000
0.01520 7.5000 5.0000 5.0000 2.8105 4.2294 4.1961 -2.2560 -1.6340 -0.9080 -0.7400 -0.6670 -0.5640 -0.3270 -0.2560 -0.1980 -0.1480 -0.1430 -0.1280 3.3245 1.0000
0.01520 7.5000 5.0326 5.0326 2.8220 4.2309 4.1935 -2.2850 -1.6580 -0.9280 -0.7590 -0.6860 -0.5830 -0.3450 -0.2730 -0.2150 -0.1650 -0.1600 -0.1450 3.3246 1.0000
0.01520 7.5000 5.2000 5.2000 2.8808 4.2386 4.1795 -2.4320 -1.7780 -1.0340 -0.8610 -0.7860 -0.6810 -0.4380 -0.3650 -0.3050 -0.2540 -0.2490 -0.2340 3.3254 1.0000
0.01520 7.5000 5.3480 5.3480 2.9315 4.2450 4.1669 -2.5590 -1.8820 -1.1260 -0.9500 -0.8730 -0.7660 -0.5190 -0.4440 -0.3830 -0.3310 -0.3260 -0.3100 3.3260 1.0000
0.01520 7.5000 5.4000 5.4000 2.9491 4.2472 4.1623 -2.6030 -1.9190 -1.1580 -0.9810 -0.9040 -0.7960 -0.5470 -0.4720 -0.4110 -0.3580 -0.3530 -0.3370 3.3262 1.0000
0.01520 7.5000 5.4570 5.4570 2.9681 4.2496 4.1573 -2.6500 -1.9580 -1.1930 -1.0150 -0.9370 -0.8280 -0.5780 -0.5020 -0.4410 -0.3880 -0.3830 -0.3670 3.3265 1.0000
0.01520 7.5000 5.6000 5.6000 3.0155 4.2554 4.1442 -2.7690 -2.0570 -1.2810 -1.0990 -1.0200 -0.9100 -0.6560 -0.5790 -0.5170 -0.4630 -0.4570 -0.4410 3.3270 1.0000
0.01520 7.5000 5.8000 5.8000 3.0802 4.2629 4.1248 -2.9300 -2.1920 -1.4030 -1.2170 -1.1360 -1.0240 -0.7640 -0.6870 -0.6230 -0.5670 -0.5610 -0.5450 3.3277 1.0000
0.01520 7.5000 5.8593 5.8593 3.0991 4.2650 4.1190 -2.9780 -2.2320 -1.4390 -1.2520 -1.1700 -1.0570 -0.7960 -0.7180 -0.6540 -0.5980 -0.5920 -0.5760 3.3279 1.0000
0.01520 7.5000 6.0000 6.0000 3.1438 4.2700 4.1043 -3.0900 -2.3270 -1.5250 -1.3350 -1.2520 -1.1380 -0.8740 -0.7940 -0.7290 -0.6730 -0.6670 -0.6500 3.3283 1.0000
0.01520 7.5000 6.0684 6.0684 3.1652 4.2723 4.0970 -3.1430 -2.3730 -1.5660 -1.3760 -1.2920 -1.1760 -0.9110 -0.8310 -0.7660 -0.7090 -0.7030 -0.6860 3.3285 1.0000
0.01520 7.5000 6.2000 6.2000 3.2064 4.2764 4.0816 -3.2460 -2.4620 -1.6480 -1.4550 -1.3700 -1.2530 -0.9860 -0.9050 -0.8380 -0.7810 -0.7740 -0.7580 3.3288 1.0000
0.01520 7.5000 6.2346 6.2346 3.2171 4.2775 4.0776 -3.2730 -2.4850 -1.6690 -1.4750 -1.3900 -1.2730 -1.0050 -0.9240 -0.8570 -0.7990 -0.7930 -0.7760 3.3289 1.0000
0.01520 7.5000 6.4000 6.4000 3.2686 4.2822 4.0565 -3.4010 -2.5980 -1.7730 -1.5770 -1.4910 -1.3710 -1.1010 -1.0190 -0.9510 -0.8930 -0.8860 -0.8690 3.3294 1.0000
0.01520 7.5000 6.4567 6.4567 3.2858 4.2837 4.0492 -3.4450 -2.6360 -1.8080 -1.6110 -1.5250 -1.4050 -1.1330 -1.0510 -0.9830 -0.9240 -0.9180 -0.9000 3.3295 1.0000
0.01520 7.5000 6.6500 6.6500 3.3445 4.2885 4.0223 -3.5910 -2.7680 -1.9310 -1.7310 -1.6440 -1.5220 -1.2470 -1.1640 -1.0950 -1.0350 -1.0290 -1.0110 3.3299 1.0000
0.01520 7.5000 6.8269 6.8269 3.3978 4.2923 3.9957 -3.7250 -2.8890 -2.0450 -1.8430 -1.7550 -1.6320 -1.3540 -1.2700 -1.2010 -1.1400 -1.1330 -1.1150 3.3303 1.0000
0.01520 7.5000 6.9892 6.9892 3.4467 4.2953 3.9689 -3.8470 -3.0030 -2.1520 -1.9480 -1.8600 -1.7360 -1.4560 -1.3720 -1.3020 -1.2400 -1.2330 -1.2150 3.3306 1.0000
0.01520 7.5000 7.0000 7.0000 3.4500 4.2955 3.9671 -3.8550 -3.0110 -2.1590 -1.9560 -1.8670 -1.7430 -1.4630 -1.3780 -1.3090 -1.2470 -1.2400 -1.2220 3.3306 1.0000
0.01520 7.5000 7.0006 7.0006 3.4502 4.2955 3.9670 -3.8550 -3.0110 -2.1600 -1.9560 -1.8670 -1.7430 -1.4640 -1.3790 -1.3090 -1.2480 -1.2410 -1.2220 3.3306 1.0000
0.01520 7.5000 7.2064 7.2064 3.5119 4.2979 3.9274 -4.0100 -3.1600 -2.3030 -2.0980 -2.0080 -1.8840 -1.6020 -1.5170 -1.4470 -1.3850 -1.3780 -1.3590 3.3310 1.0000
0.01520 7.5000 7.3772 7.3772 3.5632 4.2991 3.8910 -4.1380 -3.2880 -2.4260 -2.2200 -2.1310 -2.0060 -1.7230 -1.6380 -1.5670 -1.5050 -1.4980 -1.4790 3.3313 1.0000
0.01520 7.5000 7.5465 7.5465 3.6142 4.2993 3.8508 -4.2650 -3.4180 -2.5540 -2.3480 -2.2580 -2.1330 -1.8500 -1.7640 -1.6940 -1.6310 -1.6240 -1.6060 3.3315 1.0000
0.01520 7.5000 7.7002 7.7002 3.6615 4.2981 3.8075 -4.3840 -3.5440 -2.6800 -2.4740 -2.3850 -2.2600 -1.9780 -1.8920 -1.8220 -1.7590 -1.7520 -1.7340 3.3317 1.0000
0.01520 7.5000 7.8286 7.8286 3.7018 4.2961 3.7665 -4.4850 -3.6560 -2.7930 -2.5870 -2.4990 -2.3750 -2.0940 -2.0080 -1.9380 -1.8760 -1.8690 -1.8510 3.3319 1.0000
0.01520 7.5000 7.9830 7.9830 3.7506 4.2924 3.7110 -4.6070 -3.7960 -2.9370 -2.7320 -2.6450 -2.5230 -2.2430 -2.1590 -2.0890 -2.0280 -2.0210 -2.0030 3.3321 1.0000
0.01520 7.5000 8.0000 8.0000 3.7562 4.2917 3.7039 -4.6200 -3.8130 -2.9550 -2.7500 -2.6630 -2.5410 -2.2620 -2.1770 -2.1070 -2.0470 -2.0400 -2.0220 3.3321 1.0000
0.01520 7.5000 8.1115 8.1115 3.7911 4.2877 3.6587 -4.7080 -3.9180 -3.0650 -2.8620 -2.7760 -2.6550 -2.3780 -2.2950 -2.2250 -2.1650 -2.1590 -2.1410 3.3322 1.0000
0.01520 7.5000 8.2309 8.2309 3.8295 4.2814 3.6017 -4.8040 -4.0400 -3.1960 -2.9950 -2.9110 -2.7920 -2.5190 -2.4370 -2.3680 -2.3090 -2.3030 -2.2860 3.3324 1.0000
0.01520 7.5000 8.3402 8.3402 3.8649 4.2747 3.5449 -4.8920 -4.1570 -3.3230 -3.1240 -3.0410 -2.9250 -2.6560 -2.5760 -2.5080 -2.4500 -2.4440 -2.4270 3.3325 1.0000
0.01520 7.5000 8.4404 8.4404 3.8990 4.2667 3.4842 -4.9780 -4.2760 -3.4520 -3.2560 -3.1760 -3.0620 -2.7980 -2.7190 -2.6530 -2.5970 -2.5910 -2.5750 3.3326 1.0000
0.01520 7.5000 8.5311 8.5311 3.9323 4.2596 3.4273 -5.0610 -4.3900 -3.5740 -3.3810 -3.3030 -3.1930 -2.9320 -2.8550 -2.7900 -2.7350 -2.7290 -2.7140 3.3327 1.0000
0.01520 7.5000 8.5832 8.5832 3.9527 4.2573 3.4002 -5.1120 -4.4520 -3.6390 -3.4460 -3.3690 -3.2590 -3.0000 -2.9240 -2.8590 -2.8040 -2.7980 -2.7830 3.3328 1.0000
0.01520 7.5000 8.6235 8.6235 3.9750 4.2660 3.4148 -5.1670 -4.4760 -3.6480 -3.4520 -3.3720 -3.2590 -2.9950 -2.9160 -2.8500 -2.7940 -2.7880 -2.7720 3.3328 1.0000
0.01520 7.5000 8.6386 8.6386 3.9893 4.2770 3.4451 -5.2030 -4.4700 -3.6250 -3.4250 -3.3420 -3.2250 -2.9530 -2.8730 -2.8040 -2.7460 -2.7400 -2.7230 3.3328 1.0000
0.01520 7.5000 8.6442 8.6442 4.0022 4.2882 3.4772 -5.2350 -4.4610 -3.5970 -3.3920 -3.3070 -3.1860 -2.9070 -2.8240 -2.7540 -2.6930 -2.6860 -2.6690 3.3328 1.0000
0.01520 7.5000 8.6467 8.6467 4.0171 4.2989 3.5051 -5.2730 -4.4580 -3.5770 -3.3680 -3.2800 -3.1550 -2.8700 -2.7840 -2.7130 -2.6500 -2.6430 -2.6240 3.3328 1.0000
0.01520 7.5000 8.6480 8.6480 4.0335 4.3081 3.5258 -5.3140 -4.4650 -3.5690 -3.3570 -3.2660 -3.1380 -2.8480 -2.7590 -2.6860 -2.6210 -2.6140 -2.5940 3.3328 1.0000
0.01520 7.5000 8.6487 8.6487 4.0435 4.3136 3.5380 -5.3390 -4.4710 -3.5650 -3.3500 -3.2590 -3.1290 -2.8350 -2.7450 -2.6710 -2.6050 -2.5970 -2.5770 3.3328 2.0000
0.01520 7.5000 8.6491 8.6491 4.0260 4.3083 3.5340 -5.2950 -4.4450 -3.5490 -3.3370 -3.2460 -3.1180 -2.8280 -2.7390 -2.6660 -2.6010 -2.5940 -2.5740 3.3328 2.0000
0.01520 7.5000 8.6494 8.6494 4.0095 4.3014 3.5229 -5.2540 -4.4290 -3.5440 -3.3340 -3.2450 -3.1200 -2.8340 -2.7470 -2.6750 -2.6120 -2.6040 -2.5850 3.3328 2.0000
0.01520 7.5000 8.6497 8.6497 3.9967 4.2930 3.5023 -5.2220 -4.4270 -3.5570 -3.3500 -3.2630 -3.1410 -2.8600 -2.7750 -2.7040 -2.6420 -2.6350 -2.6180 3.3328 2.0000
0.01520 7.5000 8.6500 8.6500 3.9883 4.2817 3.4655 -5.2010 -4.4490 -3.5970 -3.3950 -3.3110 -3.1920 -2.9180 -2.8360 -2.7670 -2.7080 -2.7010 -2.6840 3.3328 2.0000
0.01520 7.5000 8.6503 8.6503 3.9885 4.2702 3.4191 -5.2010 -4.4950 -3.6600 -3.4620 -3.3820 -3.2670 -3.0000 -2.9200 -2.8530 -2.7970 -2.7910 -2.7740 3.3328 2.0000
0.01520 7.5000 8.6506 8.6506 3.9938 4.2584 3.3668 -5.2140 -4.5540 -3.7370 -3.5440 -3.4670 -3.3570 -3.0960 -3.0200 -2.9550 -2.9000 -2.8940 -2.8780 3.3328 2.0000
0.01520 7.5000 8.6509 8.6509 4.0013 4.2464 3.3116 -5.2330 -4.6190 -3.8200 -3.6330 -3.5590 -3.4520 -3.2000 -3.1260 -3.0630 -3.0100 -3.0040 -2.9890 3.3328 2.0000
0.01520 7.5000 8.6512 8.6512 4.0089 4.2344 3.2557 -5.2520 -4.6840 -3.9050 -3.7220 -3.6520 -3.5500 -3.3040 -3.2330 -3.1720 -3.1220 -3.1160 -3.1020 3.3328 2.0000
0.01520 7.5000 8.6515 8.6515 4.0156 4.2223 3.2005 -5.2690 -4.7460 -3.9870 -3.8100 -3.7430 -3.6450 -3.4070 -3.3390 -3.2800 -3.2320 -3.2270 -3.2130 3.3328 2.0000
0.01520 7.5000 8.6518 8.6518 4.0210 4.2101 3.1465 -5.2830 -4.8050 -4.0660 -3.8940 -3.8310 -3.7370 -3.5070 -3.4420 -3.3850 -3.3380 -3.3340 -3.3220 3.3328 2.0000
0.01520 7.5000 8.6520 8.6520 4.0250 4.1978 3.0934 -5.2930 -4.8590 -4.1420 -3.9750 -3.9160 -3.8260 -3.6040 -3.5420 -3.4870 -3.4430 -3.4390 -3.4270 3.3328 2.0000
0.01520 7.5000 8.6524 8.6524 4.0286 4.1826 3.0287 -5.3020 -4.9220 -4.2330 -4.0730 -4.0170 -3.9340 -3.7220 -3.6630 -3.6110 -3.5690 -3.5660 -3.5540 3.3328 2.0000
0.01520 7.5000 8.6526 8.6526 4.0303 4.1702 2.9778 -5.3060 -4.9690 -4.3020 -4.1480 -4.0960 -4.0170 -3.8140 -3.7580 -3.7070 -3.6680 -3.6650 -3.6540 3.3328 2.0000
0.01520 7.5000 8.6529 8.6529 4.0313 4.1579 2.9275 -5.3080 -5.0130 -4.3690 -4.2210 -4.1730 -4.0980 -3.9040 -3.8510 -3.8030 -3.7650 -3.7620 -3.7520 3.3328 2.0000
0.01520 7.5000 8.6531 8.6531 4.0316 4.1455 2.8777 -5.3090 -5.0530 -4.4340 -4.2910 -4.2470 -4.1770 -3.9920 -3.9420 -3.8960 -3.8610 -3.8580 -3.8480 3.3328 2.0000
0.01520 7.5000 8.6533 8.6533 4.0314 4.1332 2.8287 -5.3080 -5.0890 -4.4950 -4.3590 -4.3180 -4.2530 -4.0770 -4.0300 -3.9870 -3.9530 -3.9510 -3.9420 3.3328 2.0000
0.01520 7.5000 8.6536 8.6536 4.0305 4.1208 2.7799 -5.3060 -5.1230 -4.5560 -4.4260 -4.3890 -4.3280 -4.1610 -4.1170 -4.0760 -4.0450 -4.0430 -4.0350 3.3328 2.0000
0.01520 7.5000 8.6538 8.6538 4.0289 4.1053 2.7197 -5.3020 -5.1620 -4.6290 -4.5070 -4.4740 -4.4200 -4.2640 -4.2250 -4.1860 -4.1580 -4.1560 -4.1480 3.3328 2.0000
0.01520 7.5000 8.6540 8.6540 4.0271 4.0930 2.6719 -5.2980 -5.1870 -4.6860 -4.5690 -4.5400 -4.4910 -4.3460 -4.3100 -4.2730 -4.2470 -4.2450 -4.2390 3.3328 2.0000
0.01520 7.5000 8.6542 8.6542 4.0249 4.0806 2.6248 -5.2920 -5.2100 -4.7400 -4.6300 -4.6040 -4.5600 -4.4250 -4.3930 -4.3580 -4.3340 -4.3330 -4.3270 3.3328 2.0000
0.01520 7.5000 8.6544 8.6544 4.0216 4.0651 2.5659 -5.2840 -5.2310 -4.8060 -4.7030 -4.6820 -4.6440 -4.5230 -4.4950 -4.4630 -4.4410 -4.4400 -4.4350 3.3328 2.0000
0.01520 7.5000 8.6546 8.6546 4.0187 4.0527 2.5195 -5.2770 -5.2430 -4.8560 -4.7580 -4.7400 -4.7080 -4.5980 -4.5740 -4.5440 -4.5250 -4.5240 -4.5190 3.3328 2.0000
0.01520 7.5000 8.6547 8.6547 4.0154 4.0403 2.4731 -5.2690 -5.2500 -4.9020 -4.8120 -4.7970 -4.7690 -4.6730 -4.6530 -4.6240 -4.6080 -4.6070 -4.6030 3.3328 2.0000
0.01520 7.5000 8.6549 8.6549 4.0119 4.0279 2.4270 -5.2600 -5.2530 -4.9450 -4.8620 -4.8510 -4.8290 -4.7450 -4.7290 -4.7030 -4.6890 -4.6900 -4.6870 3.3328 2.0000
0.01520 7.5000 8.6550 8.6550 4.0082 4.0155 2.3812 -5.2510 -5.2510 -4.9860 -4.9110 -4.9030 -4.8870 -4.8160 -4.8050 -4.7820 -4.7700 -4.7710 -4.7690 3.3328 2.0000
0.01520 7.5000 8.6552 8.6552 4.0043 4.0032 2.3356 -5.2410 -5.2460 -5.0260 -4.9570 -4.9540 -4.9420 -4.8870 -4.8800 -4.8600 -4.8510 -4.8520 -4.8510 3.3328 2.0000
0.01520 7.5000 8.6553 8.6553 4.0002 3.9908 2.2903 -5.2310 -5.2360 -5.0630 -5.0020 -5.0020 -4.9970 -4.9560 -4.9540 -4.9370 -4.9310 -4.9330 -4.9330 3.3328 2.0000
0.01520 7.5000 8.6554 8.6554 3.9960 3.9784 2.2449 -5.2200 -5.2230 -5.0970 -5.0450 -5.0470 -5.0490 -5.0250 -5.0280 -5.0140 -5.0120 -5.0140 -5.0150 3.3328 2.0000
0.01520 7.5000 8.6556 8.6556 3.9915 3.9659 2.1995 -5.2090 -5.2050 -5.1290 -5.0850 -5.0920 -5.1000 -5.0940 -5.1020 -5.0920 -5.0930 -5.0950 -5.0980 3.3328 2.0000
0.01520 7.5000 8.6557 8.6557 3.9869 3.9535 2.1544 -5.1970 -5.1820 -5.1560 -5.1230 -5.1340 -5.1500 -5.1610 -5.1750 -5.1690 -5.1740 -5.1770 -5.1800 3.3328 2.0000
0.01520 7.5000 8.6558 8.6558 3.9822 3.9410 2.1093 -5.1850 -5.1540 -5.1790 -5.1570 -5.1730 -5.1970 -5.2280 -5.2490 -5.2470 -5.2550 -5.2590 -5.2630 3.3328 2.0000
0.01520 7.5000 8.6559 8.6559 3.9773 3.9287 2.0649 -5.1730 -5.1170 -5.1920 -5.1850 -5.2090 -5.2420 -5.2930 -5.3210 -5.3240 -5.3350 -5.3390 -5.3440 3.3328 2.0000
0.01520 7.5000 8.6560 8.6560 3.9723 3.9163 2.0203 -5.1610 -5.0680 -5.1920 -5.2050 -5.2400 -5.2850 -5.3580 -5.3950 -5.4020 -5.4160 -5.4200 -5.4260 3.3328 2.0000
0.01520 7.5000 8.6561 8.6561 3.9671 3.9039 1.9759 -5.1480 -5.0110 -5.1780 -5.2180 -5.2670 -5.3260 -5.4220 -5.4690 -5.4800 -5.4960 -5.5000 -5.5070 3.3328 2.0000
0.01520 7.5000 8.6562 8.6562 3.9619 3.8917 1.9320 -5.1350 -4.9480 -5.1530 -5.2230 -5.2890 -5.3640 -5.4830 -5.5440 -5.5580 -5.5760 -5.5810 -5.5880 3.3328 2.0000
0.01520 7.5000 8.6562 8.6562 3.9565 3.8793 1.8880 -5.1210 -4.8820 -5.1150 -5.2200 -5.3060 -5.4000 -5.5430 -5.6190 -5.6370 -5.6570 -5.6620 -5.6700 3.3328 2.0000
0.01520 7.5000 8.6563 8.6563 3.9510 3.8670 1.8444 -5.1070 -4.8140 -5.0660 -5.2100 -5.3190 -5.4330 -5.6020 -5.6950 -5.7160 -5.7380 -5.7440 -5.7520 3.3328 2.0000
0.01520 7.5000 8.6564 8.6564 3.9453 3.8547 1.8010 -5.0930 -4.7410 -5.0050 -5.1960 -5.3300 -5.4660 -5.6600 -5.7730 -5.7960 -5.8200 -5.8260 -5.8340 3.3328 2.0000
0.01520 7.5000 8.6565 8.6565 3.9393 3.8424 1.7578 -5.0780 -4.6640 -4.9320 -5.1770 -5.3380 -5.4970 -5.7180 -5.8500 -5.8770 -5.9020 -5.9070 -5.9160 3.3328 2.0000
0.01520 7.5000 8.6565 8.6565 3.9333 3.8302 1.7149 -5.0630 -4.5810 -4.8520 -5.1540 -5.3440 -5.5270 -5.7730 -5.9280 -5.9570 -5.9820 -5.9880 -5.9960 3.3328 2.0000
0.01520 7.5000 8.6566 8.6566 3.9269 3.8179 1.6720 -5.0470 -4.4900 -4.7640 -5.1260 -5.3440 -5.5510 -5.8260 -6.0040 -6.0370 -6.0620 -6.0680 -6.0760 3.3328 2.0000
0.01520 7.5000 8.6567 8.6567 3.9204 3.8056 1.6292 -5.0310 -4.3920 -4.6730 -5.0940 -5.3400 -5.5730 -5.8760 -6.0800 -6.1160 -6.1410 -6.1470 -6.1530 3.3328 2.0000
0.01520 7.5000 8.6567 8.6567 3.9137 3.7933 1.5868 -5.0140 -4.2640 -4.5630 -5.0570 -5.3370 -5.5950 -5.9290 -6.1580 -6.1970 -6.2240 -6.2300 -6.2310 3.3328 2.0000
0.01520 7.5000 8.6568 8.6568 3.9068 3.7810 1.5445 -4.9970 -4.0840 -4.4200 -5.0160 -5.3400 -5.6260 -5.9890 -6.2410 -6.2870 -6.3170 -6.3220 -6.3140 3.3328 2.0000
0.01520 7.5000 8.6568 8.6568 3.8995 3.7686 1.5023 -4.9790 -3.9060 -4.2810 -4.9630 -5.3270 -5.6450 -6.0430 -6.3260 -6.3770 -6.4110 -6.4170 -6.3960 3.3328 2.0000
0.01520 7.5000 8.6569 8.6569 3.8919 3.7563 1.4607 -4.9600 -3.7500 -4.1690 -4.9130 -5.3040 -5.6470 -6.0770 -6.3890 -6.4430 -6.4790 -6.4850 -6.4490 3.3328 2.0000
0.01520 7.5000 8.6569 8.6569 3.8839 3.7439 1.4189 -4.9400 -3.5640 -4.0480 -4.8580 -5.2780 -5.6430 -6.1090 -6.4530 -6.5090 -6.5490 -6.5550 -6.5010 3.3328 2.0000
0.01520 7.5000 8.6570 8.6570 3.8754 3.7315 1.3778 -4.9180 -3.3500 -3.9130 -4.7950 -5.2460 -5.6370 -6.1400 -6.5170 -6.5760 -6.6220 -6.6280 -6.5520 3.3328 2.0000
0.01520 7.5000 8.6570 8.6570 3.8662 3.7190 1.3371 -4.8960 -3.1130 -3.7680 -4.7230 -5.2080 -5.6240 -6.1670 -6.5800 -6.6410 -6.6940 -6.7000 -6.5960 3.3328 2.0000
0.01520 7.5000 8.6571 8.6571 3.8557 3.7060 1.2955 -4.8690 -2.8400 -3.6100 -4.6400 -5.1600 -5.6010 -6.1900 -6.6400 -6.7040 -6.7670 -6.7740 -6.6400 3.3328 2.0000
0.01520 7.5000 8.6571 8.6571 3.8426 3.6920 1.2527 -4.8360 -2.5200 -3.4300 -4.5400 -5.0970 -5.5650 -6.2060 -6.6940 -6.7650 -6.8400 -6.8470 -6.6860 3.3328 2.0000
0.01520 7.5000 8.6572 8.6572 3.8249 3.6776 1.2127 -4.7920 -2.1470 -3.2280 -4.4160 -5.0130 -5.5100 -6.2080 -6.7380 -6.8170 -6.9030 -6.9110 -6.7250 3.3328 2.0000
0.01520 7.5000 8.6573 8.6573 3.7982 3.6626 1.1794 -4.7250 -1.7280 -2.9930 -4.2560 -4.8930 -5.4240 -6.1840 -6.7570 -6.8490 -6.9460 -6.9550 -6.7520 3.3328 2.0000
0.01520 7.5000 8.6574 8.6574 3.7688 3.6523 1.1678 -4.6520 -1.4480 -2.8140 -4.1110 -4.7760 -5.3330 -6.1340 -6.7400 -6.8400 -6.9440 -6.9520 -6.7480 3.3328 2.0000
0.01520 7.5000 8.6575 8.6575 3.7393 3.6432 1.1608 -4.5780 -1.1510 -2.6290 -3.9660 -4.6620 -5.2430 -6.0810 -6.7160 -6.8240 -6.9330 -6.9430 -6.7320 3.3328 2.0000
0.01520 7.5000 8.6576 8.6576 3.7275 3.6370 1.1479 -4.5490 -0.9560 -2.5160 -3.8840 -4.6020 -5.2020 -6.0640 -6.7200 -6.8340 -6.9470 -6.9570 -6.7420 3.3328 3.0000
0.01520 7.5000 8.6577 8.6577 3.7412 3.6306 1.1085 -4.5830 -0.8090 -2.4600 -3.8610 -4.6040 -5.2230 -6.1120 -6.7880 -6.9080 -7.0250 -7.0360 -6.8170 3.3328 3.0000
0.01520 7.5000 8.6577 8.6577 3.7747 3.6229 1.0444 -4.6670 -0.6690 -2.4300 -3.8720 -4.6450 -5.2900 -6.2110 -6.9110 -7.0390 -7.1610 -7.1720 -6.9490 3.3328 3.0000
0.01520 7.5000 8.6578 8.6578 3.8171 3.6167 0.9773 -4.7730 -0.5750 -2.4350 -3.9150 -4.7130 -5.3820 -6.3300 -7.0470 -7.1830 -7.3110 -7.3220 -7.0960 3.3328 3.0000
0.01520 7.5000 8.6579 8.6579 3.8604 3.6114 0.9126 -4.8810 -0.4820 -2.4410 -3.9640 -4.7870 -5.4790 -6.4510 -7.1780 -7.3230 -7.4590 -7.4700 -7.2420 3.3328 3.0000
0.01520 7.5000 8.6579 8.6579 3.9031 3.6066 0.8506 -4.9880 -0.4050 -2.4520 -4.0150 -4.8590 -5.5740 -6.5690 -7.3040 -7.4580 -7.6010 -7.6130 -7.3830 3.3328 3.0000
0.01520 7.5000 8.6579 8.6579 3.9136 3.6054 0.8354 -5.0140 -0.3870 -2.4550 -4.0270 -4.8760 -5.5980 -6.5980 -7.3350 -7.4910 -7.6360 -7.6480 -7.4180 3.3328 3.0000
0.01520 7.5000 8.6579 8.6579 3.9434 3.6024 0.7935 -5.0880 -0.3440 -2.4680 -4.0660 -4.9290 -5.6640 -6.6790 -7.4220 -7.5830 -7.7330 -7.7450 -7.5140 3.3328 3.0000
0.01520 7.5000 8.6580 8.6580 3.9727 3.5993 0.7521 -5.1620 -0.3020 -2.4800 -4.1030 -4.9800 -5.7300 -6.7590 -7.5060 -7.6740 -7.8280 -7.8410 -7.6080 3.3328 3.0000
0.01520 7.5000 8.6580 8.6580 3.9836 3.5983 0.7369 -5.1890 -0.2890 -2.4850 -4.1170 -4.9980 -5.7550 -6.7890 -7.5370 -7.7070 -7.8630 -7.8760 -7.6430 3.3328 3.0000
0.01520 7.5000 8.6581 8.6581 4.0370 3.5930 0.6623 -5.3220 -0.2190 -2.5060 -4.1830 -5.0890 -5.8740 -6.9330 -7.6890 -7.8700 -8.0340 -8.0490 -7.8130 3.3328 3.0000
0.01520 7.5000 8.6582 8.6582 4.0837 3.5883 0.5968 -5.4390 -0.1550 -2.5220 -4.2390 -5.1670 -5.9780 -7.0590 -7.8220 -8.0120 -8.1840 -8.1990 -7.9610 3.3328 3.0000
0.01520 7.5000 8.6586 8.6586 4.1284 3.5837 0.5339 -5.5510 -0.0880 -2.5340 -4.2890 -5.2380 -6.0770 -7.1790 -7.9480 -8.1480 -8.3280 -8.3430 -8.1020 3.3328 3.0000
0.01520 7.5000 8.6594 8.6594 4.1725 3.5793 0.4720 -5.6610 -0.0440 -2.5530 -4.3380 -5.3060 -6.1750 -7.2970 -8.0730 -8.2820 -8.4680 -8.4840 -8.2440 3.3328 3.0000
0.01520 7.5000 8.6601 8.6601 4.2059 3.5760 0.4256 -5.7450 -0.0390 -2.5740 -4.3680 -5.3440 -6.2500 -7.3870 -8.1680 -8.3840 -8.5720 -8.5890 -8.3550 3.3328 3.0000
0.01520 7.5000 8.6609 8.6609 4.2379 3.5730 0.3816 -5.8250 -0.0360 -2.5960 -4.4000 -5.3830 -6.3220 -7.4720 -8.2590 -8.4800 -8.6720 -8.6880 -8.4610 3.3328 3.0000
0.01520 7.5000 8.6638 8.6638 4.2690 3.5701 0.3389 -5.9030 -0.0330 -2.6190 -4.4320 -5.4230 -6.3920 -7.5550 -8.3460 -8.5730 -8.7680 -8.7850 -8.5630 3.3328 4.0000
0.01520 7.5000 8.6687 8.6687 4.2615 3.5710 0.3506 -5.8840 -0.0410 -2.6180 -4.4290 -5.4170 -6.3750 -7.5350 -8.3240 -8.5490 -8.7430 -8.7600 -8.5370 3.3328 4.0000
0.01520 7.5000 8.6889 8.6889 4.2259 3.5752 0.4039 -5.7950 -0.0640 -2.6080 -4.4060 -5.3840 -6.2980 -7.4380 -8.2200 -8.4370 -8.6270 -8.6440 -8.4140 3.3329 4.0000
0.01520 7.5000 8.7046 8.7046 4.1896 3.5792 0.4572 -5.7040 -0.0830 -2.5940 -4.3810 -5.3500 -6.2170 -7.3400 -8.1140 -8.3240 -8.5100 -8.5260 -8.2890 3.3329 4.0000
0.01520 7.5000 8.7206 8.7206 4.1470 3.5840 0.5195 -5.5970 -0.1280 -2.5800 -4.3400 -5.2910 -6.1240 -7.2260 -7.9920 -8.1920 -8.3730 -8.3890 -8.1470 3.3329 4.0000
0.01520 7.5000 8.7361 8.7361 4.1071 3.5885 0.5784 -5.4980 -0.2040 -2.5790 -4.3020 -5.2310 -6.0370 -7.1180 -7.8770 -8.0680 -8.2420 -8.2570 -8.0190 3.3329 4.0000
0.01520 7.5000 8.7510 8.7510 4.0747 3.5925 0.6273 -5.4170 -0.2690 -2.5800 -4.2720 -5.1830 -5.9670 -7.0290 -7.7820 -7.9660 -8.1330 -8.1480 -7.9120 3.3329 4.0000
0.01520 7.5000 8.7705 8.7705 4.0460 3.5967 0.6737 -5.3450 -0.3470 -2.5930 -4.2520 -5.1440 -5.9070 -6.9500 -7.6950 -7.8700 -8.0330 -8.0460 -7.8120 3.3329 4.0000
0.01520 7.5000 8.8087 8.8087 4.0235 3.6031 0.7237 -5.2890 -0.5020 -2.6570 -4.2740 -5.1390 -5.8670 -6.8820 -7.6120 -7.7770 -7.9320 -7.9450 -7.7140 3.3330 4.0000
0.01520 7.5000 8.8180 8.8180 4.0205 3.6046 0.7331 -5.2810 -0.5420 -2.6760 -4.2840 -5.1420 -5.8640 -6.8720 -7.5980 -7.7610 -7.9150 -7.9280 -7.6970 3.3330 5.0000
0.01520 7.5000 8.8434 8.8434 4.0465 3.6114 0.7358 -5.3460 -0.7930 -2.8500 -4.4260 -5.2570 -5.9470 -6.9270 -7.6300 -7.7850 -7.9350 -7.9470 -7.7190 3.3330 5.0000
0.01520 7.5000 8.8496 8.8496 4.0623 3.6148 0.7336 -5.3860 -0.9220 -2.9400 -4.5000 -5.3180 -5.9950 -6.9610 -7.6530 -7.8040 -7.9530 -7.9650 -7.7390 3.3330 5.0000
0.01520 7.5000 8.8518 8.8518 4.0790 3.6182 0.7311 -5.4270 -1.0580 -3.0340 -4.5790 -5.3820 -6.0450 -6.9970 -7.6770 -7.8240 -7.9710 -7.9830 -7.7590 3.3330 5.0000
0.01520 7.5000 8.8527 8.8527 4.0882 3.6209 0.7327 -5.4500 -1.1570 -3.0980 -4.6290 -5.4210 -6.0740 -7.0150 -7.6870 -7.8310 -7.9760 -7.9880 -7.7660 3.3330 5.0000
0.01520 7.5000 8.8532 8.8532 4.0936 3.6232 0.7364 -5.4640 -1.2380 -3.1460 -4.6650 -5.4480 -6.0940 -7.0250 -7.6900 -7.8310 -7.9740 -7.9860 -7.7650 3.3330 5.0000
0.01520 7.5000 8.8535 8.8535 4.0980 3.6254 0.7407 -5.4750 -1.3120 -3.1890 -4.6970 -5.4710 -6.1090 -7.0310 -7.6900 -7.8290 -7.9700 -7.9820 -7.7630 3.3330 5.0000
0.01520 7.5000 8.8538 8.8538 4.1014 3.6273 0.7448 -5.4840 -1.3760 -3.2260 -4.7240 -5.4900 -6.1220 -7.0360 -7.6890 -7.8260 -7.9660 -7.9780 -7.7590 3.3330 5.0000
0.01520 7.5000 8.8540 8.8540 4.1045 3.6291 0.7492 -5.4910 -1.4400 -3.2620 -4.7500 -5.5080 -6.1340 -7.0410 -7.6880 -7.8220 -7.9600 -7.9720 -7.7550 3.3330 5.0000
0.01520 7.5000 8.8542 8.8542 4.1091 3.6328 0.7595 -5.5030 -1.5610 -3.3280 -4.7940 -5.5390 -6.1540 -7.0440 -7.6810 -7.8110 -7.9460 -7.9570 -7.7430 3.3330 5.0000
0.01520 7.5000 8.8545 8.8545 4.1137 3.6366 0.7699 -5.5140 -1.6840 -3.3950 -4.8390 -5.5700 -6.1730 -7.0470 -7.6740 -7.7990 -7.9310 -7.9420 -7.7310 3.3330 5.0000
0.01520 7.5000 8.8548 8.8548 4.1198 3.6453 0.7984 -5.5290 -1.9560 -3.5340 -4.9270 -5.6260 -6.2050 -7.0420 -7.6450 -7.7610 -7.8840 -7.8940 -7.6900 3.3330 5.0000
0.01520 7.5000 8.8551 8.8551 4.1242 3.6563 0.8381 -5.5400 -2.2490 -3.6810 -5.0220 -5.6870 -6.2360 -7.0250 -7.5990 -7.7030 -7.8150 -7.8250 -7.6260 3.3330 5.0000
0.01520 7.5000 8.8555 8.8555 4.1290 3.6743 0.9053 -5.5520 -2.6890 -3.9010 -5.1530 -5.7680 -6.2750 -6.9870 -7.5140 -7.5990 -7.6950 -7.7040 -7.5150 3.3330 5.0000
0.01520 7.5000 8.8558 8.8558 4.1324 3.6900 0.9647 -5.5610 -3.0800 -4.0920 -5.2520 -5.8240 -6.2980 -6.9450 -7.4310 -7.5040 -7.5860 -7.5930 -7.4270 3.3330 5.0000
0.01520 7.5000 8.8564 8.8564 4.1362 3.7094 1.0387 -5.5700 -3.5020 -4.3140 -5.3570 -5.8740 -6.3100 -6.8870 -7.3200 -7.3850 -7.4490 -7.4550 -7.3290 3.3330 5.0000
0.01520 7.5000 8.8569 8.8569 4.1391 3.7244 1.0958 -5.5780 -3.7950 -4.4790 -5.4290 -5.9040 -6.3100 -6.8350 -7.2260 -7.2880 -7.3400 -7.3470 -7.2590 3.3330 5.0000
0.01520 7.5000 8.8575 8.8575 4.1421 3.7386 1.1496 -5.5850 -4.0350 -4.6230 -5.4890 -5.9270 -6.3050 -6.7860 -7.1390 -7.1990 -7.2440 -7.2500 -7.1900 3.3330 5.0000
0.01520 7.5000 8.8583 8.8583 4.1459 3.7516 1.1978 -5.5950 -4.2960 -4.7670 -5.5400 -5.9410 -6.2920 -6.7320 -7.0500 -7.1060 -7.1470 -7.1540 -7.1190 3.3330 5.0000
0.01520 7.5000 8.8593 8.8593 4.1533 3.7640 1.2400 -5.6130 -4.4590 -4.8790 -5.5900 -5.9640 -6.2920 -6.7000 -6.9880 -7.0420 -7.0810 -7.0880 -7.0670 3.3330 5.0000
0.01520 7.5000 8.8611 8.8611 4.1690 3.7877 1.3193 -5.6530 -4.8060 -5.1540 -5.6920 -5.9880 -6.2560 -6.6010 -6.8340 -6.8780 -6.9100 -6.9160 -6.9170 3.3330 5.0000
0.01520 7.5000 8.8629 8.8629 4.1827 3.8278 1.4663 -5.6870 -5.1830 -5.4810 -5.7810 -5.9700 -6.1550 -6.4060 -6.5610 -6.5910 -6.6200 -6.6270 -6.6360 3.3330 5.0000
0.01520 7.5000 8.8650 8.8650 4.1885 3.8729 1.6409 -5.7010 -5.4460 -5.6910 -5.8050 -5.8990 -6.0010 -6.1560 -6.2390 -6.2580 -6.2810 -6.2880 -6.2960 3.3330 5.0000
0.01520 7.5000 8.8674 8.8674 4.1914 3.8981 1.7388 -5.7080 -5.5650 -5.7410 -5.7880 -5.8430 -5.9090 -6.0140 -6.0660 -6.0780 -6.0970 -6.1020 -6.1100 3.3330 5.0000
0.01520 7.5000 8.8700 8.8700 4.1946 3.9133 1.7964 -5.7160 -5.6300 -5.7480 -5.7660 -5.8040 -5.8540 -5.9290 -5.9690 -5.9750 -5.9910 -5.9960 -6.0030 3.3330 5.0000
0.01520 7.5000 8.8727 8.8727 4.1981 3.9254 1.8414 -5.7250 -5.6750 -5.7430 -5.7430 -5.7720 -5.8100 -5.8630 -5.8940 -5.8970 -5.9100 -5.9140 -5.9200 3.3330 5.0000
0.01520 7.5000 8.8758 8.8758 4.2019 3.9370 1.8844 -5.7350 -5.7110 -5.7290 -5.7150 -5.7370 -5.7660 -5.8000 -5.8240 -5.8230 -5.8330 -5.8370 -5.8420 3.3330 5.0000
0.01520 7.5000 8.8799 8.8799 4.2067 3.9513 1.9368 -5.7470 -5.7440 -5.7040 -5.6760 -5.6920 -5.7110 -5.7230 -5.7390 -5.7330 -5.7390 -5.7430 -5.7460 3.3330 5.0000
0.01520 7.5000 8.8842 8.8842 4.2110 3.9636 1.9821 -5.7570 -5.7670 -5.6790 -5.6390 -5.6500 -5.6620 -5.6560 -5.6660 -5.6560 -5.6580 -5.6610 -5.6630 3.3330 5.0000
0.01520 7.5000 8.8894 8.8894 4.2155 3.9758 2.0266 -5.7690 -5.7870 -5.6470 -5.6000 -5.6080 -5.6140 -5.5900 -5.5950 -5.5810 -5.5800 -5.5820 -5.5840 3.3330 5.0000
0.01520 7.5000 8.8960 8.8960 4.2198 3.9856 2.0619 -5.7790 -5.8020 -5.6210 -5.5680 -5.5740 -5.5760 -5.5380 -5.5400 -5.5230 -5.5200 -5.5220 -5.5220 3.3330 5.0000
0.01520 7.5000 8.9041 8.9041 4.2237 3.9912 2.0806 -5.7890 -5.8130 -5.6100 -5.5540 -5.5590 -5.5570 -5.5130 -5.5120 -5.4940 -5.4890 -5.4910 -5.4910 3.3330 6.0000
0.01520 7.5000 8.9181 8.9181 4.2269 3.9829 2.0450 -5.7970 -5.8190 -5.6490 -5.5980 -5.6040 -5.6080 -5.5740 -5.5760 -5.5600 -5.5570 -5.5590 -5.5600 3.3331 6.0000
0.01520 7.5000 8.9264 8.9264 4.2281 3.9731 2.0049 -5.8000 -5.8180 -5.6880 -5.6430 -5.6510 -5.6590 -5.6390 -5.6450 -5.6320 -5.6310 -5.6340 -5.6360 3.3331 6.0000
0.01520 7.5000 8.9342 8.9342 4.2288 3.9616 1.9588 -5.8020 -5.8100 -5.7290 -5.6920 -5.7030 -5.7170 -5.7130 -5.7240 -5.7150 -5.7170 -5.7200 -5.7230 3.3331 6.0000
0.01520 7.5000 8.9441 8.9441 4.2294 3.9453 1.8933 -5.8030 -5.7950 -5.7750 -5.7530 -5.7730 -5.7970 -5.8170 -5.8370 -5.8320 -5.8400 -5.8440 -5.8480 3.3331 6.0000
0.01520 7.5000 8.9526 8.9526 4.2294 3.9291 1.8288 -5.8040 -5.7650 -5.8150 -5.8100 -5.8360 -5.8720 -5.9180 -5.9470 -5.9480 -5.9600 -5.9650 -5.9700 3.3331 6.0000
0.01520 7.5000 8.9581 8.9581 4.2290 3.9167 1.7801 -5.8030 -5.7290 -5.8310 -5.8430 -5.8790 -5.9250 -5.9930 -6.0300 -6.0360 -6.0510 -6.0560 -6.0620 3.3331 6.0000
0.01520 7.5000 8.9641 8.9641 4.2280 3.9006 1.7169 -5.8000 -5.6690 -5.8350 -5.8760 -5.9270 -5.9900 -6.0890 -6.1400 -6.1500 -6.1690 -6.1740 -6.1820 3.3331 6.0000
0.01520 7.5000 8.9689 8.9689 4.2269 3.8869 1.6634 -5.7970 -5.6090 -5.8190 -5.8920 -5.9620 -6.0420 -6.1690 -6.2330 -6.2480 -6.2700 -6.2750 -6.2840 3.3331 6.0000
0.01520 7.5000 8.9727 8.9727 4.2253 3.8724 1.6073 -5.7930 -5.5370 -5.7830 -5.8980 -5.9920 -6.0940 -6.2500 -6.3340 -6.3520 -6.3770 -6.3830 -6.3920 3.3331 6.0000
0.01520 7.5000 8.9758 8.9758 4.2233 3.8580 1.5517 -5.7880 -5.4590 -5.7330 -5.8970 -6.0170 -6.1450 -6.3310 -6.4340 -6.4580 -6.4840 -6.4910 -6.5000 3.3331 6.0000
0.01520 7.5000 8.9786 8.9786 4.2211 3.8433 1.4954 -5.7830 -5.3720 -5.6630 -5.8870 -6.0390 -6.1940 -6.4110 -6.5390 -6.5660 -6.5940 -6.6000 -6.6100 3.3331 6.0000
0.01520 7.5000 8.9809 8.9809 4.2186 3.8283 1.4379 -5.7760 -5.2760 -5.5750 -5.8720 -6.0590 -6.2430 -6.4920 -6.6460 -6.6760 -6.7060 -6.7120 -6.7220 3.3331 6.0000
0.01520 7.5000 8.9830 8.9830 4.2159 3.8133 1.3808 -5.7700 -5.1680 -5.4770 -5.8500 -6.0730 -6.2860 -6.5700 -6.7520 -6.7870 -6.8160 -6.8230 -6.8320 3.3331 6.0000
0.01520 7.5000 8.9848 8.9848 4.2128 3.7977 1.3213 -5.7620 -5.0350 -5.3610 -5.8200 -6.0830 -6.3280 -6.6490 -6.8630 -6.9020 -6.9330 -6.9390 -6.9450 3.3331 6.0000
0.01520 7.5000 8.9863 8.9863 4.2094 3.7812 1.2591 -5.7530 -4.8110 -5.1850 -5.7810 -6.1000 -6.3840 -6.7430 -6.9870 -7.0350 -7.0700 -7.0760 -7.0730 3.3331 6.0000
0.01520 7.5000 8.9877 8.9877 4.2054 3.7638 1.1934 -5.7430 -4.5810 -5.0070 -5.7210 -6.0950 -6.4230 -6.8320 -7.1190 -7.1730 -7.2130 -7.2200 -7.2010 3.3331 6.0000
0.01520 7.5000 8.9889 8.9889 4.2005 3.7451 1.1236 -5.7310 -4.3000 -4.8360 -5.6570 -6.0770 -6.4410 -6.9010 -7.2350 -7.2940 -7.3370 -7.3430 -7.2970 3.3331 6.0000
0.01520 7.5000 8.9899 8.9899 4.1939 3.7259 1.0537 -5.7150 -3.9430 -4.6270 -5.5720 -6.0450 -6.4470 -6.9670 -7.3520 -7.4140 -7.4660 -7.4730 -7.3890 3.3331 6.0000
0.01520 7.5000 8.9908 8.9908 4.1845 3.7091 0.9958 -5.6910 -3.6000 -4.4270 -5.4760 -5.9950 -6.4320 -7.0100 -7.4430 -7.5080 -7.5730 -7.5790 -7.4530 3.3331 6.0000
0.01520 7.5000 8.9916 8.9916 4.1731 3.6966 0.9570 -5.6630 -3.3130 -4.2620 -5.3870 -5.9410 -6.4030 -7.0250 -7.4920 -7.5620 -7.6390 -7.6470 -7.4960 3.3331 6.0000
0.01520 7.5000 8.9923 8.9923 4.1611 3.6863 0.9282 -5.6330 -3.0560 -4.1190 -5.3040 -5.8860 -6.3680 -7.0300 -7.5230 -7.5990 -7.6850 -7.6930 -7.5230 3.3331 6.0000
0.01520 7.5000 8.9931 8.9931 4.1494 3.6742 0.8913 -5.6030 -2.7320 -3.9480 -5.2030 -5.8190 -6.3270 -7.0390 -7.5650 -7.6500 -7.7470 -7.7560 -7.5690 3.3331 6.0000
0.01520 7.5000 8.9937 8.9937 4.1446 3.6648 0.8584 -5.5920 -2.4900 -3.8260 -5.1310 -5.7730 -6.3020 -7.0550 -7.6050 -7.6990 -7.8050 -7.8150 -7.6180 3.3331 6.0000
0.01520 7.5000 8.9942 8.9942 4.1416 3.6559 0.8261 -5.5840 -2.2780 -3.7180 -5.0620 -5.7290 -6.2800 -7.0700 -7.6440 -7.7480 -7.8620 -7.8720 -7.6730 3.3331 6.0000
0.01520 7.5000 8.9947 8.9947 4.1398 3.6475 0.7940 -5.5800 -2.0620 -3.6110 -4.9950 -5.6870 -6.2590 -7.0870 -7.6830 -7.7970 -7.9180 -7.9290 -7.7270 3.3331 6.0000
0.01520 7.5000 8.9952 8.9952 4.1375 3.6384 0.7601 -5.5740 -1.7850 -3.4760 -4.9140 -5.6380 -6.2370 -7.1040 -7.7240 -7.8480 -7.9780 -7.9900 -7.7800 3.3331 6.0000
0.01520 7.5000 8.9957 8.9957 4.1334 3.6291 0.7269 -5.5640 -1.4910 -3.3270 -4.8200 -5.5800 -6.2070 -7.1140 -7.7590 -7.8950 -8.0350 -8.0460 -7.8300 3.3331 6.0000
0.01520 7.5000 8.9965 8.9965 4.1244 3.6193 0.6970 -5.5410 -1.1720 -3.1530 -4.7030 -5.5030 -6.1620 -7.1110 -7.7830 -7.9310 -8.0800 -8.0920 -7.8690 3.3331 6.0000
0.01520 7.5000 8.9974 8.9974 4.1099 3.6126 0.6848 -5.5050 -0.9410 -3.0110 -4.5960 -5.4240 -6.1090 -7.0860 -7.7790 -7.9350 -8.0880 -8.1010 -7.8740 3.3331 6.0000
0.01520 7.5000 8.9982 8.9982 4.0933 3.6071 0.6791 -5.4630 -0.7440 -2.8810 -4.4940 -5.3450 -6.0530 -7.0530 -7.7640 -7.9270 -8.0830 -8.0970 -7.8670 3.3331 6.0000
0.01520 7.5000 8.9997 8.9997 4.0973 3.6000 0.6468 -5.4730 -0.5360 -2.7670 -4.4230 -5.3050 -6.0440 -7.0750 -7.8050 -7.9780 -8.1410 -8.1550 -7.9220 3.3331 6.0000
0.01520 7.5000 9.0000 9.0000 4.1014 3.5990 0.6387 -5.4840 -0.5140 -2.7590 -4.4200 -5.3070 -6.0520 -7.0870 -7.8200 -7.9940 -8.1580 -8.1720 -7.9390 3.3331 6.0000
0.01520 7.5000 9.0009 9.0009 4.1119 3.5965 0.6182 -5.5100 -0.4570 -2.7370 -4.4150 -5.3120 -6.0710 -7.1170 -7.8560 -8.0350 -8.2020 -8.2160 -7.9820 3.3331 6.0000
0.01520 7.5000 9.0080 9.0080 4.1460 3.5904 0.5603 -5.5950 -0.3340 -2.7020 -4.4260 -5.3510 -6.1400 -7.2130 -7.9640 -8.1540 -8.3280 -8.3430 -8.1060 3.3331 6.0000
0.01520 7.5000 9.0091 9.0091 4.1707 3.5870 0.5218 -5.6570 -0.2690 -2.6920 -4.4410 -5.3820 -6.1920 -7.2810 -8.0370 -8.2340 -8.4140 -8.4290 -8.1890 3.3331 7.0000
0.01520 7.5000 9.0094 9.0094 4.1839 3.5853 0.5022 -5.6900 -0.2400 -2.6900 -4.4520 -5.4010 -6.2200 -7.3170 -8.0760 -8.2760 -8.4570 -8.4730 -8.2320 3.3331 7.0000
0.01520 7.5000 9.0119 9.0119 4.1991 3.5832 0.4785 -5.7280 -0.2150 -2.6890 -4.4610 -5.4180 -6.2520 -7.3580 -8.1220 -8.3260 -8.5090 -8.5250 -8.2860 3.3331 7.0000
0.01520 7.5000 9.0127 9.0127 4.2413 3.5784 0.4171 -5.8330 -0.1830 -2.7040 -4.4970 -5.4690 -6.3450 -7.4710 -8.2450 -8.4570 -8.6450 -8.6620 -8.4310 3.3331 7.0000
0.01520 7.5000 9.0135 9.0135 4.2847 3.5736 0.3546 -5.9420 -0.1620 -2.7220 -4.5290 -5.5130 -6.4410 -7.5890 -8.3710 -8.5920 -8.7840 -8.8010 -8.5790 3.3331 7.0000
0.01520 7.5000 9.0146 9.0146 4.3286 3.5688 0.2916 -6.0520 -0.1410 -2.7400 -4.5600 -5.5550 -6.5370 -7.7070 -8.4970 -8.7280 -8.9240 -8.9410 -8.7270 3.3331 7.0000
0.01520 7.5000 9.0160 9.0160 4.3715 3.5642 0.2302 -6.1590 -0.1170 -2.7540 -4.5770 -5.5810 -6.6310 -7.8230 -8.6210 -8.8600 -9.0610 -9.0790 -8.8710 3.3331 7.0000
0.01520 7.5000 9.0176 9.0176 4.4118 3.5598 0.1725 -6.2590 -0.0920 -2.7670 -4.5950 -5.6080 -6.7180 -7.9310 -8.7370 -8.9840 -9.1900 -9.2080 -9.0050 3.3331 7.0000
0.01520 7.5000 9.0193 9.0193 4.4518 3.5554 0.1149 -6.3600 -0.0680 -2.7690 -4.5880 -5.6110 -6.8020 -8.0400 -8.8520 -9.1080 -9.3180 -9.3370 -9.1390 3.3331 7.0000
0.01520 7.5000 9.0215 9.0215 4.4960 3.5504 0.0511 -6.4700 -0.0360 -2.7710 -4.5830 -5.6170 -6.8960 -8.1600 -8.9800 -9.2440 -9.4600 -9.4790 -9.2870 3.3331 7.0000
0.01520 7.5000 9.0237 9.0237 4.5381 3.5456 -0.0101 -6.5750 -0.0200 -2.7560 -4.5390 -5.5890 -6.9760 -8.2760 -9.1050 -9.3770 -9.5960 -9.6160 -9.4250 3.3332 8.0000
